waveform_e/signalsFifo.vcd
$date
	Fri Jul  1 18:41:54 2016
$end
$version
	Icarus Verilog
$end
$timescale
	1ps
$end
$scope module TestBench $end
$var wire 1 ! ack_o $end
$var wire 5 " adr_i [4:0] $end
$var wire 5 # adr_o [4:0] $end
$var wire 32 $ argument [31:0] $end
$var wire 16 % block_count [15:0] $end
$var wire 12 & block_size [11:0] $end
$var wire 1 ' cmd_done_i $end
$var wire 16 ( command [15:0] $end
$var wire 1 ) data_done_i $end
$var wire 16 * error_interrupt_status_o [15:0] $end
$var wire 1 + error_o $end
$var wire 128 , fifo_bus_o [127:0] $end
$var wire 1 - fifo_read_en $end
$var wire 4 . fifo_status [3:0] $end
$var wire 1 / fifo_write_en $end
$var wire 1 0 new_command $end
$var wire 1 1 new_data $end
$var wire 16 2 present_state [15:0] $end
$var wire 128 3 q_tx_out [127:0] $end
$var wire 128 4 reg_bus_o [127:0] $end
$var wire 1 5 reg_read_en $end
$var wire 1 6 reg_write_en $end
$var wire 1 7 reset $end
$var wire 128 8 sd_data_i [127:0] $end
$var wire 3 9 software_reset [2:0] $end
$var wire 1 : strobe $end
$var wire 16 ; timeout_control [15:0] $end
$var wire 16 < transfer_mode [15:0] $end
$var wire 1 = wb_clock $end
$var wire 128 > wb_data_bus_i [127:0] $end
$var wire 128 ? wb_data_bus_o [127:0] $end
$var wire 128 @ wb_data_i [127:0] $end
$var wire 128 A wb_data_o [127:0] $end
$var wire 1 B we_i $end
$scope module wb_salve1 $end
$var wire 5 C adr_i [4:0] $end
$var wire 1 = clock $end
$var wire 1 ' cmd_done_i $end
$var wire 1 ) data_done_i $end
$var wire 1 D fifo_read_wait $end
$var wire 1 E fifo_write_wait $end
$var wire 128 F host_data_i [127:0] $end
$var wire 1 7 reset $end
$var wire 1 : strobe $end
$var wire 128 G wb_data_i [127:0] $end
$var wire 1 B we_i $end
$var reg 1 H ack_o $end
$var reg 5 I adr_o [4:0] $end
$var reg 1 J error_o $end
$var reg 1 K fifo_read_en $end
$var reg 1 L fifo_write_en $end
$var reg 128 M host_data_o [127:0] $end
$var reg 1 N new_command $end
$var reg 1 O new_data $end
$var reg 4 P next_state [3:0] $end
$var reg 1 Q reg_read_en $end
$var reg 1 R reg_write_en $end
$var reg 4 S state [3:0] $end
$var reg 128 T wb_data_o [127:0] $end
$upscope $end
$scope module regs $end
$var wire 5 U adr_i [4:0] $end
$var wire 1 = clock $end
$var wire 1 V command_complete $end
$var wire 128 W data_i [127:0] $end
$var wire 16 X error_interrupt_status_i [15:0] $end
$var wire 16 Y normal_interrupt_status_i [15:0] $end
$var wire 1 5 reg_read_en $end
$var wire 1 6 reg_write_en $end
$var wire 1 7 reset $end
$var wire 128 Z response_i [127:0] $end
$var reg 32 [ argument [31:0] $end
$var reg 16 \ block_count [15:0] $end
$var reg 12 ] block_size [11:0] $end
$var reg 16 ^ command [15:0] $end
$var reg 128 _ data_o [127:0] $end
$var reg 16 ` error_interrupt_signal_enable [15:0] $end
$var reg 16 a error_interrupt_status_enable [15:0] $end
$var reg 16 b error_interrupt_status_o [15:0] $end
$var reg 16 c host_controller_version [15:0] $end
$var reg 16 d normal_interrupt_signal_enable [15:0] $end
$var reg 16 e normal_interrupt_status [15:0] $end
$var reg 16 f normal_interrupt_status_enable [15:0] $end
$var reg 16 g present_state [15:0] $end
$var reg 128 h response [127:0] $end
$var reg 3 i software_reset [2:0] $end
$var reg 16 j timeout_control [15:0] $end
$var reg 16 k transfer_mode [15:0] $end
$upscope $end
$scope module fifoController $end
$var wire 128 l data_rx_in [127:0] $end
$var wire 128 m data_tx_in [127:0] $end
$var wire 4 n enable_in [3:0] $end
$var wire 128 o q_rx_out [127:0] $end
$var wire 128 p q_tx_out [127:0] $end
$var wire 1 7 reset $end
$var wire 1 = sd_clock $end
$var wire 4 q status_out [3:0] $end
$var wire 1 = wishbone_clock $end
$scope module tx_fifo $end
$var wire 3 r almost_empty [2:0] $end
$var wire 3 s almost_full [2:0] $end
$var wire 128 t data [127:0] $end
$var wire 1 = read_clock $end
$var wire 1 u read_enable $end
$var wire 1 7 reset $end
$var wire 128 v test [127:0] $end
$var wire 128 w test1 [127:0] $end
$var wire 128 x test2 [127:0] $end
$var wire 128 y test3 [127:0] $end
$var wire 128 z test4 [127:0] $end
$var wire 128 { test5 [127:0] $end
$var wire 128 | test6 [127:0] $end
$var wire 128 } test7 [127:0] $end
$var wire 1 = write_clock $end
$var wire 1 ~ write_enable $end
$var reg 1 !" control $end
$var reg 1 "" fifo_empty $end
$var reg 1 #" fifo_full $end
$var reg 128 $" q [127:0] $end
$var reg 1 %" read_enable_d $end
$var reg 3 &" read_pointer [2:0] $end
$var reg 1 '" write_enable_d $end
$var reg 3 (" write_pointer [2:0] $end
$upscope $end
$scope module rx_fifo $end
$var wire 3 )" almost_empty [2:0] $end
$var wire 3 *" almost_full [2:0] $end
$var wire 128 +" data [127:0] $end
$var wire 1 = read_clock $end
$var wire 1 ," read_enable $end
$var wire 1 7 reset $end
$var wire 128 -" test [127:0] $end
$var wire 128 ." test1 [127:0] $end
$var wire 128 /" test2 [127:0] $end
$var wire 128 0" test3 [127:0] $end
$var wire 128 1" test4 [127:0] $end
$var wire 128 2" test5 [127:0] $end
$var wire 128 3" test6 [127:0] $end
$var wire 128 4" test7 [127:0] $end
$var wire 1 = write_clock $end
$var wire 1 5" write_enable $end
$var reg 1 6" control $end
$var reg 1 7" fifo_empty $end
$var reg 1 8" fifo_full $end
$var reg 128 9" q [127:0] $end
$var reg 1 :" read_enable_d $end
$var reg 3 ;" read_pointer [2:0] $end
$var reg 1 <" write_enable_d $end
$var reg 3 =" write_pointer [2:0] $end
$upscope $end
$upscope $end
$scope module WBM $end
$var wire 1 ! ack_i $end
$var wire 5 >" adr_o [4:0] $end
$var wire 1 ' cmd_done_i $end
$var wire 1 ) data_done_i $end
$var wire 1 + error_i $end
$var wire 1 ?" fifo_read_wait $end
$var wire 1 @" fifo_write_wait $end
$var wire 128 A" host_data_i [127:0] $end
$var wire 1 7 reset $end
$var wire 1 : strobe_o $end
$var wire 1 = wb_clock $end
$var wire 128 B" wb_data_i [127:0] $end
$var wire 128 C" wb_data_o [127:0] $end
$var wire 1 B we_o $end
$scope module clk1 $end
$var reg 1 D" clock $end
$upscope $end
$scope module r1 $end
$var reg 1 E" reset $end
$upscope $end
$scope module hDatag $end
$var reg 128 F" host_data [127:0] $end
$upscope $end
$scope module cmddgen $end
$var reg 1 G" done $end
$upscope $end
$scope module datadgen $end
$var reg 1 H" done $end
$upscope $end
$scope module weg $end
$var reg 1 I" we_in $end
$upscope $end
$scope module adrg $end
$var wire 1 ! ack_i $end
$var wire 1 = wb_clock $end
$var reg 5 J" adr_o [4:0] $end
$upscope $end
$scope module strg $end
$var reg 1 K" strobe_in $end
$upscope $end
$scope module wbDatag $end
$var reg 128 L" wb_data [127:0] $end
$upscope $end
$scope module fwwg $end
$var reg 1 M" fifo_write_wait $end
$upscope $end
$scope module frwg $end
$var reg 1 N" fifo_read_wait $end
$upscope $end
$upscope $end
$upscope $end
$enddefinitions $end
#0
$dumpvars
0N"
0M"
b100 L"
0K"
b0 J"
1I"
0H"
0G"
b0 F"
0E"
0D"
b100 C"
b0 B"
b0 A"
0@"
0?"
b0 >"
bx ="
x<"
bx ;"
x:"
bx 9"
x8"
x7"
x6"
15"
bz 4"
bz 3"
bz 2"
bz 1"
bz 0"
bz /"
bz ."
bz -"
0,"
b0 +"
bx *"
bx )"
bx ("
x'"
bx &"
x%"
bx $"
x#"
x""
x!"
0~
bz }
bz |
bz {
bz z
bz y
bz x
bz w
bz v
0u
b0 t
bx s
bx r
bx q
bx p
bx o
b100 n
b0 m
b0 l
bx k
bx j
bx i
bx h
bx g
bx f
bx e
bx d
bx c
bx b
bx a
bx `
bx _
bx ^
bx ]
bx \
bx [
b0 Z
b0 Y
b0 X
b0 W
0V
b0 U
b0 T
b0 S
0R
0Q
b1 P
0O
0N
b0 M
0L
0K
0J
b0 I
0H
b100 G
b0 F
xE
xD
b0 C
1B
b0 A
b100 @
b0 ?
b0 >
0=
bx <
bx ;
0:
bx 9
b0 8
07
06
05
bx 4
bx 3
bx 2
01
00
0/
bx .
0-
bx ,
0+
bx *
0)
bx (
0'
bx &
bx %
bx $
b0 #
b0 "
0!
$end
#40000
b11 P
b1 S
0'"
1<"
0%"
0:"
1D"
1=
b1000011100110110010010010101111001100111010000111010111001000101100010001101010100101010011010000011100101010110 L"
b1000011100110110010010010101111001100111010000111010111001000101100010001101010100101010011010000011100101010110 @
b1000011100110110010010010101111001100111010000111010111001000101100010001101010100101010011010000011100101010110 G
b1000011100110110010010010101111001100111010000111010111001000101100010001101010100101010011010000011100101010110 C"
1K"
1:
b1 F"
b1 8
b1 l
b1 +"
b1 A"
#60000
b1 -"
0E
b111 r
b111 s
0D
b111 )"
b111 *"
0!"
b0 $"
b0 3
b0 p
1""
0#"
b0 ("
b0 &"
06"
b0 9"
b0 ,
b0 o
07"
08"
b10 .
b10 q
b0 ="
b0 ;"
0<"
0D"
0=
1E"
17
#80000
b1 P
1<"
b0 c
b0 `
b0 d
b0 a
b0 f
b0 e
b0 h
b0 _
b0 4
b0 b
b0 *
b0 i
b0 9
b0 j
b0 ;
b0 g
b0 2
b0 ^
b0 (
b0 k
b0 <
b0 [
b0 $
b0 \
b0 %
b0 ]
b0 &
b0 S
b0 )"
b110 *"
b10 ."
b1 ="
1D"
1=
b10000111001101100100100101011110011001110100001110101110010001011000100011010101001010100110100000111001010101000 L"
b10000111001101100100100101011110011001110100001110101110010001011000100011010101001010100110100000111001010101000 @
b10000111001101100100100101011110011001110100001110101110010001011000100011010101001010100110100000111001010101000 G
b10000111001101100100100101011110011001110100001110101110010001011000100011010101001010100110100000111001010101000 C"
b10 F"
b10 8
b10 l
b10 +"
b10 A"
#90000
0E"
07
#100000
0D"
0=
#120000
b11 P
b1 S
b1 )"
b101 *"
b10 ="
1D"
1=
b11001010110100010110111000001101100110101110010110000101011010000100110100111111101111111001110001010101111111010 L"
b11001010110100010110111000001101100110101110010110000101011010000100110100111111101111111001110001010101111111010 @
b11001010110100010110111000001101100110101110010110000101011010000100110100111111101111111001110001010101111111010 G
b11001010110100010110111000001101100110101110010110000101011010000100110100111111101111111001110001010101111111010 C"
b11 F"
b11 8
b11 l
b11 +"
b11 A"
#140000
0D"
0=
#160000
1R
16
b100001110011011001001001010111100110011101000011101011100100010110001000110101010010101001101000001110010101001100 M
b100001110011011001001001010111100110011101000011101011100100010110001000110101010010101001101000001110010101001100 ?
b100001110011011001001001010111100110011101000011101011100100010110001000110101010010101001101000001110010101001100 W
b100001110011011001001001010111100110011101000011101011100100010110001000110101010010101001101000001110010101001100 m
b100001110011011001001001010111100110011101000011101011100100010110001000110101010010101001101000001110010101001100 t
1H
1!
b11 S
b10 )"
b100 *"
b100 0"
b11 ="
1D"
1=
b100001110011011001001001010111100110011101000011101011100100010110001000110101010010101001101000001110010101001100 L"
b100001110011011001001001010111100110011101000011101011100100010110001000110101010010101001101000001110010101001100 @
b100001110011011001001001010111100110011101000011101011100100010110001000110101010010101001101000001110010101001100 G
b100001110011011001001001010111100110011101000011101011100100010110001000110101010010101001101000001110010101001100 C"
b100 F"
b100 8
b100 l
b100 +"
b100 A"
#180000
0D"
0=
#200000
b101 1"
b101010010000001111011011101101100000000100010100100110011101011011101011000010100111010100000010010001111010011110 v
0""
b0 .
b0 q
b11 )"
b11 *"
1~
b100 ="
b10001 I
b10001 #
b10001 U
0R
06
1L
b101 n
1/
b101010010000001111011011101101100000000100010100100110011101011011101011000010100111010100000010010001111010011110 M
b101010010000001111011011101101100000000100010100100110011101011011101011000010100111010100000010010001111010011110 ?
b101010010000001111011011101101100000000100010100100110011101011011101011000010100111010100000010010001111010011110 W
b101010010000001111011011101101100000000100010100100110011101011011101011000010100111010100000010010001111010011110 m
b101010010000001111011011101101100000000100010100100110011101011011101011000010100111010100000010010001111010011110 t
1D"
1=
b101010010000001111011011101101100000000100010100100110011101011011101011000010100111010100000010010001111010011110 L"
b101010010000001111011011101101100000000100010100100110011101011011101011000010100111010100000010010001111010011110 @
b101010010000001111011011101101100000000100010100100110011101011011101011000010100111010100000010010001111010011110 G
b101010010000001111011011101101100000000100010100100110011101011011101011000010100111010100000010010001111010011110 C"
b101 F"
b101 8
b101 l
b101 +"
b101 A"
b10001 J"
b10001 "
b10001 C
b10001 >"
#220000
0D"
0=
#240000
1'"
b110010101101000101101110000011011001101011100101100001010110100001001101001111111011111110011100010101011111110000 w
b100 )"
b10 *"
b0 r
b110 s
b110 2"
b101 ="
b1 ("
b110010101101000101101110000011011001101011100101100001010110100001001101001111111011111110011100010101011111110000 M
b110010101101000101101110000011011001101011100101100001010110100001001101001111111011111110011100010101011111110000 ?
b110010101101000101101110000011011001101011100101100001010110100001001101001111111011111110011100010101011111110000 W
b110010101101000101101110000011011001101011100101100001010110100001001101001111111011111110011100010101011111110000 m
b110010101101000101101110000011011001101011100101100001010110100001001101001111111011111110011100010101011111110000 t
1D"
1=
b110010101101000101101110000011011001101011100101100001010110100001001101001111111011111110011100010101011111110000 L"
b110010101101000101101110000011011001101011100101100001010110100001001101001111111011111110011100010101011111110000 @
b110010101101000101101110000011011001101011100101100001010110100001001101001111111011111110011100010101011111110000 G
b110010101101000101101110000011011001101011100101100001010110100001001101001111111011111110011100010101011111110000 C"
b110 F"
b110 8
b110 l
b110 +"
b110 A"
#260000
0D"
0=
#280000
b111011001001111100000000011001010011010010110110011100001111100110101111011101010000101000110110011001000101000010 x
b1 r
b101 s
b101 )"
b1 *"
b10 ("
b110 ="
b111011001001111100000000011001010011010010110110011100001111100110101111011101010000101000110110011001000101000010 M
b111011001001111100000000011001010011010010110110011100001111100110101111011101010000101000110110011001000101000010 ?
b111011001001111100000000011001010011010010110110011100001111100110101111011101010000101000110110011001000101000010 W
b111011001001111100000000011001010011010010110110011100001111100110101111011101010000101000110110011001000101000010 m
b111011001001111100000000011001010011010010110110011100001111100110101111011101010000101000110110011001000101000010 t
1D"
1=
b111011001001111100000000011001010011010010110110011100001111100110101111011101010000101000110110011001000101000010 L"
b111011001001111100000000011001010011010010110110011100001111100110101111011101010000101000110110011001000101000010 @
b111011001001111100000000011001010011010010110110011100001111100110101111011101010000101000110110011001000101000010 G
b111011001001111100000000011001010011010010110110011100001111100110101111011101010000101000110110011001000101000010 C"
b111 F"
b111 8
b111 l
b111 +"
b111 A"
1H"
1)
#300000
0D"
0=
#320000
b1000011100110110010010010101111001100111010000111010111001000101100010001101010100101010011010000011100101010010100 y
b110 )"
b0 *"
b10 r
b100 s
b1000 4"
b111 ="
b11 ("
b1000011100110110010010010101111001100111010000111010111001000101100010001101010100101010011010000011100101010010100 M
b1000011100110110010010010101111001100111010000111010111001000101100010001101010100101010011010000011100101010010100 ?
b1000011100110110010010010101111001100111010000111010111001000101100010001101010100101010011010000011100101010010100 W
b1000011100110110010010010101111001100111010000111010111001000101100010001101010100101010011010000011100101010010100 m
b1000011100110110010010010101111001100111010000111010111001000101100010001101010100101010011010000011100101010010100 t
1D"
1=
b1000011100110110010010010101111001100111010000111010111001000101100010001101010100101010011010000011100101010010100 L"
b1000011100110110010010010101111001100111010000111010111001000101100010001101010100101010011010000011100101010010100 @
b1000011100110110010010010101111001100111010000111010111001000101100010001101010100101010011010000011100101010010100 G
b1000011100110110010010010101111001100111010000111010111001000101100010001101010100101010011010000011100101010010100 C"
b1000 F"
b1000 8
b1000 l
b1000 +"
b1000 A"
0H"
0)
#340000
0D"
0=
#360000
b1001 -"
b1001100000011101000100101000101000110100001011000010010000001110001110011110111111001111101101010100000001111100110 z
b11 r
b11 s
b111 )"
b111 *"
b100 ("
b0 ="
b1001100000011101000100101000101000110100001011000010010000001110001110011110111111001111101101010100000001111100110 M
b1001100000011101000100101000101000110100001011000010010000001110001110011110111111001111101101010100000001111100110 ?
b1001100000011101000100101000101000110100001011000010010000001110001110011110111111001111101101010100000001111100110 W
b1001100000011101000100101000101000110100001011000010010000001110001110011110111111001111101101010100000001111100110 m
b1001100000011101000100101000101000110100001011000010010000001110001110011110111111001111101101010100000001111100110 t
1D"
1=
b1001100000011101000100101000101000110100001011000010010000001110001110011110111111001111101101010100000001111100110 L"
b1001100000011101000100101000101000110100001011000010010000001110001110011110111111001111101101010100000001111100110 @
b1001100000011101000100101000101000110100001011000010010000001110001110011110111111001111101101010100000001111100110 G
b1001100000011101000100101000101000110100001011000010010000001110001110011110111111001111101101010100000001111100110 C"
b1001 F"
b1001 8
b1001 l
b1001 +"
b1001 A"
#380000
0D"
0=
#400000
b1010100100000011110110111011011000000001000101001001100111010110111010110000101001110101000000100100011110100111000 {
b0 )"
b110 *"
b100 r
b10 s
b1010 ."
b1 ="
b101 ("
b1010100100000011110110111011011000000001000101001001100111010110111010110000101001110101000000100100011110100111000 M
b1010100100000011110110111011011000000001000101001001100111010110111010110000101001110101000000100100011110100111000 ?
b1010100100000011110110111011011000000001000101001001100111010110111010110000101001110101000000100100011110100111000 W
b1010100100000011110110111011011000000001000101001001100111010110111010110000101001110101000000100100011110100111000 m
b1010100100000011110110111011011000000001000101001001100111010110111010110000101001110101000000100100011110100111000 t
1D"
1=
b1010100100000011110110111011011000000001000101001001100111010110111010110000101001110101000000100100011110100111000 L"
b1010100100000011110110111011011000000001000101001001100111010110111010110000101001110101000000100100011110100111000 @
b1010100100000011110110111011011000000001000101001001100111010110111010110000101001110101000000100100011110100111000 G
b1010100100000011110110111011011000000001000101001001100111010110111010110000101001110101000000100100011110100111000 C"
b1010 F"
b1010 8
b1010 l
b1010 +"
b1010 A"
#420000
0D"
0=
#440000
b1011100111101010101001001110000111001101111111010000111110011111100111000010010100011010010011110100111011010001010 |
b101 r
b1 s
b1 )"
b101 *"
b110 ("
b10 ="
b1011100111101010101001001110000111001101111111010000111110011111100111000010010100011010010011110100111011010001010 M
b1011100111101010101001001110000111001101111111010000111110011111100111000010010100011010010011110100111011010001010 ?
b1011100111101010101001001110000111001101111111010000111110011111100111000010010100011010010011110100111011010001010 W
b1011100111101010101001001110000111001101111111010000111110011111100111000010010100011010010011110100111011010001010 m
b1011100111101010101001001110000111001101111111010000111110011111100111000010010100011010010011110100111011010001010 t
1D"
1=
b1011100111101010101001001110000111001101111111010000111110011111100111000010010100011010010011110100111011010001010 L"
b1011100111101010101001001110000111001101111111010000111110011111100111000010010100011010010011110100111011010001010 @
b1011100111101010101001001110000111001101111111010000111110011111100111000010010100011010010011110100111011010001010 G
b1011100111101010101001001110000111001101111111010000111110011111100111000010010100011010010011110100111011010001010 C"
b1011 F"
b1011 8
b1011 l
b1011 +"
b1011 A"
#460000
0D"
0=
#480000
0~
b0 I
b0 #
b0 U
1J
1+
0L
b100 n
0/
1E
b1100101011010001011011100000110110011010111001011000010101101000010011010011111110111111100111000101010111111011100 }
1#"
b1 .
b1 q
b10 )"
b100 *"
b110 r
b0 s
b1100 0"
b11 ="
b111 ("
b0 M
b0 ?
b0 W
b0 m
b0 t
1D"
1=
b1100101011010001011011100000110110011010111001011000010101101000010011010011111110111111100111000101010111111011100 L"
b1100101011010001011011100000110110011010111001011000010101101000010011010011111110111111100111000101010111111011100 @
b1100101011010001011011100000110110011010111001011000010101101000010011010011111110111111100111000101010111111011100 G
b1100101011010001011011100000110110011010111001011000010101101000010011010011111110111111100111000101010111111011100 C"
b1100 F"
b1100 8
b1100 l
b1100 +"
b1100 A"
#500000
0D"
0=
1G"
1'
#520000
0'"
b1101 1"
b11 )"
b11 *"
b100 ="
1D"
1=
b1101101110111000001101110011100101100111110011011111101100110000111111100101101001100100111010010101110100100101110 L"
b1101101110111000001101110011100101100111110011011111101100110000111111100101101001100100111010010101110100100101110 @
b1101101110111000001101110011100101100111110011011111101100110000111111100101101001100100111010010101110100100101110 G
b1101101110111000001101110011100101100111110011011111101100110000111111100101101001100100111010010101110100100101110 C"
b1101 F"
b1101 8
b1101 l
b1101 +"
b1101 A"
#540000
0D"
0=
0G"
0'
#560000
b100 )"
b10 *"
b1110 2"
b101 ="
1D"
1=
b1110110010011111000000000110010100110100101101100111000011111001101011110111010100001010001101100110010001010000000 L"
b1110110010011111000000000110010100110100101101100111000011111001101011110111010100001010001101100110010001010000000 @
b1110110010011111000000000110010100110100101101100111000011111001101011110111010100001010001101100110010001010000000 G
b1110110010011111000000000110010100110100101101100111000011111001101011110111010100001010001101100110010001010000000 C"
b1110 F"
b1110 8
b1110 l
b1110 +"
b1110 A"
#580000
0D"
0=
#600000
b101 )"
b1 *"
b110 ="
1D"
1=
b1111110110000101110010011001000100000001100111101110011011000010011000001000111110101111100000110110101101111010010 L"
b1111110110000101110010011001000100000001100111101110011011000010011000001000111110101111100000110110101101111010010 @
b1111110110000101110010011001000100000001100111101110011011000010011000001000111110101111100000110110101101111010010 G
b1111110110000101110010011001000100000001100111101110011011000010011000001000111110101111100000110110101101111010010 C"
b1111 F"
b1111 8
b1111 l
b1111 +"
b1111 A"
1H"
1)
#620000
0D"
0=
#640000
b110 )"
b0 *"
b10000 4"
b111 ="
1D"
1=
b10000111001101100100100101011110011001110100001110101110010001011000100011010101001010100110100000111001010100100100 L"
b10000111001101100100100101011110011001110100001110101110010001011000100011010101001010100110100000111001010100100100 @
b10000111001101100100100101011110011001110100001110101110010001011000100011010101001010100110100000111001010100100100 G
b10000111001101100100100101011110011001110100001110101110010001011000100011010101001010100110100000111001010100100100 C"
b10000 F"
b10000 8
b10000 l
b10000 +"
b10000 A"
0H"
0)
#660000
0D"
0=
#680000
b10001 -"
b111 )"
b111 *"
b0 ="
1D"
1=
b10001111101010011010110111110100010011011011011111101001001010011110000101100010011111010000111010111100111001110110 L"
b10001111101010011010110111110100010011011011011111101001001010011110000101100010011111010000111010111100111001110110 @
b10001111101010011010110111110100010011011011011111101001001010011110000101100010011111010000111010111100111001110110 G
b10001111101010011010110111110100010011011011011111101001001010011110000101100010011111010000111010111100111001110110 C"
b10001 F"
b10001 8
b10001 l
b10001 +"
b10001 A"
#700000
b10 P
0D"
0=
0I"
0B
#720000
1J
1+
b10 S
b0 )"
b110 *"
b10010 ."
b1 ="
1D"
1=
b10011000000111010001001010001010001101000010110000100100000011100011100111101111110011111011010101000000011111001000 L"
b10011000000111010001001010001010001101000010110000100100000011100011100111101111110011111011010101000000011111001000 @
b10011000000111010001001010001010001101000010110000100100000011100011100111101111110011111011010101000000011111001000 G
b10011000000111010001001010001010001101000010110000100100000011100011100111101111110011111011010101000000011111001000 C"
b10010 F"
b10010 8
b10010 l
b10010 +"
b10010 A"
#740000
0D"
0=
#760000
b1 )"
b101 *"
1,"
1u
b10 ="
b10010 I
b10010 #
b10010 U
1K
b1110 n
1-
0J
0+
1D"
1=
b10100000100100000111011100100000000110101010000001011110111100101001001001111101001000100101101111000100000100011010 L"
b10100000100100000111011100100000000110101010000001011110111100101001001001111101001000100101101111000100000100011010 @
b10100000100100000111011100100000000110101010000001011110111100101001001001111101001000100101101111000100000100011010 G
b10100000100100000111011100100000000110101010000001011110111100101001001001111101001000100101101111000100000100011010 C"
b10011 F"
b10011 8
b10011 l
b10011 +"
b10011 A"
b10010 J"
b10010 "
b10010 C
b10010 >"
#780000
0D"
0=
#800000
b10001 T
b10001 A
b10001 B"
b10001 >
b10001 F
b101 r
b1 s
b10100 0"
1:"
b1 ;"
b10001 9"
b10001 ,
b10001 o
b11 ="
1%"
b1 &"
b101010010000001111011011101101100000000100010100100110011101011011101011000010100111010100000010010001111010011110 $"
b101010010000001111011011101101100000000100010100100110011101011011101011000010100111010100000010010001111010011110 3
b101010010000001111011011101101100000000100010100100110011101011011101011000010100111010100000010010001111010011110 p
1D"
1=
b10101001000000111101101110110110000000010001010010011001110101101110101100001010011101010000001001000111101001101100 L"
b10101001000000111101101110110110000000010001010010011001110101101110101100001010011101010000001001000111101001101100 @
b10101001000000111101101110110110000000010001010010011001110101101110101100001010011101010000001001000111101001101100 G
b10101001000000111101101110110110000000010001010010011001110101101110101100001010011101010000001001000111101001101100 C"
b10100 F"
b10100 8
b10100 l
b10100 +"
b10100 A"
#820000
0D"
0=
#840000
b10101 1"
b10010 T
b10010 A
b10010 B"
b10010 >
b10010 F
b100 r
b10 s
b10 &"
b110010101101000101101110000011011001101011100101100001010110100001001101001111111011111110011100010101011111110000 $"
b110010101101000101101110000011011001101011100101100001010110100001001101001111111011111110011100010101011111110000 3
b110010101101000101101110000011011001101011100101100001010110100001001101001111111011111110011100010101011111110000 p
b100 ="
b10 ;"
b10010 9"
b10010 ,
b10010 o
1D"
1=
b10110001011101110100000001001011111001111000100011010100101110110100001110010111110001111010100011001011001110111110 L"
b10110001011101110100000001001011111001111000100011010100101110110100001110010111110001111010100011001011001110111110 @
b10110001011101110100000001001011111001111000100011010100101110110100001110010111110001111010100011001011001110111110 G
b10110001011101110100000001001011111001111000100011010100101110110100001110010111110001111010100011001011001110111110 C"
b10101 F"
b10101 8
b10101 l
b10101 +"
b10101 A"
#860000
0D"
0=
#880000
bx T
bx A
bx B"
bx >
bx F
b11 r
b11 s
b10110 2"
b11 ;"
bx 9"
bx ,
bx o
b101 ="
b11 &"
b111011001001111100000000011001010011010010110110011100001111100110101111011101010000101000110110011001000101000010 $"
b111011001001111100000000011001010011010010110110011100001111100110101111011101010000101000110110011001000101000010 3
b111011001001111100000000011001010011010010110110011100001111100110101111011101010000101000110110011001000101000010 p
1D"
1=
b10111001111010101010010011100001110011011111110100001111100111111001110000100101000110100100111101001110110100010000 L"
b10111001111010101010010011100001110011011111110100001111100111111001110000100101000110100100111101001110110100010000 @
b10111001111010101010010011100001110011011111110100001111100111111001110000100101000110100100111101001110110100010000 G
b10111001111010101010010011100001110011011111110100001111100111111001110000100101000110100100111101001110110100010000 C"
b10110 F"
b10110 8
b10110 l
b10110 +"
b10110 A"
#900000
0D"
0=
#920000
b10100 T
b10100 A
b10100 B"
b10100 >
b10100 F
b10 r
b100 s
b100 &"
b1000011100110110010010010101111001100111010000111010111001000101100010001101010100101010011010000011100101010010100 $"
b1000011100110110010010010101111001100111010000111010111001000101100010001101010100101010011010000011100101010010100 3
b1000011100110110010010010101111001100111010000111010111001000101100010001101010100101010011010000011100101010010100 p
b110 ="
b100 ;"
b10100 9"
b10100 ,
b10100 o
1D"
1=
b11000010010111100000100101110111101101000111000101001010100000111111010010110010011011001111010111010010011001100010 L"
b11000010010111100000100101110111101101000111000101001010100000111111010010110010011011001111010111010010011001100010 @
b11000010010111100000100101110111101101000111000101001010100000111111010010110010011011001111010111010010011001100010 G
b11000010010111100000100101110111101101000111000101001010100000111111010010110010011011001111010111010010011001100010 C"
b10111 F"
b10111 8
b10111 l
b10111 +"
b10111 A"
1H"
1)
#940000
0D"
0=
#960000
b10101 T
b10101 A
b10101 B"
b10101 >
b10101 F
b1 r
b101 s
b11000 4"
b101 ;"
b10101 9"
b10101 ,
b10101 o
b111 ="
b101 &"
b1001100000011101000100101000101000110100001011000010010000001110001110011110111111001111101101010100000001111100110 $"
b1001100000011101000100101000101000110100001011000010010000001110001110011110111111001111101101010100000001111100110 3
b1001100000011101000100101000101000110100001011000010010000001110001110011110111111001111101101010100000001111100110 p
1D"
1=
b11001010110100010110111000001101100110101110010110000101011010000100110100111111101111111001110001010101111110110100 L"
b11001010110100010110111000001101100110101110010110000101011010000100110100111111101111111001110001010101111110110100 @
b11001010110100010110111000001101100110101110010110000101011010000100110100111111101111111001110001010101111110110100 G
b11001010110100010110111000001101100110101110010110000101011010000100110100111111101111111001110001010101111110110100 C"
b11000 F"
b11000 8
b11000 l
b11000 +"
b11000 A"
0H"
0)
#980000
0D"
0=
#1000000
b11001 -"
b10110 T
b10110 A
b10110 B"
b10110 >
b10110 F
b0 r
b110 s
b110 &"
b1010100100000011110110111011011000000001000101001001100111010110111010110000101001110101000000100100011110100111000 $"
b1010100100000011110110111011011000000001000101001001100111010110111010110000101001110101000000100100011110100111000 3
b1010100100000011110110111011011000000001000101001001100111010110111010110000101001110101000000100100011110100111000 p
b0 ="
b110 ;"
b10110 9"
b10110 ,
b10110 o
1D"
1=
b11010011010001001101001010100011100000010101100111000000010011001010010111001101000100100100001011011001100100000110 L"
b11010011010001001101001010100011100000010101100111000000010011001010010111001101000100100100001011011001100100000110 @
b11010011010001001101001010100011100000010101100111000000010011001010010111001101000100100100001011011001100100000110 G
b11010011010001001101001010100011100000010101100111000000010011001010010111001101000100100100001011011001100100000110 C"
b11001 F"
b11001 8
b11001 l
b11001 +"
b11001 A"
#1020000
0D"
0=
#1040000
bx T
bx A
bx B"
bx >
bx F
b111 r
b111 s
b11010 ."
b111 ;"
bx 9"
bx ,
bx o
b1 ="
1""
b11 .
b11 q
b111 &"
b1011100111101010101001001110000111001101111111010000111110011111100111000010010100011010010011110100111011010001010 $"
b1011100111101010101001001110000111001101111111010000111110011111100111000010010100011010010011110100111011010001010 3
b1011100111101010101001001110000111001101111111010000111110011111100111000010010100011010010011110100111011010001010 p
1D"
1=
b11011011101110000011011100111001011001111100110111111011001100001111111001011010011001001110100101011101001001011000 L"
b11011011101110000011011100111001011001111100110111111011001100001111111001011010011001001110100101011101001001011000 @
b11011011101110000011011100111001011001111100110111111011001100001111111001011010011001001110100101011101001001011000 G
b11011011101110000011011100111001011001111100110111111011001100001111111001011010011001001110100101011101001001011000 C"
b11010 F"
b11010 8
b11010 l
b11010 +"
b11010 A"
1G"
1'
#1060000
0D"
0=
