testbench/dat_all_read_single.vcd
$date
	Tue Jun 28 20:50:29 2016
$end
$version
	Icarus Verilog
$end
$timescale
	1ps
$end
$scope module TestBench $end
$var wire 1 ! ack_host_phys $end
$var wire 1 " ack_phys_host $end
$var wire 4 # blocks_host_phys [3:0] $end
$var wire 1 $ clock $end
$var wire 1 % complete_card $end
$var wire 1 & complete_phys_host $end
$var wire 1 ' dat_pin $end
$var wire 32 ( data_block [31:0] $end
$var wire 50 ) data_to_card [49:0] $end
$var wire 1 * kk $end
$var wire 1 + multiple_host_phys $end
$var wire 1 , reset $end
$var wire 1 - sd_clock $end
$var wire 1 . sr_phys_host $end
$var wire 1 / strobe_host_phys $end
$var wire 1 0 wr_host_phys $end
$var reg 1 1 Enable_card $end
$var reg 1 2 load_send_card $end
$var reg 1 3 new_Dat $end
$var reg 1 4 reset_card $end
$scope module datc $end
$var wire 1 " ack_in $end
$var wire 4 5 blockCount [3:0] $end
$var wire 1 $ clock $end
$var wire 1 & complete $end
$var wire 1 6 fifo_okay $end
$var wire 1 7 multipleData $end
$var wire 1 8 newDat $end
$var wire 1 , reset $end
$var wire 1 . serial_ready $end
$var wire 1 9 writeRead $end
$var reg 1 : ack_out $end
$var reg 4 ; blocks [3:0] $end
$var reg 1 < multiple $end
$var reg 3 = next_state [2:0] $end
$var reg 3 > state [2:0] $end
$var reg 1 ? strobe_out $end
$var reg 1 @ transfer_complete $end
$var reg 1 A writereadphys $end
$upscope $end
$scope module dat $end
$var wire 1 B DATA_TIMEOUT $end
$var wire 16 C TIMEOUT_REG [15:0] $end
$var wire 1 ! ack_in $end
$var wire 1 " ack_out $end
$var wire 4 D blocks [3:0] $end
$var wire 1 & complete $end
$var wire 1 ' dat_pin $end
$var wire 32 E dataFROMFIFO [31:0] $end
$var wire 32 F dataPARALLEL [31:0] $end
$var wire 32 G dataToFIFO [31:0] $end
$var wire 1 H enable_pts_wrapper $end
$var wire 1 I enable_stp_wrapper $end
$var wire 50 J frame_received [49:0] $end
$var wire 50 K frame_to_send [49:0] $end
$var wire 8 L framesize_reception [7:0] $end
$var wire 1 M idle_in $end
$var wire 1 N load_send $end
$var wire 1 + multiple $end
$var wire 1 O pad_enable $end
$var wire 1 P pad_state $end
$var wire 1 Q padserial $end
$var wire 1 R read_enable $end
$var wire 1 S reception_complete $end
$var wire 1 , reset $end
$var wire 1 T reset_wrapper $end
$var wire 1 - sd_clock $end
$var wire 1 . serial_ready $end
$var wire 1 U serialpad $end
$var wire 1 V status $end
$var wire 1 / strobe_in $end
$var wire 1 W transmission_complete $end
$var wire 1 X waiting_response $end
$var wire 1 0 writeRead $end
$var wire 1 Y write_enable $end
$scope module ptsw_dat $end
$var wire 1 - Clock $end
$var wire 1 H Enable $end
$var wire 1 T Reset $end
$var wire 1 W complete $end
$var wire 8 Z countValue [7:0] $end
$var wire 8 [ framesize [7:0] $end
$var wire 1 \ go $end
$var wire 8 ] initialValue [7:0] $end
$var wire 8 ^ kk [7:0] $end
$var wire 1 N load_send $end
$var wire 50 _ parallel [49:0] $end
$var wire 1 U serial $end
$var wire 1 ` serialTemp $end
$scope module pts $end
$var wire 1 - Clock $end
$var wire 1 a Enable $end
$var wire 1 b Reset $end
$var wire 50 c ffdinputBus [49:0] $end
$var wire 50 d ffdqBus [49:0] $end
$var wire 1 N load_send $end
$var wire 50 e parallel [49:0] $end
$var wire 1 ` serial $end
$scope module ffd $end
$var wire 1 - Clock $end
$var wire 50 f D [49:0] $end
$var wire 1 a Enable $end
$var wire 1 b Reset $end
$var reg 50 g Q [49:0] $end
$upscope $end
$scope begin PTS[0] $end
$scope begin genblk2 $end
$upscope $end
$upscope $end
$scope begin PTS[1] $end
$scope begin genblk3 $end
$upscope $end
$upscope $end
$scope begin PTS[2] $end
$scope begin genblk3 $end
$upscope $end
$upscope $end
$scope begin PTS[3] $end
$scope begin genblk3 $end
$upscope $end
$upscope $end
$scope begin PTS[4] $end
$scope begin genblk3 $end
$upscope $end
$upscope $end
$scope begin PTS[5] $end
$scope begin genblk3 $end
$upscope $end
$upscope $end
$scope begin PTS[6] $end
$scope begin genblk3 $end
$upscope $end
$upscope $end
$scope begin PTS[7] $end
$scope begin genblk3 $end
$upscope $end
$upscope $end
$scope begin PTS[8] $end
$scope begin genblk3 $end
$upscope $end
$upscope $end
$scope begin PTS[9] $end
$scope begin genblk3 $end
$upscope $end
$upscope $end
$scope begin PTS[10] $end
$scope begin genblk3 $end
$upscope $end
$upscope $end
$scope begin PTS[11] $end
$scope begin genblk3 $end
$upscope $end
$upscope $end
$scope begin PTS[12] $end
$scope begin genblk3 $end
$upscope $end
$upscope $end
$scope begin PTS[13] $end
$scope begin genblk3 $end
$upscope $end
$upscope $end
$scope begin PTS[14] $end
$scope begin genblk3 $end
$upscope $end
$upscope $end
$scope begin PTS[15] $end
$scope begin genblk3 $end
$upscope $end
$upscope $end
$scope begin PTS[16] $end
$scope begin genblk3 $end
$upscope $end
$upscope $end
$scope begin PTS[17] $end
$scope begin genblk3 $end
$upscope $end
$upscope $end
$scope begin PTS[18] $end
$scope begin genblk3 $end
$upscope $end
$upscope $end
$scope begin PTS[19] $end
$scope begin genblk3 $end
$upscope $end
$upscope $end
$scope begin PTS[20] $end
$scope begin genblk3 $end
$upscope $end
$upscope $end
$scope begin PTS[21] $end
$scope begin genblk3 $end
$upscope $end
$upscope $end
$scope begin PTS[22] $end
$scope begin genblk3 $end
$upscope $end
$upscope $end
$scope begin PTS[23] $end
$scope begin genblk3 $end
$upscope $end
$upscope $end
$scope begin PTS[24] $end
$scope begin genblk3 $end
$upscope $end
$upscope $end
$scope begin PTS[25] $end
$scope begin genblk3 $end
$upscope $end
$upscope $end
$scope begin PTS[26] $end
$scope begin genblk3 $end
$upscope $end
$upscope $end
$scope begin PTS[27] $end
$scope begin genblk3 $end
$upscope $end
$upscope $end
$scope begin PTS[28] $end
$scope begin genblk3 $end
$upscope $end
$upscope $end
$scope begin PTS[29] $end
$scope begin genblk3 $end
$upscope $end
$upscope $end
$scope begin PTS[30] $end
$scope begin genblk3 $end
$upscope $end
$upscope $end
$scope begin PTS[31] $end
$scope begin genblk3 $end
$upscope $end
$upscope $end
$scope begin PTS[32] $end
$scope begin genblk3 $end
$upscope $end
$upscope $end
$scope begin PTS[33] $end
$scope begin genblk3 $end
$upscope $end
$upscope $end
$scope begin PTS[34] $end
$scope begin genblk3 $end
$upscope $end
$upscope $end
$scope begin PTS[35] $end
$scope begin genblk3 $end
$upscope $end
$upscope $end
$scope begin PTS[36] $end
$scope begin genblk3 $end
$upscope $end
$upscope $end
$scope begin PTS[37] $end
$scope begin genblk3 $end
$upscope $end
$upscope $end
$scope begin PTS[38] $end
$scope begin genblk3 $end
$upscope $end
$upscope $end
$scope begin PTS[39] $end
$scope begin genblk3 $end
$upscope $end
$upscope $end
$scope begin PTS[40] $end
$scope begin genblk3 $end
$upscope $end
$upscope $end
$scope begin PTS[41] $end
$scope begin genblk3 $end
$upscope $end
$upscope $end
$scope begin PTS[42] $end
$scope begin genblk3 $end
$upscope $end
$upscope $end
$scope begin PTS[43] $end
$scope begin genblk3 $end
$upscope $end
$upscope $end
$scope begin PTS[44] $end
$scope begin genblk3 $end
$upscope $end
$upscope $end
$scope begin PTS[45] $end
$scope begin genblk3 $end
$upscope $end
$upscope $end
$scope begin PTS[46] $end
$scope begin genblk3 $end
$upscope $end
$upscope $end
$scope begin PTS[47] $end
$scope begin genblk3 $end
$upscope $end
$upscope $end
$scope begin PTS[48] $end
$scope begin genblk3 $end
$upscope $end
$upscope $end
$scope begin PTS[49] $end
$scope begin genblk3 $end
$upscope $end
$upscope $end
$upscope $end
$scope module counter1 $end
$var wire 1 - Clock $end
$var wire 1 h Enable $end
$var wire 8 i Initial [7:0] $end
$var wire 1 j Reset $end
$var reg 8 k Q [7:0] $end
$upscope $end
$upscope $end
$scope module stpw_dat $end
$var wire 1 - Clock $end
$var wire 1 I Enable $end
$var wire 1 T Reset $end
$var wire 1 S complete $end
$var wire 8 l countValue [7:0] $end
$var wire 8 m framesize [7:0] $end
$var wire 1 n go $end
$var wire 8 o initialValue [7:0] $end
$var wire 50 p parallel [49:0] $end
$var wire 1 Q serial $end
$var wire 1 q serialTemp $end
$var wire 1 r validData $end
$scope module stp $end
$var wire 1 - Clock $end
$var wire 1 s Enable $end
$var wire 1 T Reset $end
$var wire 50 t parallel [49:0] $end
$var wire 1 q serial $end
$var wire 50 u serialBus [49:0] $end
$scope module ffd $end
$var wire 1 - Clock $end
$var wire 50 v D [49:0] $end
$var wire 1 s Enable $end
$var wire 1 T Reset $end
$var reg 50 w Q [49:0] $end
$upscope $end
$scope begin STP[0] $end
$scope begin genblk2 $end
$upscope $end
$upscope $end
$scope begin STP[1] $end
$scope begin genblk3 $end
$upscope $end
$upscope $end
$scope begin STP[2] $end
$scope begin genblk3 $end
$upscope $end
$upscope $end
$scope begin STP[3] $end
$scope begin genblk3 $end
$upscope $end
$upscope $end
$scope begin STP[4] $end
$scope begin genblk3 $end
$upscope $end
$upscope $end
$scope begin STP[5] $end
$scope begin genblk3 $end
$upscope $end
$upscope $end
$scope begin STP[6] $end
$scope begin genblk3 $end
$upscope $end
$upscope $end
$scope begin STP[7] $end
$scope begin genblk3 $end
$upscope $end
$upscope $end
$scope begin STP[8] $end
$scope begin genblk3 $end
$upscope $end
$upscope $end
$scope begin STP[9] $end
$scope begin genblk3 $end
$upscope $end
$upscope $end
$scope begin STP[10] $end
$scope begin genblk3 $end
$upscope $end
$upscope $end
$scope begin STP[11] $end
$scope begin genblk3 $end
$upscope $end
$upscope $end
$scope begin STP[12] $end
$scope begin genblk3 $end
$upscope $end
$upscope $end
$scope begin STP[13] $end
$scope begin genblk3 $end
$upscope $end
$upscope $end
$scope begin STP[14] $end
$scope begin genblk3 $end
$upscope $end
$upscope $end
$scope begin STP[15] $end
$scope begin genblk3 $end
$upscope $end
$upscope $end
$scope begin STP[16] $end
$scope begin genblk3 $end
$upscope $end
$upscope $end
$scope begin STP[17] $end
$scope begin genblk3 $end
$upscope $end
$upscope $end
$scope begin STP[18] $end
$scope begin genblk3 $end
$upscope $end
$upscope $end
$scope begin STP[19] $end
$scope begin genblk3 $end
$upscope $end
$upscope $end
$scope begin STP[20] $end
$scope begin genblk3 $end
$upscope $end
$upscope $end
$scope begin STP[21] $end
$scope begin genblk3 $end
$upscope $end
$upscope $end
$scope begin STP[22] $end
$scope begin genblk3 $end
$upscope $end
$upscope $end
$scope begin STP[23] $end
$scope begin genblk3 $end
$upscope $end
$upscope $end
$scope begin STP[24] $end
$scope begin genblk3 $end
$upscope $end
$upscope $end
$scope begin STP[25] $end
$scope begin genblk3 $end
$upscope $end
$upscope $end
$scope begin STP[26] $end
$scope begin genblk3 $end
$upscope $end
$upscope $end
$scope begin STP[27] $end
$scope begin genblk3 $end
$upscope $end
$upscope $end
$scope begin STP[28] $end
$scope begin genblk3 $end
$upscope $end
$upscope $end
$scope begin STP[29] $end
$scope begin genblk3 $end
$upscope $end
$upscope $end
$scope begin STP[30] $end
$scope begin genblk3 $end
$upscope $end
$upscope $end
$scope begin STP[31] $end
$scope begin genblk3 $end
$upscope $end
$upscope $end
$scope begin STP[32] $end
$scope begin genblk3 $end
$upscope $end
$upscope $end
$scope begin STP[33] $end
$scope begin genblk3 $end
$upscope $end
$upscope $end
$scope begin STP[34] $end
$scope begin genblk3 $end
$upscope $end
$upscope $end
$scope begin STP[35] $end
$scope begin genblk3 $end
$upscope $end
$upscope $end
$scope begin STP[36] $end
$scope begin genblk3 $end
$upscope $end
$upscope $end
$scope begin STP[37] $end
$scope begin genblk3 $end
$upscope $end
$upscope $end
$scope begin STP[38] $end
$scope begin genblk3 $end
$upscope $end
$upscope $end
$scope begin STP[39] $end
$scope begin genblk3 $end
$upscope $end
$upscope $end
$scope begin STP[40] $end
$scope begin genblk3 $end
$upscope $end
$upscope $end
$scope begin STP[41] $end
$scope begin genblk3 $end
$upscope $end
$upscope $end
$scope begin STP[42] $end
$scope begin genblk3 $end
$upscope $end
$upscope $end
$scope begin STP[43] $end
$scope begin genblk3 $end
$upscope $end
$upscope $end
$scope begin STP[44] $end
$scope begin genblk3 $end
$upscope $end
$upscope $end
$scope begin STP[45] $end
$scope begin genblk3 $end
$upscope $end
$upscope $end
$scope begin STP[46] $end
$scope begin genblk3 $end
$upscope $end
$upscope $end
$scope begin STP[47] $end
$scope begin genblk3 $end
$upscope $end
$upscope $end
$scope begin STP[48] $end
$scope begin genblk3 $end
$upscope $end
$upscope $end
$scope begin STP[49] $end
$scope begin genblk3 $end
$upscope $end
$upscope $end
$upscope $end
$scope module counter1 $end
$var wire 1 - Clock $end
$var wire 1 x Enable $end
$var wire 8 y Initial [7:0] $end
$var wire 1 z Reset $end
$var reg 8 { Q [7:0] $end
$upscope $end
$upscope $end
$scope module dat_PAD $end
$var wire 1 - clock $end
$var wire 1 U data_in $end
$var wire 1 Q data_out $end
$var wire 1 O enable $end
$var wire 1 ' io_port $end
$var wire 1 P output_input $end
$var reg 1 | control $end
$var reg 1 } dataFROMCARD $end
$var reg 1 ~ dataToCARD $end
$upscope $end
$scope module dat1 $end
$var wire 1 B DATA_TIMEOUT $end
$var wire 16 !" TIMEOUT_REG [15:0] $end
$var wire 1 ! ack_in $end
$var wire 4 "" blocks [3:0] $end
$var wire 32 #" dataFromFifo [31:0] $end
$var wire 32 $" dataRead [31:0] $end
$var wire 1 M idle_in $end
$var wire 1 + multiple $end
$var wire 1 S reception_complete $end
$var wire 1 , reset $end
$var wire 1 - sd_clock $end
$var wire 1 / strobe_in $end
$var wire 1 W transmission_complete $end
$var wire 1 0 writeRead $end
$var reg 1 %" ack_out $end
$var reg 4 &" blockCount [3:0] $end
$var reg 1 '" complete $end
$var reg 32 (" dataPARALLEL [31:0] $end
$var reg 32 )" dataReadTOFIFO [31:0] $end
$var reg 1 *" dummy_count $end
$var reg 1 +" enable_pts_wrapper $end
$var reg 1 ," enable_stp_wrapper $end
$var reg 1 -" fifoRead $end
$var reg 1 ." load_send $end
$var reg 1 /" loaded $end
$var reg 4 0" next_state [3:0] $end
$var reg 1 1" pad_enable $end
$var reg 1 2" pad_state $end
$var reg 1 3" read_fifo_enable $end
$var reg 1 4" reset_wrapper $end
$var reg 1 5" serial_ready $end
$var reg 4 6" state [3:0] $end
$var reg 16 7" timeout_count [15:0] $end
$var reg 1 8" waiting_response $end
$var reg 1 9" write_fifo_enable $end
$upscope $end
$upscope $end
$scope module gencmd $end
$var wire 1 :" ack_in $end
$var wire 1 $ clock $end
$var wire 1 ;" newCMD $end
$var wire 1 , reset $end
$var wire 1 <" serial_ready $end
$var wire 1 =" strobe_in $end
$scope module clk1 $end
$var reg 1 >" clock $end
$upscope $end
$scope module r1 $end
$var reg 1 ?" reset $end
$upscope $end
$scope module nDG $end
$var reg 1 @" newCMD $end
$upscope $end
$scope module sRg $end
$var reg 1 A" serialReady $end
$upscope $end
$scope module cg $end
$var reg 1 B" strobe_in $end
$upscope $end
$scope module aig $end
$var reg 1 C" ack_in $end
$upscope $end
$upscope $end
$scope module gsd $end
$var wire 1 - clock $end
$scope module clk1 $end
$var reg 1 D" clock $end
$var reg 1 E" first $end
$upscope $end
$upscope $end
$scope module sd $end
$var wire 1 - Clock $end
$var wire 1 F" Enable $end
$var wire 1 G" Reset $end
$var wire 1 % complete $end
$var wire 8 H" countValue [7:0] $end
$var wire 8 I" framesize [7:0] $end
$var wire 1 J" go $end
$var wire 8 K" initialValue [7:0] $end
$var wire 8 L" kk [7:0] $end
$var wire 1 M" load_send $end
$var wire 51 N" parallel [50:0] $end
$var wire 1 ' serial $end
$var wire 1 O" serialTemp $end
$scope module pts $end
$var wire 1 - Clock $end
$var wire 1 P" Enable $end
$var wire 1 Q" Reset $end
$var wire 51 R" ffdinputBus [50:0] $end
$var wire 51 S" ffdqBus [50:0] $end
$var wire 1 M" load_send $end
$var wire 51 T" parallel [50:0] $end
$var wire 1 O" serial $end
$scope module ffd $end
$var wire 1 - Clock $end
$var wire 51 U" D [50:0] $end
$var wire 1 P" Enable $end
$var wire 1 Q" Reset $end
$var reg 51 V" Q [50:0] $end
$upscope $end
$scope begin PTS[0] $end
$scope begin genblk2 $end
$upscope $end
$upscope $end
$scope begin PTS[1] $end
$scope begin genblk3 $end
$upscope $end
$upscope $end
$scope begin PTS[2] $end
$scope begin genblk3 $end
$upscope $end
$upscope $end
$scope begin PTS[3] $end
$scope begin genblk3 $end
$upscope $end
$upscope $end
$scope begin PTS[4] $end
$scope begin genblk3 $end
$upscope $end
$upscope $end
$scope begin PTS[5] $end
$scope begin genblk3 $end
$upscope $end
$upscope $end
$scope begin PTS[6] $end
$scope begin genblk3 $end
$upscope $end
$upscope $end
$scope begin PTS[7] $end
$scope begin genblk3 $end
$upscope $end
$upscope $end
$scope begin PTS[8] $end
$scope begin genblk3 $end
$upscope $end
$upscope $end
$scope begin PTS[9] $end
$scope begin genblk3 $end
$upscope $end
$upscope $end
$scope begin PTS[10] $end
$scope begin genblk3 $end
$upscope $end
$upscope $end
$scope begin PTS[11] $end
$scope begin genblk3 $end
$upscope $end
$upscope $end
$scope begin PTS[12] $end
$scope begin genblk3 $end
$upscope $end
$upscope $end
$scope begin PTS[13] $end
$scope begin genblk3 $end
$upscope $end
$upscope $end
$scope begin PTS[14] $end
$scope begin genblk3 $end
$upscope $end
$upscope $end
$scope begin PTS[15] $end
$scope begin genblk3 $end
$upscope $end
$upscope $end
$scope begin PTS[16] $end
$scope begin genblk3 $end
$upscope $end
$upscope $end
$scope begin PTS[17] $end
$scope begin genblk3 $end
$upscope $end
$upscope $end
$scope begin PTS[18] $end
$scope begin genblk3 $end
$upscope $end
$upscope $end
$scope begin PTS[19] $end
$scope begin genblk3 $end
$upscope $end
$upscope $end
$scope begin PTS[20] $end
$scope begin genblk3 $end
$upscope $end
$upscope $end
$scope begin PTS[21] $end
$scope begin genblk3 $end
$upscope $end
$upscope $end
$scope begin PTS[22] $end
$scope begin genblk3 $end
$upscope $end
$upscope $end
$scope begin PTS[23] $end
$scope begin genblk3 $end
$upscope $end
$upscope $end
$scope begin PTS[24] $end
$scope begin genblk3 $end
$upscope $end
$upscope $end
$scope begin PTS[25] $end
$scope begin genblk3 $end
$upscope $end
$upscope $end
$scope begin PTS[26] $end
$scope begin genblk3 $end
$upscope $end
$upscope $end
$scope begin PTS[27] $end
$scope begin genblk3 $end
$upscope $end
$upscope $end
$scope begin PTS[28] $end
$scope begin genblk3 $end
$upscope $end
$upscope $end
$scope begin PTS[29] $end
$scope begin genblk3 $end
$upscope $end
$upscope $end
$scope begin PTS[30] $end
$scope begin genblk3 $end
$upscope $end
$upscope $end
$scope begin PTS[31] $end
$scope begin genblk3 $end
$upscope $end
$upscope $end
$scope begin PTS[32] $end
$scope begin genblk3 $end
$upscope $end
$upscope $end
$scope begin PTS[33] $end
$scope begin genblk3 $end
$upscope $end
$upscope $end
$scope begin PTS[34] $end
$scope begin genblk3 $end
$upscope $end
$upscope $end
$scope begin PTS[35] $end
$scope begin genblk3 $end
$upscope $end
$upscope $end
$scope begin PTS[36] $end
$scope begin genblk3 $end
$upscope $end
$upscope $end
$scope begin PTS[37] $end
$scope begin genblk3 $end
$upscope $end
$upscope $end
$scope begin PTS[38] $end
$scope begin genblk3 $end
$upscope $end
$upscope $end
$scope begin PTS[39] $end
$scope begin genblk3 $end
$upscope $end
$upscope $end
$scope begin PTS[40] $end
$scope begin genblk3 $end
$upscope $end
$upscope $end
$scope begin PTS[41] $end
$scope begin genblk3 $end
$upscope $end
$upscope $end
$scope begin PTS[42] $end
$scope begin genblk3 $end
$upscope $end
$upscope $end
$scope begin PTS[43] $end
$scope begin genblk3 $end
$upscope $end
$upscope $end
$scope begin PTS[44] $end
$scope begin genblk3 $end
$upscope $end
$upscope $end
$scope begin PTS[45] $end
$scope begin genblk3 $end
$upscope $end
$upscope $end
$scope begin PTS[46] $end
$scope begin genblk3 $end
$upscope $end
$upscope $end
$scope begin PTS[47] $end
$scope begin genblk3 $end
$upscope $end
$upscope $end
$scope begin PTS[48] $end
$scope begin genblk3 $end
$upscope $end
$upscope $end
$scope begin PTS[49] $end
$scope begin genblk3 $end
$upscope $end
$upscope $end
$scope begin PTS[50] $end
$scope begin genblk3 $end
$upscope $end
$upscope $end
$upscope $end
$scope module counter1 $end
$var wire 1 - Clock $end
$var wire 1 W" Enable $end
$var wire 8 X" Initial [7:0] $end
$var wire 1 Y" Reset $end
$var reg 8 Z" Q [7:0] $end
$upscope $end
$upscope $end
$upscope $end
$enddefinitions $end
#0
$dumpvars
bx Z"
xY"
b0 X"
0W"
bx V"
b1111101010111100110111100100000011111111111111111 U"
b1111101010111100110111100100000011111111111111111 T"
bx S"
b1111101010111100110111100100000011111111111111111 R"
xQ"
0P"
xO"
b1111101010111100110111100100000011111111111111111 N"
0M"
b110010 L"
b0 K"
xJ"
b110011 I"
bx H"
0G"
0F"
1E"
0D"
0C"
0B"
0A"
0@"
0?"
0>"
0="
0<"
0;"
0:"
x9"
x8"
bx 7"
bx 6"
x5"
x4"
x3"
x2"
x1"
b0 0"
x/"
x."
x-"
x,"
x+"
x*"
bx )"
bx ("
x'"
bx &"
x%"
bx $"
b10101011010001011111111011011100 #"
bx ""
b1100100 !"
x~
x}
0|
bx {
xz
b0 y
xx
bx w
bx v
bx u
bx t
xs
1r
xq
bx p
b0 o
xn
b0xxx0x0 m
bx l
bx k
xj
b0 i
xh
bx g
bx f
b0xxxxxxxxxxxxxxxxxxxxxxxxxxxxxxxx00000000000000001 e
bx d
bx c
xb
xa
x`
b0xxxxxxxxxxxxxxxxxxxxxxxxxxxxxxxx00000000000000001 _
b110001 ^
b0 ]
x\
b110010 [
bx Z
xY
xX
xW
zV
xU
xT
xS
xR
xQ
xP
xO
xN
0M
b0xxx0x0 L
b0xxxxxxxxxxxxxxxxxxxxxxxxxxxxxxxx00000000000000001 K
bx J
xI
xH
bx G
bx F
b10101011010001011111111011011100 E
bx D
b1100100 C
xB
xA
x@
x?
bx >
b0 =
x<
bx ;
x:
09
08
07
16
b10 5
04
03
02
01
x0
x/
x.
0-
0,
x+
x*
b1111101010111100110111100100000011111111111111111 )
b11111010101111001101111001000000 (
x'
x&
x%
0$
bx #
x"
x!
$end
#5000
b0 ;
b0 #
b0 D
b0 ""
0<
0+
0A
00
0@
0*
0:
0!
0?
0/
b1 =
b0 >
1>"
1$
#10000
0>"
0$
#15000
b1 >
1>"
1$
#20000
0>"
0$
#25000
1>"
1$
#30000
0>"
0$
#35000
1>"
1$
#40000
0>"
0$
#45000
1>"
1$
#50000
1Q"
1Y"
0>"
0$
14
1G"
#52000
zU
b110010 L
b110010 m
b1010101101000101111111101101110000000000000000001 c
b1010101101000101111111101101110000000000000000001 f
0x
0s
0a
0h
1z
1j
1b
z'
0r
bx0 u
bx0 v
0q
0B
0-"
b10101011010001011111111011011100 ("
b1010101101000101111111101101110000000000000000001 K
b1010101101000101111111101101110000000000000000001 _
b1010101101000101111111101101110000000000000000001 e
b10101011010001011111111011011100 F
b0 &"
0/"
b0 )"
b0 G
03"
0R
09"
0Y
01"
0O
02"
0P
08"
0X
0,"
0I
0+"
0H
0."
0N
14"
1T
0%"
0"
0'"
0&
05"
0.
b1 0"
z~
z}
zQ
0*"
b0 7"
b0 6"
0O"
0%
1J"
b0 V"
b0 S"
b0 Z"
b0 H"
1D"
1-
#55000
1>"
1$
#60000
0>"
0$
#65000
1>"
1$
#70000
0>"
0$
#72000
0D"
0-
#75000
1>"
1$
#80000
0>"
0$
#85000
1>"
1$
#90000
0>"
0$
#92000
b1 c
b1 f
b0 ("
b1 K
b1 _
b1 e
b0 F
15"
1.
b1 6"
0S
1n
b0 u
b0 v
b0 $"
0W
1\
0`
b0 {
b0 l
b0 w
b0 J
b0 p
b0 t
b0 k
b0 Z
b0 g
b0 d
1D"
1-
#95000
1>"
1$
#100000
0>"
0$
1?"
1,
#105000
b0 >
1>"
1$
#110000
0>"
0$
#112000
0D"
0-
#115000
1>"
1$
#120000
0>"
0$
#125000
1>"
1$
#130000
0>"
0$
#132000
b1010101101000101111111101101110000000000000000001 c
b1010101101000101111111101101110000000000000000001 f
b10101011010001011111111011011100 ("
b1010101101000101111111101101110000000000000000001 K
b1010101101000101111111101101110000000000000000001 _
b1010101101000101111111101101110000000000000000001 e
b10101011010001011111111011011100 F
05"
0.
b0 6"
1D"
1-
