testbench/dat_phys_2.vcd
$date
	Tue Jun 14 19:31:15 2016
$end
$version
	Icarus Verilog
$end
$timescale
	1ps
$end
$scope module PAD $end
$var wire 1 ! clock $end
$var wire 1 " data_in $end
$var wire 1 # data_out $end
$var wire 1 $ enable $end
$var wire 1 % io_port $end
$var wire 1 & output_input $end
$var reg 1 ' control $end
$var reg 1 ( dataFROMCARD $end
$var reg 1 ) dataToCARD $end
$upscope $end
$scope module TestBench $end
$var wire 1 * complete_card $end
$var wire 1 + dat_to_card $end
$var wire 1 , reset $end
$var wire 1 - sd_clock $end
$var wire 1 . strobe_in $end
$var wire 51 / to_send [50:0] $end
$var reg 1 0 Enable_card $end
$var reg 1 1 load_send_card $end
$scope module dat $end
$var wire 1 2 DATA_TIMEOUT $end
$var wire 16 3 TIMEOUT_REG [15:0] $end
$var wire 1 4 ack_in $end
$var wire 1 5 ack_out $end
$var wire 4 6 blocks [3:0] $end
$var wire 1 7 complete $end
$var wire 1 + dat_in $end
$var wire 1 8 dat_out $end
$var wire 32 9 dataFROMFIFO [31:0] $end
$var wire 32 : dataToFIFO [31:0] $end
$var wire 1 ; enable_pts_wrapper $end
$var wire 1 < enable_stp_wrapper $end
$var wire 50 = frame_received [49:0] $end
$var wire 50 > frame_to_send [49:0] $end
$var wire 8 ? framesize_reception [7:0] $end
$var wire 1 @ idle_in $end
$var wire 1 A load_send $end
$var wire 1 B multiple $end
$var wire 1 C pad_enable $end
$var wire 1 D pad_state $end
$var wire 1 E read_enable $end
$var wire 1 F reception_complete $end
$var wire 1 , reset $end
$var wire 1 G reset_wrapper $end
$var wire 1 - sd_clock $end
$var wire 1 H serial_ready $end
$var wire 1 I status $end
$var wire 1 . strobe_in $end
$var wire 1 J transmission_complete $end
$var wire 1 K waiting_response $end
$var wire 1 L writeRead $end
$var wire 1 M write_enable $end
$scope module ptsw_dat $end
$var wire 1 - Clock $end
$var wire 1 ; Enable $end
$var wire 1 N Reset $end
$var wire 1 J complete $end
$var wire 8 O countValue [7:0] $end
$var wire 8 P framesize [7:0] $end
$var wire 1 Q go $end
$var wire 8 R initialValue [7:0] $end
$var wire 8 S kk [7:0] $end
$var wire 1 A load_send $end
$var wire 50 T parallel [49:0] $end
$var wire 1 8 serial $end
$var wire 1 U serialTemp $end
$scope module pts $end
$var wire 1 - Clock $end
$var wire 1 V Enable $end
$var wire 1 N Reset $end
$var wire 50 W ffdinputBus [49:0] $end
$var wire 50 X ffdqBus [49:0] $end
$var wire 1 A load_send $end
$var wire 50 Y parallel [49:0] $end
$var wire 1 U serial $end
$scope module ffd $end
$var wire 1 - Clock $end
$var wire 50 Z D [49:0] $end
$var wire 1 V Enable $end
$var wire 1 N Reset $end
$var reg 50 [ Q [49:0] $end
$upscope $end
$scope begin PTS[0] $end
$scope begin genblk2 $end
$upscope $end
$upscope $end
$scope begin PTS[1] $end
$scope begin genblk3 $end
$upscope $end
$upscope $end
$scope begin PTS[2] $end
$scope begin genblk3 $end
$upscope $end
$upscope $end
$scope begin PTS[3] $end
$scope begin genblk3 $end
$upscope $end
$upscope $end
$scope begin PTS[4] $end
$scope begin genblk3 $end
$upscope $end
$upscope $end
$scope begin PTS[5] $end
$scope begin genblk3 $end
$upscope $end
$upscope $end
$scope begin PTS[6] $end
$scope begin genblk3 $end
$upscope $end
$upscope $end
$scope begin PTS[7] $end
$scope begin genblk3 $end
$upscope $end
$upscope $end
$scope begin PTS[8] $end
$scope begin genblk3 $end
$upscope $end
$upscope $end
$scope begin PTS[9] $end
$scope begin genblk3 $end
$upscope $end
$upscope $end
$scope begin PTS[10] $end
$scope begin genblk3 $end
$upscope $end
$upscope $end
$scope begin PTS[11] $end
$scope begin genblk3 $end
$upscope $end
$upscope $end
$scope begin PTS[12] $end
$scope begin genblk3 $end
$upscope $end
$upscope $end
$scope begin PTS[13] $end
$scope begin genblk3 $end
$upscope $end
$upscope $end
$scope begin PTS[14] $end
$scope begin genblk3 $end
$upscope $end
$upscope $end
$scope begin PTS[15] $end
$scope begin genblk3 $end
$upscope $end
$upscope $end
$scope begin PTS[16] $end
$scope begin genblk3 $end
$upscope $end
$upscope $end
$scope begin PTS[17] $end
$scope begin genblk3 $end
$upscope $end
$upscope $end
$scope begin PTS[18] $end
$scope begin genblk3 $end
$upscope $end
$upscope $end
$scope begin PTS[19] $end
$scope begin genblk3 $end
$upscope $end
$upscope $end
$scope begin PTS[20] $end
$scope begin genblk3 $end
$upscope $end
$upscope $end
$scope begin PTS[21] $end
$scope begin genblk3 $end
$upscope $end
$upscope $end
$scope begin PTS[22] $end
$scope begin genblk3 $end
$upscope $end
$upscope $end
$scope begin PTS[23] $end
$scope begin genblk3 $end
$upscope $end
$upscope $end
$scope begin PTS[24] $end
$scope begin genblk3 $end
$upscope $end
$upscope $end
$scope begin PTS[25] $end
$scope begin genblk3 $end
$upscope $end
$upscope $end
$scope begin PTS[26] $end
$scope begin genblk3 $end
$upscope $end
$upscope $end
$scope begin PTS[27] $end
$scope begin genblk3 $end
$upscope $end
$upscope $end
$scope begin PTS[28] $end
$scope begin genblk3 $end
$upscope $end
$upscope $end
$scope begin PTS[29] $end
$scope begin genblk3 $end
$upscope $end
$upscope $end
$scope begin PTS[30] $end
$scope begin genblk3 $end
$upscope $end
$upscope $end
$scope begin PTS[31] $end
$scope begin genblk3 $end
$upscope $end
$upscope $end
$scope begin PTS[32] $end
$scope begin genblk3 $end
$upscope $end
$upscope $end
$scope begin PTS[33] $end
$scope begin genblk3 $end
$upscope $end
$upscope $end
$scope begin PTS[34] $end
$scope begin genblk3 $end
$upscope $end
$upscope $end
$scope begin PTS[35] $end
$scope begin genblk3 $end
$upscope $end
$upscope $end
$scope begin PTS[36] $end
$scope begin genblk3 $end
$upscope $end
$upscope $end
$scope begin PTS[37] $end
$scope begin genblk3 $end
$upscope $end
$upscope $end
$scope begin PTS[38] $end
$scope begin genblk3 $end
$upscope $end
$upscope $end
$scope begin PTS[39] $end
$scope begin genblk3 $end
$upscope $end
$upscope $end
$scope begin PTS[40] $end
$scope begin genblk3 $end
$upscope $end
$upscope $end
$scope begin PTS[41] $end
$scope begin genblk3 $end
$upscope $end
$upscope $end
$scope begin PTS[42] $end
$scope begin genblk3 $end
$upscope $end
$upscope $end
$scope begin PTS[43] $end
$scope begin genblk3 $end
$upscope $end
$upscope $end
$scope begin PTS[44] $end
$scope begin genblk3 $end
$upscope $end
$upscope $end
$scope begin PTS[45] $end
$scope begin genblk3 $end
$upscope $end
$upscope $end
$scope begin PTS[46] $end
$scope begin genblk3 $end
$upscope $end
$upscope $end
$scope begin PTS[47] $end
$scope begin genblk3 $end
$upscope $end
$upscope $end
$scope begin PTS[48] $end
$scope begin genblk3 $end
$upscope $end
$upscope $end
$scope begin PTS[49] $end
$scope begin genblk3 $end
$upscope $end
$upscope $end
$upscope $end
$scope module counter1 $end
$var wire 1 - Clock $end
$var wire 1 \ Enable $end
$var wire 8 ] Initial [7:0] $end
$var wire 1 N Reset $end
$var reg 8 ^ Q [7:0] $end
$upscope $end
$upscope $end
$scope module stpw_dat $end
$var wire 1 - Clock $end
$var wire 1 < Enable $end
$var wire 1 , Reset $end
$var wire 1 F complete $end
$var wire 8 _ countValue [7:0] $end
$var wire 8 ` framesize [7:0] $end
$var wire 1 a go $end
$var wire 8 b initialValue [7:0] $end
$var wire 50 c parallel [49:0] $end
$var wire 1 + serial $end
$var wire 1 d serialTemp $end
$var wire 1 e validData $end
$scope module stp $end
$var wire 1 - Clock $end
$var wire 1 f Enable $end
$var wire 1 g Reset $end
$var wire 50 h parallel [49:0] $end
$var wire 1 d serial $end
$var wire 50 i serialBus [49:0] $end
$scope module ffd $end
$var wire 1 - Clock $end
$var wire 50 j D [49:0] $end
$var wire 1 f Enable $end
$var wire 1 g Reset $end
$var reg 50 k Q [49:0] $end
$upscope $end
$scope begin STP[0] $end
$scope begin genblk2 $end
$upscope $end
$upscope $end
$scope begin STP[1] $end
$scope begin genblk3 $end
$upscope $end
$upscope $end
$scope begin STP[2] $end
$scope begin genblk3 $end
$upscope $end
$upscope $end
$scope begin STP[3] $end
$scope begin genblk3 $end
$upscope $end
$upscope $end
$scope begin STP[4] $end
$scope begin genblk3 $end
$upscope $end
$upscope $end
$scope begin STP[5] $end
$scope begin genblk3 $end
$upscope $end
$upscope $end
$scope begin STP[6] $end
$scope begin genblk3 $end
$upscope $end
$upscope $end
$scope begin STP[7] $end
$scope begin genblk3 $end
$upscope $end
$upscope $end
$scope begin STP[8] $end
$scope begin genblk3 $end
$upscope $end
$upscope $end
$scope begin STP[9] $end
$scope begin genblk3 $end
$upscope $end
$upscope $end
$scope begin STP[10] $end
$scope begin genblk3 $end
$upscope $end
$upscope $end
$scope begin STP[11] $end
$scope begin genblk3 $end
$upscope $end
$upscope $end
$scope begin STP[12] $end
$scope begin genblk3 $end
$upscope $end
$upscope $end
$scope begin STP[13] $end
$scope begin genblk3 $end
$upscope $end
$upscope $end
$scope begin STP[14] $end
$scope begin genblk3 $end
$upscope $end
$upscope $end
$scope begin STP[15] $end
$scope begin genblk3 $end
$upscope $end
$upscope $end
$scope begin STP[16] $end
$scope begin genblk3 $end
$upscope $end
$upscope $end
$scope begin STP[17] $end
$scope begin genblk3 $end
$upscope $end
$upscope $end
$scope begin STP[18] $end
$scope begin genblk3 $end
$upscope $end
$upscope $end
$scope begin STP[19] $end
$scope begin genblk3 $end
$upscope $end
$upscope $end
$scope begin STP[20] $end
$scope begin genblk3 $end
$upscope $end
$upscope $end
$scope begin STP[21] $end
$scope begin genblk3 $end
$upscope $end
$upscope $end
$scope begin STP[22] $end
$scope begin genblk3 $end
$upscope $end
$upscope $end
$scope begin STP[23] $end
$scope begin genblk3 $end
$upscope $end
$upscope $end
$scope begin STP[24] $end
$scope begin genblk3 $end
$upscope $end
$upscope $end
$scope begin STP[25] $end
$scope begin genblk3 $end
$upscope $end
$upscope $end
$scope begin STP[26] $end
$scope begin genblk3 $end
$upscope $end
$upscope $end
$scope begin STP[27] $end
$scope begin genblk3 $end
$upscope $end
$upscope $end
$scope begin STP[28] $end
$scope begin genblk3 $end
$upscope $end
$upscope $end
$scope begin STP[29] $end
$scope begin genblk3 $end
$upscope $end
$upscope $end
$scope begin STP[30] $end
$scope begin genblk3 $end
$upscope $end
$upscope $end
$scope begin STP[31] $end
$scope begin genblk3 $end
$upscope $end
$upscope $end
$scope begin STP[32] $end
$scope begin genblk3 $end
$upscope $end
$upscope $end
$scope begin STP[33] $end
$scope begin genblk3 $end
$upscope $end
$upscope $end
$scope begin STP[34] $end
$scope begin genblk3 $end
$upscope $end
$upscope $end
$scope begin STP[35] $end
$scope begin genblk3 $end
$upscope $end
$upscope $end
$scope begin STP[36] $end
$scope begin genblk3 $end
$upscope $end
$upscope $end
$scope begin STP[37] $end
$scope begin genblk3 $end
$upscope $end
$upscope $end
$scope begin STP[38] $end
$scope begin genblk3 $end
$upscope $end
$upscope $end
$scope begin STP[39] $end
$scope begin genblk3 $end
$upscope $end
$upscope $end
$scope begin STP[40] $end
$scope begin genblk3 $end
$upscope $end
$upscope $end
$scope begin STP[41] $end
$scope begin genblk3 $end
$upscope $end
$upscope $end
$scope begin STP[42] $end
$scope begin genblk3 $end
$upscope $end
$upscope $end
$scope begin STP[43] $end
$scope begin genblk3 $end
$upscope $end
$upscope $end
$scope begin STP[44] $end
$scope begin genblk3 $end
$upscope $end
$upscope $end
$scope begin STP[45] $end
$scope begin genblk3 $end
$upscope $end
$upscope $end
$scope begin STP[46] $end
$scope begin genblk3 $end
$upscope $end
$upscope $end
$scope begin STP[47] $end
$scope begin genblk3 $end
$upscope $end
$upscope $end
$scope begin STP[48] $end
$scope begin genblk3 $end
$upscope $end
$upscope $end
$scope begin STP[49] $end
$scope begin genblk3 $end
$upscope $end
$upscope $end
$upscope $end
$scope module counter1 $end
$var wire 1 - Clock $end
$var wire 1 l Enable $end
$var wire 8 m Initial [7:0] $end
$var wire 1 n Reset $end
$var reg 8 o Q [7:0] $end
$upscope $end
$upscope $end
$scope module dat1 $end
$var wire 1 2 DATA_TIMEOUT $end
$var wire 16 p TIMEOUT_REG [15:0] $end
$var wire 1 4 ack_in $end
$var wire 4 q blocks [3:0] $end
$var wire 32 r dataRead [31:0] $end
$var wire 1 @ idle_in $end
$var wire 1 B multiple $end
$var wire 1 F reception_complete $end
$var wire 1 , reset $end
$var wire 1 - sd_clock $end
$var wire 1 . strobe_in $end
$var wire 1 J transmission_complete $end
$var wire 1 L writeRead $end
$var reg 1 s ack_out $end
$var reg 4 t blockCount [3:0] $end
$var reg 1 u complete $end
$var reg 32 v dataReadTOFIFO [31:0] $end
$var reg 1 w dummy_count $end
$var reg 1 x enable_pts_wrapper $end
$var reg 1 y enable_stp_wrapper $end
$var reg 1 z load_send $end
$var reg 1 { loaded $end
$var reg 4 | next_state [3:0] $end
$var reg 1 } pad_enable $end
$var reg 1 ~ pad_state $end
$var reg 1 !" read_fifo_enable $end
$var reg 1 "" reset_wrapper $end
$var reg 1 #" serial_ready $end
$var reg 4 $" state [3:0] $end
$var reg 16 %" timeout_count [15:0] $end
$var reg 1 &" waiting_response $end
$var reg 1 '" write_fifo_enable $end
$upscope $end
$upscope $end
$scope module gencmd $end
$var wire 1 (" ack_in $end
$var wire 1 - clock $end
$var wire 1 )" newCMD $end
$var wire 1 , reset $end
$var wire 1 *" serial_ready $end
$var wire 1 . strobe_in $end
$scope module clk1 $end
$var reg 1 +" clock $end
$upscope $end
$scope module r1 $end
$var reg 1 ," reset $end
$upscope $end
$scope module nDG $end
$var reg 1 -" newCMD $end
$upscope $end
$scope module sRg $end
$var reg 1 ." serialReady $end
$upscope $end
$scope module cg $end
$var reg 1 /" strobe_in $end
$upscope $end
$scope module aig $end
$var reg 1 0" ack_in $end
$upscope $end
$upscope $end
$scope module sd $end
$var wire 1 - Clock $end
$var wire 1 1" Enable $end
$var wire 1 , Reset $end
$var wire 1 * complete $end
$var wire 8 2" countValue [7:0] $end
$var wire 8 3" framesize [7:0] $end
$var wire 1 4" go $end
$var wire 8 5" initialValue [7:0] $end
$var wire 8 6" kk [7:0] $end
$var wire 1 7" load_send $end
$var wire 51 8" parallel [50:0] $end
$var wire 1 + serial $end
$var wire 1 9" serialTemp $end
$scope module pts $end
$var wire 1 - Clock $end
$var wire 1 :" Enable $end
$var wire 1 , Reset $end
$var wire 51 ;" ffdinputBus [50:0] $end
$var wire 51 <" ffdqBus [50:0] $end
$var wire 1 7" load_send $end
$var wire 51 =" parallel [50:0] $end
$var wire 1 9" serial $end
$scope module ffd $end
$var wire 1 - Clock $end
$var wire 51 >" D [50:0] $end
$var wire 1 :" Enable $end
$var wire 1 , Reset $end
$var reg 51 ?" Q [50:0] $end
$upscope $end
$scope begin PTS[0] $end
$scope begin genblk2 $end
$upscope $end
$upscope $end
$scope begin PTS[1] $end
$scope begin genblk3 $end
$upscope $end
$upscope $end
$scope begin PTS[2] $end
$scope begin genblk3 $end
$upscope $end
$upscope $end
$scope begin PTS[3] $end
$scope begin genblk3 $end
$upscope $end
$upscope $end
$scope begin PTS[4] $end
$scope begin genblk3 $end
$upscope $end
$upscope $end
$scope begin PTS[5] $end
$scope begin genblk3 $end
$upscope $end
$upscope $end
$scope begin PTS[6] $end
$scope begin genblk3 $end
$upscope $end
$upscope $end
$scope begin PTS[7] $end
$scope begin genblk3 $end
$upscope $end
$upscope $end
$scope begin PTS[8] $end
$scope begin genblk3 $end
$upscope $end
$upscope $end
$scope begin PTS[9] $end
$scope begin genblk3 $end
$upscope $end
$upscope $end
$scope begin PTS[10] $end
$scope begin genblk3 $end
$upscope $end
$upscope $end
$scope begin PTS[11] $end
$scope begin genblk3 $end
$upscope $end
$upscope $end
$scope begin PTS[12] $end
$scope begin genblk3 $end
$upscope $end
$upscope $end
$scope begin PTS[13] $end
$scope begin genblk3 $end
$upscope $end
$upscope $end
$scope begin PTS[14] $end
$scope begin genblk3 $end
$upscope $end
$upscope $end
$scope begin PTS[15] $end
$scope begin genblk3 $end
$upscope $end
$upscope $end
$scope begin PTS[16] $end
$scope begin genblk3 $end
$upscope $end
$upscope $end
$scope begin PTS[17] $end
$scope begin genblk3 $end
$upscope $end
$upscope $end
$scope begin PTS[18] $end
$scope begin genblk3 $end
$upscope $end
$upscope $end
$scope begin PTS[19] $end
$scope begin genblk3 $end
$upscope $end
$upscope $end
$scope begin PTS[20] $end
$scope begin genblk3 $end
$upscope $end
$upscope $end
$scope begin PTS[21] $end
$scope begin genblk3 $end
$upscope $end
$upscope $end
$scope begin PTS[22] $end
$scope begin genblk3 $end
$upscope $end
$upscope $end
$scope begin PTS[23] $end
$scope begin genblk3 $end
$upscope $end
$upscope $end
$scope begin PTS[24] $end
$scope begin genblk3 $end
$upscope $end
$upscope $end
$scope begin PTS[25] $end
$scope begin genblk3 $end
$upscope $end
$upscope $end
$scope begin PTS[26] $end
$scope begin genblk3 $end
$upscope $end
$upscope $end
$scope begin PTS[27] $end
$scope begin genblk3 $end
$upscope $end
$upscope $end
$scope begin PTS[28] $end
$scope begin genblk3 $end
$upscope $end
$upscope $end
$scope begin PTS[29] $end
$scope begin genblk3 $end
$upscope $end
$upscope $end
$scope begin PTS[30] $end
$scope begin genblk3 $end
$upscope $end
$upscope $end
$scope begin PTS[31] $end
$scope begin genblk3 $end
$upscope $end
$upscope $end
$scope begin PTS[32] $end
$scope begin genblk3 $end
$upscope $end
$upscope $end
$scope begin PTS[33] $end
$scope begin genblk3 $end
$upscope $end
$upscope $end
$scope begin PTS[34] $end
$scope begin genblk3 $end
$upscope $end
$upscope $end
$scope begin PTS[35] $end
$scope begin genblk3 $end
$upscope $end
$upscope $end
$scope begin PTS[36] $end
$scope begin genblk3 $end
$upscope $end
$upscope $end
$scope begin PTS[37] $end
$scope begin genblk3 $end
$upscope $end
$upscope $end
$scope begin PTS[38] $end
$scope begin genblk3 $end
$upscope $end
$upscope $end
$scope begin PTS[39] $end
$scope begin genblk3 $end
$upscope $end
$upscope $end
$scope begin PTS[40] $end
$scope begin genblk3 $end
$upscope $end
$upscope $end
$scope begin PTS[41] $end
$scope begin genblk3 $end
$upscope $end
$upscope $end
$scope begin PTS[42] $end
$scope begin genblk3 $end
$upscope $end
$upscope $end
$scope begin PTS[43] $end
$scope begin genblk3 $end
$upscope $end
$upscope $end
$scope begin PTS[44] $end
$scope begin genblk3 $end
$upscope $end
$upscope $end
$scope begin PTS[45] $end
$scope begin genblk3 $end
$upscope $end
$upscope $end
$scope begin PTS[46] $end
$scope begin genblk3 $end
$upscope $end
$upscope $end
$scope begin PTS[47] $end
$scope begin genblk3 $end
$upscope $end
$upscope $end
$scope begin PTS[48] $end
$scope begin genblk3 $end
$upscope $end
$upscope $end
$scope begin PTS[49] $end
$scope begin genblk3 $end
$upscope $end
$upscope $end
$scope begin PTS[50] $end
$scope begin genblk3 $end
$upscope $end
$upscope $end
$upscope $end
$scope module counter1 $end
$var wire 1 - Clock $end
$var wire 1 @" Enable $end
$var wire 8 A" Initial [7:0] $end
$var wire 1 , Reset $end
$var reg 8 B" Q [7:0] $end
$upscope $end
$upscope $end
$upscope $end
$enddefinitions $end
#0
$dumpvars
bx B"
b0 A"
0@"
bx ?"
b1111011110100 >"
b1111011110100 ="
bx <"
b1111011110100 ;"
0:"
x9"
b1111011110100 8"
07"
b110010 6"
b0 5"
x4"
b110011 3"
bx 2"
01"
00"
0/"
0."
0-"
0,"
0+"
0*"
0)"
0("
x'"
x&"
bx %"
bx $"
x#"
x""
x!"
x~
x}
b0 |
x{
xz
xy
xx
xw
bx v
xu
bx t
xs
bx r
b100 q
b1100100 p
bx o
xn
b0 m
0l
bx k
bx0 j
bx0 i
bx h
xg
xf
0e
0d
bx c
b0 b
xa
b0xx001x `
bx _
bx ^
b0 ]
x\
bx [
bx Z
b1 Y
bx X
bx W
xV
xU
b1 T
b110001 S
b0 R
xQ
b110010 P
bx O
zN
xM
0L
xK
xJ
zI
xH
xG
xF
xE
xD
xC
1B
xA
0@
b0xx001x ?
b1 >
bx =
x<
x;
bx :
b0 9
x8
x7
b100 6
x5
04
b1100100 3
x2
01
00
b1111011110100 /
0.
0-
0,
z+
x*
x)
x(
0'
z&
x%
z$
x#
z"
z!
$end
#20000
z8
b110010 ?
b110010 `
b1 W
b1 Z
0f
0V
0\
02
b0 t
0{
b0 v
b0 :
0!"
0E
0'"
0M
0}
0C
0~
0D
0&"
0K
0y
0<
0x
0;
0z
0A
1""
1G
0s
05
0u
07
0#"
0H
b1 |
0w
b0 %"
b0 $"
1+"
1-
#40000
0+"
0-
#60000
0""
0G
1#"
1H
b1 $"
1+"
1-
#80000
0+"
0-
#100000
b0 i
b0 j
b0 r
1""
1G
0#"
0H
09"
b0 k
b0 =
b0 c
b0 h
b0 $"
b0 ?"
b0 <"
0F
1a
0*
14"
b0 o
b0 _
b0 B"
b0 2"
1n
1g
1+"
1-
1,"
1,
#120000
0+"
0-
#140000
1+"
1-
#160000
0+"
0-
#180000
1+"
1-
#200000
0+"
0-
#220000
1+"
1-
#240000
0+"
0-
#260000
1+"
1-
#280000
0+"
0-
#300000
1+"
1-
#320000
0+"
0-
#340000
1+"
1-
#350000
0n
0g
0,"
0,
#360000
0+"
0-
#380000
0""
0G
1#"
1H
b1 $"
1+"
1-
#400000
0+"
0-
#420000
1+"
1-
#440000
0+"
0-
#460000
1+"
1-
#480000
0+"
0-
#500000
1+"
1-
#520000
0+"
0-
#540000
1+"
1-
#560000
0+"
0-
#580000
1+"
1-
#600000
0+"
0-
#620000
1+"
1-
#640000
0+"
0-
#660000
1+"
1-
#680000
0+"
0-
#700000
1+"
1-
#720000
0+"
0-
#740000
1+"
1-
#760000
0+"
0-
#780000
1+"
1-
#800000
0+"
0-
#820000
1+"
1-
#840000
0+"
0-
#860000
1+"
1-
#880000
0+"
0-
#900000
1+"
1-
#920000
0+"
0-
#940000
1+"
1-
#960000
0+"
0-
#980000
1+"
1-
#1000000
0+"
0-
1-"
1)"
#1020000
1+"
1-
#1040000
0+"
0-
#1060000
1+"
1-
#1080000
0+"
0-
#1100000
1+"
1-
#1120000
0+"
0-
#1140000
1+"
1-
#1160000
0+"
0-
#1180000
1+"
1-
#1200000
0+"
0-
#1220000
1+"
1-
#1240000
0+"
0-
#1260000
1+"
1-
#1280000
0+"
0-
#1300000
1+"
1-
1."
1*"
#1320000
0+"
0-
#1340000
1+"
1-
#1360000
0+"
0-
#1380000
1+"
1-
#1400000
0+"
0-
#1420000
1+"
1-
#1440000
0+"
0-
#1460000
1+"
1-
#1480000
0+"
0-
#1500000
1+"
1-
#1520000
0+"
0-
#1540000
1+"
1-
#1560000
0+"
0-
#1580000
1+"
1-
#1600000
0+"
0-
#1620000
1+"
1-
#1640000
0+"
0-
#1660000
1+"
1-
#1680000
0+"
0-
#1700000
1+"
1-
#1720000
0+"
0-
#1740000
1+"
1-
#1760000
0+"
0-
#1780000
1+"
1-
#1800000
0+"
0-
#1820000
1+"
1-
#1840000
0+"
0-
#1860000
1+"
1-
#1880000
0+"
0-
#1900000
1+"
1-
#1920000
0+"
0-
#1940000
1+"
1-
#1960000
0+"
0-
#1980000
1+"
1-
#2000000
b101 |
0+"
0-
0-"
0)"
1/"
1.
#2020000
1f
1}
1C
1y
1<
0#"
0H
b101 $"
1+"
1-
#2040000
0+"
0-
#2060000
b1 %"
1w
1+"
1-
#2080000
0+"
0-
#2100000
b10 %"
1w
1+"
1-
#2120000
0+"
0-
#2140000
b11 %"
1w
1+"
1-
#2160000
0+"
0-
#2180000
b100 %"
1w
1+"
1-
#2200000
0+"
0-
#2220000
b101 %"
1w
1+"
1-
#2240000
0+"
0-
#2260000
b110 %"
1w
1+"
1-
#2280000
0+"
0-
#2300000
b111 %"
1w
1+"
1-
#2320000
0+"
0-
#2340000
b1000 %"
1w
1+"
1-
#2360000
0+"
0-
#2380000
b1001 %"
1w
1+"
1-
#2400000
0+"
0-
#2420000
b1010 %"
1w
1+"
1-
#2440000
0+"
0-
#2460000
b1011 %"
1w
1+"
1-
#2480000
0+"
0-
#2500000
b1100 %"
1w
1+"
1-
#2520000
0+"
0-
#2540000
b1101 %"
1w
1+"
1-
#2560000
0+"
0-
#2580000
b1110 %"
1w
1+"
1-
#2600000
0+"
0-
#2620000
b1111 %"
1w
1+"
1-
#2640000
0+"
0-
#2660000
b10000 %"
1w
1+"
1-
#2680000
0+"
0-
#2700000
b10001 %"
1w
1+"
1-
#2720000
0+"
0-
#2740000
b10010 %"
1w
1+"
1-
#2760000
0+"
0-
#2780000
b10011 %"
1w
1+"
1-
#2800000
0+"
0-
#2820000
b10100 %"
1w
1+"
1-
#2840000
0+"
0-
#2860000
b10101 %"
1w
1+"
1-
#2880000
0+"
0-
#2900000
b10110 %"
1w
1+"
1-
#2920000
0+"
0-
#2940000
b10111 %"
1w
1+"
1-
#2960000
0+"
0-
#2980000
b11000 %"
1w
1+"
1-
#3000000
0+"
0-
#3020000
b11001 %"
1w
1+"
1-
#3040000
0+"
0-
#3060000
b11010 %"
1w
1+"
1-
#3080000
0+"
0-
#3100000
b11011 %"
1w
1+"
1-
#3120000
0+"
0-
#3140000
b11100 %"
1w
1+"
1-
#3160000
0+"
0-
#3180000
b11101 %"
1w
1+"
1-
#3200000
0+"
0-
#3220000
b11110 %"
1w
1+"
1-
#3240000
0+"
0-
#3260000
b11111 %"
1w
1+"
1-
#3280000
0+"
0-
#3300000
b100000 %"
1w
1+"
1-
#3320000
0+"
0-
#3340000
b100001 %"
1w
1+"
1-
#3360000
0+"
0-
#3380000
b100010 %"
1w
1+"
1-
#3400000
0+"
0-
#3420000
b100011 %"
1w
1+"
1-
#3440000
0+"
0-
#3460000
b100100 %"
1w
1+"
1-
#3480000
0+"
0-
#3500000
b100101 %"
1w
1+"
1-
#3520000
0+"
0-
#3540000
b100110 %"
1w
1+"
1-
#3560000
0+"
0-
#3580000
b100111 %"
1w
1+"
1-
#3600000
0+"
0-
#3620000
b101000 %"
1w
1+"
1-
#3640000
0+"
0-
#3660000
b101001 %"
1w
1+"
1-
#3680000
0+"
0-
#3700000
b101010 %"
1w
1+"
1-
#3720000
0+"
0-
#3740000
b101011 %"
1w
1+"
1-
#3760000
0+"
0-
#3780000
b101100 %"
1w
1+"
1-
#3800000
0+"
0-
#3820000
b101101 %"
1w
1+"
1-
#3840000
0+"
0-
#3860000
b101110 %"
1w
1+"
1-
#3880000
0+"
0-
#3900000
b101111 %"
1w
1+"
1-
#3920000
0+"
0-
#3940000
b110000 %"
1w
1+"
1-
#3960000
0+"
0-
#3980000
b110001 %"
1w
1+"
1-
#4000000
0+"
0-
0/"
0.
#4020000
b110010 %"
1w
1+"
1-
#4040000
0+"
0-
#4060000
b110011 %"
1w
1+"
1-
#4080000
0+"
0-
#4100000
b110100 %"
1w
1+"
1-
#4120000
0+"
0-
#4140000
b110101 %"
1w
1+"
1-
#4160000
0+"
0-
#4180000
b110110 %"
1w
1+"
1-
#4200000
0+"
0-
#4220000
b110111 %"
1w
1+"
1-
#4240000
0+"
0-
#4260000
b111000 %"
1w
1+"
1-
#4280000
0+"
0-
#4300000
b111001 %"
1w
1+"
1-
#4320000
0+"
0-
#4340000
b111010 %"
1w
1+"
1-
#4360000
0+"
0-
#4380000
b111011 %"
1w
1+"
1-
#4400000
0+"
0-
#4420000
b111100 %"
1w
1+"
1-
#4440000
0+"
0-
#4460000
b111101 %"
1w
1+"
1-
#4480000
0+"
0-
#4500000
b111110 %"
1w
b1111011110100 ?"
b1111011110100 <"
1:"
1+"
1-
10
11"
#4520000
0+"
0-
#4540000
b111111 %"
1w
1+"
1-
#4560000
0+"
0-
#4580000
b1000000 %"
1w
1+"
1-
#4600000
0+"
0-
#4620000
b1000001 %"
1w
1+"
1-
#4640000
0+"
0-
#4660000
b1000010 %"
1w
1+"
1-
#4680000
0+"
0-
#4700000
b1000011 %"
1w
1+"
1-
#4720000
0+"
0-
#4740000
b1000100 %"
1w
1+"
1-
#4760000
0+"
0-
#4780000
b1000101 %"
1w
1+"
1-
#4800000
0+"
0-
#4820000
b1000110 %"
1w
1+"
1-
#4840000
0+"
0-
#4860000
b1000111 %"
1w
1+"
1-
#4880000
0+"
0-
#4900000
b1001000 %"
1w
1+"
1-
#4920000
0+"
0-
#4940000
b1001001 %"
1w
1+"
1-
#4960000
0+"
0-
#4980000
b1001010 %"
1w
1+"
1-
#5000000
0+"
0-
#5020000
b1001011 %"
1w
1+"
1-
#5040000
0+"
0-
#5060000
b1001100 %"
1w
1+"
1-
#5080000
0+"
0-
#5100000
b1001101 %"
1w
1+"
1-
#5120000
0+"
0-
#5140000
b1001110 %"
1w
1+"
1-
#5160000
0+"
0-
#5180000
b1001111 %"
1w
1+"
1-
#5200000
0+"
0-
#5220000
b1010000 %"
1w
1+"
1-
#5240000
0+"
0-
#5260000
b1010001 %"
1w
1+"
1-
#5280000
0+"
0-
#5300000
b1010010 %"
1w
1+"
1-
#5320000
0+"
0-
#5340000
b1010011 %"
1w
1+"
1-
#5360000
0+"
0-
#5380000
b1010100 %"
1w
1+"
1-
#5400000
0+"
0-
#5420000
b1010101 %"
1w
1+"
1-
#5440000
0+"
0-
#5460000
b1010110 %"
1w
1+"
1-
#5480000
0+"
0-
#5500000
b1010111 %"
1w
1+"
1-
#5520000
0+"
0-
#5540000
b1011000 %"
1w
1+"
1-
#5560000
0+"
0-
#5580000
b1011001 %"
1w
1+"
1-
#5600000
0+"
0-
#5620000
b1011010 %"
1w
1+"
1-
#5640000
0+"
0-
#5660000
b1011011 %"
1w
1+"
1-
#5680000
0+"
0-
#5700000
b1011100 %"
1w
1+"
1-
#5720000
0+"
0-
#5740000
b1011101 %"
1w
1+"
1-
#5760000
0+"
0-
