testbench/dat_phys_send.vcd
$date
	Sat Jun 18 22:51:16 2016
$end
$version
	Icarus Verilog
$end
$timescale
	1ps
$end
$scope module TestBench $end
$var wire 1 ! complete_card $end
$var wire 1 " dat_to_card $end
$var wire 1 # reset $end
$var wire 1 $ sd_clock $end
$var wire 1 % strobe_in $end
$var wire 50 & to_send [49:0] $end
$var wire 49 ' to_send_kk [48:0] $end
$var reg 1 ( Enable_card $end
$var reg 1 ) load_send_card $end
$var reg 1 * reset_card $end
$scope module dat $end
$var wire 1 + DATA_TIMEOUT $end
$var wire 16 , TIMEOUT_REG [15:0] $end
$var wire 1 - ack_in $end
$var wire 1 . ack_out $end
$var wire 4 / blocks [3:0] $end
$var wire 1 0 complete $end
$var wire 1 " dat_pin $end
$var wire 32 1 dataFROMFIFO [31:0] $end
$var wire 32 2 dataToFIFO [31:0] $end
$var wire 1 3 enable_pts_wrapper $end
$var wire 1 4 enable_stp_wrapper $end
$var wire 50 5 frame_received [49:0] $end
$var wire 50 6 frame_to_send [49:0] $end
$var wire 8 7 framesize_reception [7:0] $end
$var wire 1 8 idle_in $end
$var wire 1 9 load_send $end
$var wire 1 : multiple $end
$var wire 1 ; pad_enable $end
$var wire 1 < pad_state $end
$var wire 1 = padserial $end
$var wire 1 > read_enable $end
$var wire 1 ? reception_complete $end
$var wire 1 # reset $end
$var wire 1 @ reset_wrapper $end
$var wire 1 $ sd_clock $end
$var wire 1 A serial_ready $end
$var wire 1 B serialpad $end
$var wire 1 C status $end
$var wire 1 % strobe_in $end
$var wire 1 D transmission_complete $end
$var wire 1 E waiting_response $end
$var wire 1 F writeRead $end
$var wire 1 G write_enable $end
$scope module ptsw_dat $end
$var wire 1 $ Clock $end
$var wire 1 3 Enable $end
$var wire 1 @ Reset $end
$var wire 1 D complete $end
$var wire 8 H countValue [7:0] $end
$var wire 8 I framesize [7:0] $end
$var wire 1 J go $end
$var wire 8 K initialValue [7:0] $end
$var wire 8 L kk [7:0] $end
$var wire 1 9 load_send $end
$var wire 50 M parallel [49:0] $end
$var wire 1 B serial $end
$var wire 1 N serialTemp $end
$scope module pts $end
$var wire 1 $ Clock $end
$var wire 1 O Enable $end
$var wire 1 P Reset $end
$var wire 50 Q ffdinputBus [49:0] $end
$var wire 50 R ffdqBus [49:0] $end
$var wire 1 9 load_send $end
$var wire 50 S parallel [49:0] $end
$var wire 1 N serial $end
$scope module ffd $end
$var wire 1 $ Clock $end
$var wire 50 T D [49:0] $end
$var wire 1 O Enable $end
$var wire 1 P Reset $end
$var reg 50 U Q [49:0] $end
$upscope $end
$scope begin PTS[0] $end
$scope begin genblk2 $end
$upscope $end
$upscope $end
$scope begin PTS[1] $end
$scope begin genblk3 $end
$upscope $end
$upscope $end
$scope begin PTS[2] $end
$scope begin genblk3 $end
$upscope $end
$upscope $end
$scope begin PTS[3] $end
$scope begin genblk3 $end
$upscope $end
$upscope $end
$scope begin PTS[4] $end
$scope begin genblk3 $end
$upscope $end
$upscope $end
$scope begin PTS[5] $end
$scope begin genblk3 $end
$upscope $end
$upscope $end
$scope begin PTS[6] $end
$scope begin genblk3 $end
$upscope $end
$upscope $end
$scope begin PTS[7] $end
$scope begin genblk3 $end
$upscope $end
$upscope $end
$scope begin PTS[8] $end
$scope begin genblk3 $end
$upscope $end
$upscope $end
$scope begin PTS[9] $end
$scope begin genblk3 $end
$upscope $end
$upscope $end
$scope begin PTS[10] $end
$scope begin genblk3 $end
$upscope $end
$upscope $end
$scope begin PTS[11] $end
$scope begin genblk3 $end
$upscope $end
$upscope $end
$scope begin PTS[12] $end
$scope begin genblk3 $end
$upscope $end
$upscope $end
$scope begin PTS[13] $end
$scope begin genblk3 $end
$upscope $end
$upscope $end
$scope begin PTS[14] $end
$scope begin genblk3 $end
$upscope $end
$upscope $end
$scope begin PTS[15] $end
$scope begin genblk3 $end
$upscope $end
$upscope $end
$scope begin PTS[16] $end
$scope begin genblk3 $end
$upscope $end
$upscope $end
$scope begin PTS[17] $end
$scope begin genblk3 $end
$upscope $end
$upscope $end
$scope begin PTS[18] $end
$scope begin genblk3 $end
$upscope $end
$upscope $end
$scope begin PTS[19] $end
$scope begin genblk3 $end
$upscope $end
$upscope $end
$scope begin PTS[20] $end
$scope begin genblk3 $end
$upscope $end
$upscope $end
$scope begin PTS[21] $end
$scope begin genblk3 $end
$upscope $end
$upscope $end
$scope begin PTS[22] $end
$scope begin genblk3 $end
$upscope $end
$upscope $end
$scope begin PTS[23] $end
$scope begin genblk3 $end
$upscope $end
$upscope $end
$scope begin PTS[24] $end
$scope begin genblk3 $end
$upscope $end
$upscope $end
$scope begin PTS[25] $end
$scope begin genblk3 $end
$upscope $end
$upscope $end
$scope begin PTS[26] $end
$scope begin genblk3 $end
$upscope $end
$upscope $end
$scope begin PTS[27] $end
$scope begin genblk3 $end
$upscope $end
$upscope $end
$scope begin PTS[28] $end
$scope begin genblk3 $end
$upscope $end
$upscope $end
$scope begin PTS[29] $end
$scope begin genblk3 $end
$upscope $end
$upscope $end
$scope begin PTS[30] $end
$scope begin genblk3 $end
$upscope $end
$upscope $end
$scope begin PTS[31] $end
$scope begin genblk3 $end
$upscope $end
$upscope $end
$scope begin PTS[32] $end
$scope begin genblk3 $end
$upscope $end
$upscope $end
$scope begin PTS[33] $end
$scope begin genblk3 $end
$upscope $end
$upscope $end
$scope begin PTS[34] $end
$scope begin genblk3 $end
$upscope $end
$upscope $end
$scope begin PTS[35] $end
$scope begin genblk3 $end
$upscope $end
$upscope $end
$scope begin PTS[36] $end
$scope begin genblk3 $end
$upscope $end
$upscope $end
$scope begin PTS[37] $end
$scope begin genblk3 $end
$upscope $end
$upscope $end
$scope begin PTS[38] $end
$scope begin genblk3 $end
$upscope $end
$upscope $end
$scope begin PTS[39] $end
$scope begin genblk3 $end
$upscope $end
$upscope $end
$scope begin PTS[40] $end
$scope begin genblk3 $end
$upscope $end
$upscope $end
$scope begin PTS[41] $end
$scope begin genblk3 $end
$upscope $end
$upscope $end
$scope begin PTS[42] $end
$scope begin genblk3 $end
$upscope $end
$upscope $end
$scope begin PTS[43] $end
$scope begin genblk3 $end
$upscope $end
$upscope $end
$scope begin PTS[44] $end
$scope begin genblk3 $end
$upscope $end
$upscope $end
$scope begin PTS[45] $end
$scope begin genblk3 $end
$upscope $end
$upscope $end
$scope begin PTS[46] $end
$scope begin genblk3 $end
$upscope $end
$upscope $end
$scope begin PTS[47] $end
$scope begin genblk3 $end
$upscope $end
$upscope $end
$scope begin PTS[48] $end
$scope begin genblk3 $end
$upscope $end
$upscope $end
$scope begin PTS[49] $end
$scope begin genblk3 $end
$upscope $end
$upscope $end
$upscope $end
$scope module counter1 $end
$var wire 1 $ Clock $end
$var wire 1 V Enable $end
$var wire 8 W Initial [7:0] $end
$var wire 1 X Reset $end
$var reg 8 Y Q [7:0] $end
$upscope $end
$upscope $end
$scope module stpw_dat $end
$var wire 1 $ Clock $end
$var wire 1 4 Enable $end
$var wire 1 @ Reset $end
$var wire 1 ? complete $end
$var wire 8 Z countValue [7:0] $end
$var wire 8 [ framesize [7:0] $end
$var wire 1 \ go $end
$var wire 8 ] initialValue [7:0] $end
$var wire 50 ^ parallel [49:0] $end
$var wire 1 = serial $end
$var wire 1 _ serialTemp $end
$var wire 1 ` validData $end
$scope module stp $end
$var wire 1 $ Clock $end
$var wire 1 a Enable $end
$var wire 1 @ Reset $end
$var wire 50 b parallel [49:0] $end
$var wire 1 _ serial $end
$var wire 50 c serialBus [49:0] $end
$scope module ffd $end
$var wire 1 $ Clock $end
$var wire 50 d D [49:0] $end
$var wire 1 a Enable $end
$var wire 1 @ Reset $end
$var reg 50 e Q [49:0] $end
$upscope $end
$scope begin STP[0] $end
$scope begin genblk2 $end
$upscope $end
$upscope $end
$scope begin STP[1] $end
$scope begin genblk3 $end
$upscope $end
$upscope $end
$scope begin STP[2] $end
$scope begin genblk3 $end
$upscope $end
$upscope $end
$scope begin STP[3] $end
$scope begin genblk3 $end
$upscope $end
$upscope $end
$scope begin STP[4] $end
$scope begin genblk3 $end
$upscope $end
$upscope $end
$scope begin STP[5] $end
$scope begin genblk3 $end
$upscope $end
$upscope $end
$scope begin STP[6] $end
$scope begin genblk3 $end
$upscope $end
$upscope $end
$scope begin STP[7] $end
$scope begin genblk3 $end
$upscope $end
$upscope $end
$scope begin STP[8] $end
$scope begin genblk3 $end
$upscope $end
$upscope $end
$scope begin STP[9] $end
$scope begin genblk3 $end
$upscope $end
$upscope $end
$scope begin STP[10] $end
$scope begin genblk3 $end
$upscope $end
$upscope $end
$scope begin STP[11] $end
$scope begin genblk3 $end
$upscope $end
$upscope $end
$scope begin STP[12] $end
$scope begin genblk3 $end
$upscope $end
$upscope $end
$scope begin STP[13] $end
$scope begin genblk3 $end
$upscope $end
$upscope $end
$scope begin STP[14] $end
$scope begin genblk3 $end
$upscope $end
$upscope $end
$scope begin STP[15] $end
$scope begin genblk3 $end
$upscope $end
$upscope $end
$scope begin STP[16] $end
$scope begin genblk3 $end
$upscope $end
$upscope $end
$scope begin STP[17] $end
$scope begin genblk3 $end
$upscope $end
$upscope $end
$scope begin STP[18] $end
$scope begin genblk3 $end
$upscope $end
$upscope $end
$scope begin STP[19] $end
$scope begin genblk3 $end
$upscope $end
$upscope $end
$scope begin STP[20] $end
$scope begin genblk3 $end
$upscope $end
$upscope $end
$scope begin STP[21] $end
$scope begin genblk3 $end
$upscope $end
$upscope $end
$scope begin STP[22] $end
$scope begin genblk3 $end
$upscope $end
$upscope $end
$scope begin STP[23] $end
$scope begin genblk3 $end
$upscope $end
$upscope $end
$scope begin STP[24] $end
$scope begin genblk3 $end
$upscope $end
$upscope $end
$scope begin STP[25] $end
$scope begin genblk3 $end
$upscope $end
$upscope $end
$scope begin STP[26] $end
$scope begin genblk3 $end
$upscope $end
$upscope $end
$scope begin STP[27] $end
$scope begin genblk3 $end
$upscope $end
$upscope $end
$scope begin STP[28] $end
$scope begin genblk3 $end
$upscope $end
$upscope $end
$scope begin STP[29] $end
$scope begin genblk3 $end
$upscope $end
$upscope $end
$scope begin STP[30] $end
$scope begin genblk3 $end
$upscope $end
$upscope $end
$scope begin STP[31] $end
$scope begin genblk3 $end
$upscope $end
$upscope $end
$scope begin STP[32] $end
$scope begin genblk3 $end
$upscope $end
$upscope $end
$scope begin STP[33] $end
$scope begin genblk3 $end
$upscope $end
$upscope $end
$scope begin STP[34] $end
$scope begin genblk3 $end
$upscope $end
$upscope $end
$scope begin STP[35] $end
$scope begin genblk3 $end
$upscope $end
$upscope $end
$scope begin STP[36] $end
$scope begin genblk3 $end
$upscope $end
$upscope $end
$scope begin STP[37] $end
$scope begin genblk3 $end
$upscope $end
$upscope $end
$scope begin STP[38] $end
$scope begin genblk3 $end
$upscope $end
$upscope $end
$scope begin STP[39] $end
$scope begin genblk3 $end
$upscope $end
$upscope $end
$scope begin STP[40] $end
$scope begin genblk3 $end
$upscope $end
$upscope $end
$scope begin STP[41] $end
$scope begin genblk3 $end
$upscope $end
$upscope $end
$scope begin STP[42] $end
$scope begin genblk3 $end
$upscope $end
$upscope $end
$scope begin STP[43] $end
$scope begin genblk3 $end
$upscope $end
$upscope $end
$scope begin STP[44] $end
$scope begin genblk3 $end
$upscope $end
$upscope $end
$scope begin STP[45] $end
$scope begin genblk3 $end
$upscope $end
$upscope $end
$scope begin STP[46] $end
$scope begin genblk3 $end
$upscope $end
$upscope $end
$scope begin STP[47] $end
$scope begin genblk3 $end
$upscope $end
$upscope $end
$scope begin STP[48] $end
$scope begin genblk3 $end
$upscope $end
$upscope $end
$scope begin STP[49] $end
$scope begin genblk3 $end
$upscope $end
$upscope $end
$upscope $end
$scope module counter1 $end
$var wire 1 $ Clock $end
$var wire 1 f Enable $end
$var wire 8 g Initial [7:0] $end
$var wire 1 h Reset $end
$var reg 8 i Q [7:0] $end
$upscope $end
$upscope $end
$scope module dat_PAD $end
$var wire 1 $ clock $end
$var wire 1 B data_in $end
$var wire 1 = data_out $end
$var wire 1 ; enable $end
$var wire 1 " io_port $end
$var wire 1 < output_input $end
$var reg 1 j control $end
$var reg 1 k dataFROMCARD $end
$var reg 1 l dataToCARD $end
$upscope $end
$scope module dat1 $end
$var wire 1 + DATA_TIMEOUT $end
$var wire 16 m TIMEOUT_REG [15:0] $end
$var wire 1 - ack_in $end
$var wire 4 n blocks [3:0] $end
$var wire 32 o dataRead [31:0] $end
$var wire 1 8 idle_in $end
$var wire 1 : multiple $end
$var wire 1 ? reception_complete $end
$var wire 1 # reset $end
$var wire 1 $ sd_clock $end
$var wire 1 % strobe_in $end
$var wire 1 D transmission_complete $end
$var wire 1 F writeRead $end
$var reg 1 p ack_out $end
$var reg 4 q blockCount [3:0] $end
$var reg 1 r complete $end
$var reg 32 s dataReadTOFIFO [31:0] $end
$var reg 1 t dummy_count $end
$var reg 1 u enable_pts_wrapper $end
$var reg 1 v enable_stp_wrapper $end
$var reg 1 w load_send $end
$var reg 1 x loaded $end
$var reg 4 y next_state [3:0] $end
$var reg 1 z pad_enable $end
$var reg 1 { pad_state $end
$var reg 1 | read_fifo_enable $end
$var reg 1 } reset_wrapper $end
$var reg 1 ~ serial_ready $end
$var reg 4 !" state [3:0] $end
$var reg 16 "" timeout_count [15:0] $end
$var reg 1 #" waiting_response $end
$var reg 1 $" write_fifo_enable $end
$upscope $end
$upscope $end
$scope module gencmd $end
$var wire 1 %" ack_in $end
$var wire 1 $ clock $end
$var wire 1 &" newCMD $end
$var wire 1 # reset $end
$var wire 1 '" serial_ready $end
$var wire 1 % strobe_in $end
$scope module clk1 $end
$var reg 1 (" clock $end
$upscope $end
$scope module r1 $end
$var reg 1 )" reset $end
$upscope $end
$scope module nDG $end
$var reg 1 *" newCMD $end
$upscope $end
$scope module sRg $end
$var reg 1 +" serialReady $end
$upscope $end
$scope module cg $end
$var reg 1 ," strobe_in $end
$upscope $end
$scope module aig $end
$var reg 1 -" ack_in $end
$upscope $end
$upscope $end
$scope module sd $end
$var wire 1 $ Clock $end
$var wire 1 ." Enable $end
$var wire 1 /" Reset $end
$var wire 1 ! complete $end
$var wire 8 0" countValue [7:0] $end
$var wire 8 1" framesize [7:0] $end
$var wire 1 2" go $end
$var wire 8 3" initialValue [7:0] $end
$var wire 8 4" kk [7:0] $end
$var wire 1 5" load_send $end
$var wire 4 6" parallel [3:0] $end
$var wire 1 " serial $end
$var wire 1 7" serialTemp $end
$scope module pts $end
$var wire 1 $ Clock $end
$var wire 1 8" Enable $end
$var wire 1 /" Reset $end
$var wire 4 9" ffdinputBus [3:0] $end
$var wire 4 :" ffdqBus [3:0] $end
$var wire 1 5" load_send $end
$var wire 4 ;" parallel [3:0] $end
$var wire 1 7" serial $end
$scope module ffd $end
$var wire 1 $ Clock $end
$var wire 4 <" D [3:0] $end
$var wire 1 8" Enable $end
$var wire 1 /" Reset $end
$var reg 4 =" Q [3:0] $end
$upscope $end
$scope begin PTS[0] $end
$scope begin genblk2 $end
$upscope $end
$upscope $end
$scope begin PTS[1] $end
$scope begin genblk3 $end
$upscope $end
$upscope $end
$scope begin PTS[2] $end
$scope begin genblk3 $end
$upscope $end
$upscope $end
$scope begin PTS[3] $end
$scope begin genblk3 $end
$upscope $end
$upscope $end
$upscope $end
$scope module counter1 $end
$var wire 1 $ Clock $end
$var wire 1 >" Enable $end
$var wire 8 ?" Initial [7:0] $end
$var wire 1 /" Reset $end
$var reg 8 @" Q [7:0] $end
$upscope $end
$upscope $end
$upscope $end
$enddefinitions $end
#0
$dumpvars
bx @"
b0 ?"
0>"
bx ="
b1010 <"
b1010 ;"
bx :"
b1010 9"
08"
x7"
b1010 6"
05"
b11 4"
b0 3"
x2"
b100 1"
bx 0"
0/"
0."
0-"
0,"
0+"
0*"
0)"
0("
0'"
0&"
0%"
x$"
x#"
bx ""
bx !"
x~
x}
x|
x{
xz
b0 y
xx
xw
xv
xu
xt
bx s
xr
bx q
xp
bx o
b1 n
b1100100 m
xl
xk
0j
bx i
xh
b0 g
xf
bx e
bx d
bx c
bx b
xa
1`
x_
bx ^
b0 ]
x\
b0xx001x [
bx Z
bx Y
xX
b0 W
xV
bx U
bx T
b111001110111111100101000000000000000001 S
bx R
bx Q
xP
xO
xN
b111001110111111100101000000000000000001 M
b110001 L
b0 K
xJ
b110010 I
bx H
xG
1F
xE
xD
zC
xB
xA
x@
x?
x>
x=
x<
x;
1:
x9
08
b0xx001x 7
b111001110111111100101000000000000000001 6
bx 5
x4
x3
bx 2
b1110011101111111001010 1
x0
b1 /
x.
0-
b1100100 ,
x+
0*
0)
0(
b1111011110100 '
b10000000000000000000000000000000000001111011110100 &
0%
0$
0#
x"
x!
$end
#20000
zB
b110010 7
b110010 [
b111001110111111100101000000000000000001 Q
b111001110111111100101000000000000000001 T
0f
0a
0O
0V
1h
1X
1P
z"
0`
bx0 c
bx0 d
0_
0+
b0 q
0x
b0 s
b0 2
0|
0>
0$"
0G
0z
0;
0{
0<
0#"
0E
0v
04
0u
03
0w
09
1}
1@
0p
0.
0r
00
0~
0A
b1 y
zl
zk
z=
0t
b0 ""
b0 !"
1("
1$
#40000
0("
0$
#50000
1*
1/"
#60000
1~
1A
b1 !"
0!
12"
07"
0?
1\
b0 c
b0 d
b0 o
0D
1J
0N
b0 @"
b0 0"
b0 ="
b0 :"
b0 i
b0 Z
b0 e
b0 5
b0 ^
b0 b
b0 Y
b0 H
b0 U
b0 R
1("
1$
#80000
0("
0$
#100000
0~
0A
b0 !"
1("
1$
1)"
1#
#120000
0("
0$
#140000
1("
1$
#160000
0("
0$
#180000
1("
1$
#200000
0("
0$
#220000
1("
1$
#240000
0("
0$
#260000
1("
1$
#280000
0("
0$
#300000
1("
1$
#320000
0("
0$
#340000
1("
1$
#350000
0*
0/"
0)"
0#
#360000
0("
0$
#380000
1~
1A
b1 !"
1("
1$
#400000
0("
0$
#420000
1("
1$
#440000
0("
0$
#460000
1("
1$
#480000
0("
0$
#500000
1("
1$
#520000
0("
0$
#540000
1("
1$
#560000
0("
0$
#580000
1("
1$
#600000
0("
0$
#620000
1("
1$
#640000
0("
0$
#660000
1("
1$
#680000
0("
0$
#700000
1("
1$
#720000
0("
0$
#740000
1("
1$
#760000
0("
0$
#780000
1("
1$
#800000
0("
0$
#820000
1("
1$
#840000
0("
0$
#860000
1("
1$
#880000
0("
0$
#900000
1("
1$
#920000
0("
0$
#940000
1("
1$
#960000
0("
0$
#980000
1("
1$
#1000000
0("
0$
1*"
1&"
#1020000
1("
1$
#1040000
0("
0$
#1060000
1("
1$
#1080000
0("
0$
#1100000
1("
1$
#1120000
0("
0$
#1140000
1("
1$
#1160000
0("
0$
#1180000
1("
1$
#1200000
0("
0$
#1220000
1("
1$
#1240000
0("
0$
#1260000
1("
1$
#1280000
0("
0$
#1300000
1("
1$
1+"
1'"
#1320000
0("
0$
#1340000
1("
1$
#1360000
0("
0$
#1380000
1("
1$
#1400000
0("
0$
#1420000
1("
1$
#1440000
0("
0$
#1460000
1("
1$
#1480000
0("
0$
#1500000
1("
1$
#1520000
0("
0$
#1540000
1("
1$
#1560000
0("
0$
#1580000
1("
1$
#1600000
0("
0$
#1620000
1("
1$
#1640000
0("
0$
#1660000
1("
1$
#1680000
0("
0$
#1700000
1("
1$
#1720000
0("
0$
#1740000
1("
1$
#1760000
0("
0$
#1780000
1("
1$
#1800000
0("
0$
#1820000
1("
1$
#1840000
0("
0$
#1860000
1("
1$
#1880000
0("
0$
#1900000
1("
1$
#1920000
0("
0$
#1940000
1("
1$
#1960000
0("
0$
#1980000
1("
1$
#2000000
b10 y
0("
0$
0*"
0&"
1,"
1%
#2020000
b11 y
1O
0h
0X
0P
1x
1$"
1G
1z
1;
1{
1<
1u
13
0}
0@
0~
0A
b10 !"
1("
1$
#2040000
0("
0$
#2060000
0B
b1110011101111111001010000000000000000011 Q
b1110011101111111001010000000000000000011 T
1V
0x
0$"
0G
1w
19
b11 !"
1j
b111001110111111100101000000000000000001 U
b111001110111111100101000000000000000001 R
1("
1$
#2080000
0("
0$
#2100000
b11100111011111110010100000000000000000111 Q
b11100111011111110010100000000000000000111 T
0"
b1110011101111111001010000000000000000011 U
b1110011101111111001010000000000000000011 R
0l
b1 Y
b1 H
1("
1$
#2120000
0("
0$
#2140000
b111001110111111100101000000000000000001111 Q
b111001110111111100101000000000000000001111 T
1`
0k
0=
b11100111011111110010100000000000000000111 U
b11100111011111110010100000000000000000111 R
b10 Y
b10 H
1("
1$
#2160000
0("
0$
#2180000
b1110011101111111001010000000000000000011111 Q
b1110011101111111001010000000000000000011111 T
b111001110111111100101000000000000000001111 U
b111001110111111100101000000000000000001111 R
b11 Y
b11 H
1("
1$
#2200000
0("
0$
#2220000
b11100111011111110010100000000000000000111111 Q
b11100111011111110010100000000000000000111111 T
b1110011101111111001010000000000000000011111 U
b1110011101111111001010000000000000000011111 R
b100 Y
b100 H
1("
1$
#2240000
0("
0$
#2260000
b111001110111111100101000000000000000001111111 Q
b111001110111111100101000000000000000001111111 T
b11100111011111110010100000000000000000111111 U
b11100111011111110010100000000000000000111111 R
b101 Y
b101 H
1("
1$
#2280000
0("
0$
#2300000
b1110011101111111001010000000000000000011111111 Q
b1110011101111111001010000000000000000011111111 T
b111001110111111100101000000000000000001111111 U
b111001110111111100101000000000000000001111111 R
b110 Y
b110 H
1("
1$
#2320000
0("
0$
#2340000
b11100111011111110010100000000000000000111111111 Q
b11100111011111110010100000000000000000111111111 T
b1110011101111111001010000000000000000011111111 U
b1110011101111111001010000000000000000011111111 R
b111 Y
b111 H
1("
1$
#2360000
0("
0$
#2380000
b111001110111111100101000000000000000001111111111 Q
b111001110111111100101000000000000000001111111111 T
b11100111011111110010100000000000000000111111111 U
b11100111011111110010100000000000000000111111111 R
b1000 Y
b1000 H
1("
1$
#2400000
0("
0$
#2420000
b1110011101111111001010000000000000000011111111111 Q
b1110011101111111001010000000000000000011111111111 T
b111001110111111100101000000000000000001111111111 U
b111001110111111100101000000000000000001111111111 R
b1001 Y
b1001 H
1("
1$
#2440000
0("
0$
#2460000
b11100111011111110010100000000000000000111111111111 Q
b11100111011111110010100000000000000000111111111111 T
b1110011101111111001010000000000000000011111111111 U
b1110011101111111001010000000000000000011111111111 R
b1010 Y
b1010 H
1("
1$
#2480000
0("
0$
#2500000
b11001110111111100101000000000000000001111111111111 Q
b11001110111111100101000000000000000001111111111111 T
1B
1N
b11100111011111110010100000000000000000111111111111 U
b11100111011111110010100000000000000000111111111111 R
b1011 Y
b1011 H
1("
1$
#2520000
0("
0$
#2540000
b10011101111111001010000000000000000011111111111111 Q
b10011101111111001010000000000000000011111111111111 T
1"
1l
b11001110111111100101000000000000000001111111111111 U
b11001110111111100101000000000000000001111111111111 R
b1100 Y
b1100 H
1("
1$
#2560000
0("
0$
#2580000
b111011111110010100000000000000000111111111111111 Q
b111011111110010100000000000000000111111111111111 T
b1 c
b1 d
1_
b10011101111111001010000000000000000011111111111111 U
b10011101111111001010000000000000000011111111111111 R
1k
1=
b1101 Y
b1101 H
1("
1$
#2600000
0("
0$
#2620000
b1110111111100101000000000000000001111111111111111 Q
b1110111111100101000000000000000001111111111111111 T
0B
0N
b111011111110010100000000000000000111111111111111 U
b111011111110010100000000000000000111111111111111 R
b1110 Y
b1110 H
1("
1$
#2640000
0("
0$
#2660000
b11101111111001010000000000000000011111111111111111 Q
b11101111111001010000000000000000011111111111111111 T
0"
b1110111111100101000000000000000001111111111111111 U
b1110111111100101000000000000000001111111111111111 R
0l
b1111 Y
b1111 H
1("
1$
#2680000
0("
0$
#2700000
b11011111110010100000000000000000111111111111111111 Q
b11011111110010100000000000000000111111111111111111 T
1B
b0 c
b0 d
0_
1N
0k
0=
b11101111111001010000000000000000011111111111111111 U
b11101111111001010000000000000000011111111111111111 R
b10000 Y
b10000 H
1("
1$
#2720000
0("
0$
#2740000
b10111111100101000000000000000001111111111111111111 Q
b10111111100101000000000000000001111111111111111111 T
1"
b11011111110010100000000000000000111111111111111111 U
b11011111110010100000000000000000111111111111111111 R
1l
b10001 Y
b10001 H
1("
1$
#2760000
0("
0$
#2780000
b1111111001010000000000000000011111111111111111111 Q
b1111111001010000000000000000011111111111111111111 T
b1 c
b1 d
1_
1k
1=
b10111111100101000000000000000001111111111111111111 U
b10111111100101000000000000000001111111111111111111 R
b10010 Y
b10010 H
1("
1$
#2800000
0("
0$
#2820000
b11111110010100000000000000000111111111111111111111 Q
b11111110010100000000000000000111111111111111111111 T
0B
0N
b1111111001010000000000000000011111111111111111111 U
b1111111001010000000000000000011111111111111111111 R
b10011 Y
b10011 H
1("
1$
#2840000
0("
0$
#2860000
b11111100101000000000000000001111111111111111111111 Q
b11111100101000000000000000001111111111111111111111 T
1B
0"
1N
0l
b11111110010100000000000000000111111111111111111111 U
b11111110010100000000000000000111111111111111111111 R
b10100 Y
b10100 H
1("
1$
#2880000
0("
0$
#2900000
b11111001010000000000000000011111111111111111111111 Q
b11111001010000000000000000011111111111111111111111 T
1"
b0 c
b0 d
0_
b11111100101000000000000000001111111111111111111111 U
b11111100101000000000000000001111111111111111111111 R
1l
0k
0=
b10101 Y
b10101 H
1("
1$
#2920000
0("
0$
#2940000
b11110010100000000000000000111111111111111111111111 Q
b11110010100000000000000000111111111111111111111111 T
b1 c
b1 d
1_
1k
1=
b11111001010000000000000000011111111111111111111111 U
b11111001010000000000000000011111111111111111111111 R
b10110 Y
b10110 H
1("
1$
#2960000
0("
0$
#2980000
b11100101000000000000000001111111111111111111111111 Q
b11100101000000000000000001111111111111111111111111 T
b11110010100000000000000000111111111111111111111111 U
b11110010100000000000000000111111111111111111111111 R
b10111 Y
b10111 H
1("
1$
#3000000
0("
0$
#3020000
b11001010000000000000000011111111111111111111111111 Q
b11001010000000000000000011111111111111111111111111 T
b11100101000000000000000001111111111111111111111111 U
b11100101000000000000000001111111111111111111111111 R
b11000 Y
b11000 H
1("
1$
#3040000
0("
0$
#3060000
b10010100000000000000000111111111111111111111111111 Q
b10010100000000000000000111111111111111111111111111 T
b11001010000000000000000011111111111111111111111111 U
b11001010000000000000000011111111111111111111111111 R
b11001 Y
b11001 H
1("
1$
#3080000
0("
0$
#3100000
b101000000000000000001111111111111111111111111111 Q
b101000000000000000001111111111111111111111111111 T
b10010100000000000000000111111111111111111111111111 U
b10010100000000000000000111111111111111111111111111 R
b11010 Y
b11010 H
1("
1$
#3120000
0("
0$
#3140000
b1010000000000000000011111111111111111111111111111 Q
b1010000000000000000011111111111111111111111111111 T
0B
0N
b101000000000000000001111111111111111111111111111 U
b101000000000000000001111111111111111111111111111 R
b11011 Y
b11011 H
1("
1$
#3160000
0("
0$
#3180000
b10100000000000000000111111111111111111111111111111 Q
b10100000000000000000111111111111111111111111111111 T
0"
0l
b1010000000000000000011111111111111111111111111111 U
b1010000000000000000011111111111111111111111111111 R
b11100 Y
b11100 H
1("
1$
#3200000
0("
0$
#3220000
b1000000000000000001111111111111111111111111111111 Q
b1000000000000000001111111111111111111111111111111 T
1B
1N
b0 c
b0 d
0_
b10100000000000000000111111111111111111111111111111 U
b10100000000000000000111111111111111111111111111111 R
0k
0=
b11101 Y
b11101 H
1("
1$
#3240000
0("
0$
#3260000
b10000000000000000011111111111111111111111111111111 Q
b10000000000000000011111111111111111111111111111111 T
0B
1"
0N
1l
b1000000000000000001111111111111111111111111111111 U
b1000000000000000001111111111111111111111111111111 R
b11110 Y
b11110 H
1("
1$
#3280000
0("
0$
#3300000
b111111111111111111111111111111111 Q
b111111111111111111111111111111111 T
1B
1N
0"
b1 c
b1 d
1_
b10000000000000000011111111111111111111111111111111 U
b10000000000000000011111111111111111111111111111111 R
0l
1k
1=
b11111 Y
b11111 H
1("
1$
#3320000
0("
0$
#3340000
b1111111111111111111111111111111111 Q
b1111111111111111111111111111111111 T
0B
1"
b0 c
b0 d
0_
0N
1l
0k
0=
b111111111111111111111111111111111 U
b111111111111111111111111111111111 R
b100000 Y
b100000 H
1("
1$
#3360000
0("
0$
#3380000
b11111111111111111111111111111111111 Q
b11111111111111111111111111111111111 T
0"
b1 c
b1 d
1_
b1111111111111111111111111111111111 U
b1111111111111111111111111111111111 R
0l
1k
1=
b100001 Y
b100001 H
1("
1$
#3400000
0("
0$
#3420000
b111111111111111111111111111111111111 Q
b111111111111111111111111111111111111 T
b0 c
b0 d
0_
0k
0=
b11111111111111111111111111111111111 U
b11111111111111111111111111111111111 R
b100010 Y
b100010 H
1("
1$
#3440000
0("
0$
#3460000
b1111111111111111111111111111111111111 Q
b1111111111111111111111111111111111111 T
b111111111111111111111111111111111111 U
b111111111111111111111111111111111111 R
b100011 Y
b100011 H
1("
1$
#3480000
0("
0$
#3500000
b11111111111111111111111111111111111111 Q
b11111111111111111111111111111111111111 T
b1111111111111111111111111111111111111 U
b1111111111111111111111111111111111111 R
b100100 Y
b100100 H
1("
1$
#3520000
0("
0$
#3540000
b111111111111111111111111111111111111111 Q
b111111111111111111111111111111111111111 T
b11111111111111111111111111111111111111 U
b11111111111111111111111111111111111111 R
b100101 Y
b100101 H
1("
1$
#3560000
0("
0$
#3580000
b1111111111111111111111111111111111111111 Q
b1111111111111111111111111111111111111111 T
b111111111111111111111111111111111111111 U
b111111111111111111111111111111111111111 R
b100110 Y
b100110 H
1("
1$
#3600000
0("
0$
#3620000
b11111111111111111111111111111111111111111 Q
b11111111111111111111111111111111111111111 T
b1111111111111111111111111111111111111111 U
b1111111111111111111111111111111111111111 R
b100111 Y
b100111 H
1("
1$
#3640000
0("
0$
#3660000
b111111111111111111111111111111111111111111 Q
b111111111111111111111111111111111111111111 T
b11111111111111111111111111111111111111111 U
b11111111111111111111111111111111111111111 R
b101000 Y
b101000 H
1("
1$
#3680000
0("
0$
