testbench/dat_all_read_int.vcd
$date
	Sun Jul  3 17:28:00 2016
$end
$version
	Icarus Verilog
$end
$timescale
	1ps
$end
$scope module TestBench $end
$var wire 1 ! ack_host_phys $end
$var wire 1 " ack_phys_host $end
$var wire 4 # blocks_host_phys [3:0] $end
$var wire 1 $ clock $end
$var wire 1 % complete_card $end
$var wire 1 & complete_phys_host $end
$var wire 1 ' dat_pin $end
$var wire 1 ( dataTimeout $end
$var wire 32 ) data_block [31:0] $end
$var wire 50 * data_to_card [49:0] $end
$var wire 1 + idle_out $end
$var wire 1 , kk $end
$var wire 1 - multiple_host_phys $end
$var wire 1 . reset $end
$var wire 1 / sd_clock $end
$var wire 1 0 sr_phys_host $end
$var wire 1 1 strobe_host_phys $end
$var wire 16 2 timeout_value [15:0] $end
$var wire 1 3 wr_host_phys $end
$var reg 1 4 Enable_card $end
$var reg 1 5 new_Dat $end
$var reg 1 6 reset_card $end
$scope module datc $end
$var wire 16 7 TIMEOUT_REG [15:0] $end
$var wire 1 " ack_in $end
$var wire 4 8 blockCount [3:0] $end
$var wire 1 $ clock $end
$var wire 1 & complete $end
$var wire 1 9 fifo_okay $end
$var wire 1 : multipleData $end
$var wire 1 ; newDat $end
$var wire 1 . reset $end
$var wire 1 0 serial_ready $end
$var wire 1 < stop_timeout $end
$var wire 1 ( timeout $end
$var wire 1 = timeout_enable $end
$var wire 1 > writeRead $end
$var reg 16 ? TIMEOUT_VALUE [15:0] $end
$var reg 1 @ ack_out $end
$var reg 4 A blocks [3:0] $end
$var reg 1 B idle_out $end
$var reg 1 C multiple $end
$var reg 3 D next_state [2:0] $end
$var reg 3 E state [2:0] $end
$var reg 1 F strobe_out $end
$var reg 1 G transfer_complete $end
$var reg 1 H writereadphys $end
$upscope $end
$scope module dat $end
$var wire 1 ( DATA_TIMEOUT $end
$var wire 16 I TIMEOUT_REG [15:0] $end
$var wire 1 ! ack_in $end
$var wire 1 " ack_out $end
$var wire 4 J blocks [3:0] $end
$var wire 1 & complete $end
$var wire 1 ' dat_pin $end
$var wire 32 K dataFROMFIFO [31:0] $end
$var wire 32 L dataPARALLEL [31:0] $end
$var wire 32 M dataToFIFO [31:0] $end
$var wire 1 N enable_pts_wrapper $end
$var wire 1 O enable_stp_wrapper $end
$var wire 50 P frame_received [49:0] $end
$var wire 50 Q frame_to_send [49:0] $end
$var wire 8 R framesize_reception [7:0] $end
$var wire 1 + idle_in $end
$var wire 1 S load_send $end
$var wire 1 - multiple $end
$var wire 1 T pad_enable $end
$var wire 1 U pad_state $end
$var wire 1 V padserial $end
$var wire 1 W read_enable $end
$var wire 1 X reception_complete $end
$var wire 1 . reset $end
$var wire 1 Y reset_wrapper $end
$var wire 1 / sd_clock $end
$var wire 1 0 serial_ready $end
$var wire 1 Z serialpad $end
$var wire 1 1 strobe_in $end
$var wire 1 [ transmission_complete $end
$var wire 1 \ waiting_response $end
$var wire 1 3 writeRead $end
$var wire 1 ] write_enable $end
$scope module ptsw_dat $end
$var wire 1 / Clock $end
$var wire 1 N Enable $end
$var wire 1 Y Reset $end
$var wire 1 [ complete $end
$var wire 8 ^ countValue [7:0] $end
$var wire 8 _ framesize [7:0] $end
$var wire 1 ` go $end
$var wire 8 a initialValue [7:0] $end
$var wire 8 b kk [7:0] $end
$var wire 1 S load_send $end
$var wire 50 c parallel [49:0] $end
$var wire 1 Z serial $end
$var wire 1 d serialTemp $end
$scope module pts $end
$var wire 1 / Clock $end
$var wire 1 e Enable $end
$var wire 1 f Reset $end
$var wire 50 g ffdinputBus [49:0] $end
$var wire 50 h ffdqBus [49:0] $end
$var wire 1 S load_send $end
$var wire 50 i parallel [49:0] $end
$var wire 1 d serial $end
$scope module ffd $end
$var wire 1 / Clock $end
$var wire 50 j D [49:0] $end
$var wire 1 e Enable $end
$var wire 1 f Reset $end
$var reg 50 k Q [49:0] $end
$upscope $end
$scope begin PTS[0] $end
$scope begin genblk2 $end
$upscope $end
$upscope $end
$scope begin PTS[1] $end
$scope begin genblk3 $end
$upscope $end
$upscope $end
$scope begin PTS[2] $end
$scope begin genblk3 $end
$upscope $end
$upscope $end
$scope begin PTS[3] $end
$scope begin genblk3 $end
$upscope $end
$upscope $end
$scope begin PTS[4] $end
$scope begin genblk3 $end
$upscope $end
$upscope $end
$scope begin PTS[5] $end
$scope begin genblk3 $end
$upscope $end
$upscope $end
$scope begin PTS[6] $end
$scope begin genblk3 $end
$upscope $end
$upscope $end
$scope begin PTS[7] $end
$scope begin genblk3 $end
$upscope $end
$upscope $end
$scope begin PTS[8] $end
$scope begin genblk3 $end
$upscope $end
$upscope $end
$scope begin PTS[9] $end
$scope begin genblk3 $end
$upscope $end
$upscope $end
$scope begin PTS[10] $end
$scope begin genblk3 $end
$upscope $end
$upscope $end
$scope begin PTS[11] $end
$scope begin genblk3 $end
$upscope $end
$upscope $end
$scope begin PTS[12] $end
$scope begin genblk3 $end
$upscope $end
$upscope $end
$scope begin PTS[13] $end
$scope begin genblk3 $end
$upscope $end
$upscope $end
$scope begin PTS[14] $end
$scope begin genblk3 $end
$upscope $end
$upscope $end
$scope begin PTS[15] $end
$scope begin genblk3 $end
$upscope $end
$upscope $end
$scope begin PTS[16] $end
$scope begin genblk3 $end
$upscope $end
$upscope $end
$scope begin PTS[17] $end
$scope begin genblk3 $end
$upscope $end
$upscope $end
$scope begin PTS[18] $end
$scope begin genblk3 $end
$upscope $end
$upscope $end
$scope begin PTS[19] $end
$scope begin genblk3 $end
$upscope $end
$upscope $end
$scope begin PTS[20] $end
$scope begin genblk3 $end
$upscope $end
$upscope $end
$scope begin PTS[21] $end
$scope begin genblk3 $end
$upscope $end
$upscope $end
$scope begin PTS[22] $end
$scope begin genblk3 $end
$upscope $end
$upscope $end
$scope begin PTS[23] $end
$scope begin genblk3 $end
$upscope $end
$upscope $end
$scope begin PTS[24] $end
$scope begin genblk3 $end
$upscope $end
$upscope $end
$scope begin PTS[25] $end
$scope begin genblk3 $end
$upscope $end
$upscope $end
$scope begin PTS[26] $end
$scope begin genblk3 $end
$upscope $end
$upscope $end
$scope begin PTS[27] $end
$scope begin genblk3 $end
$upscope $end
$upscope $end
$scope begin PTS[28] $end
$scope begin genblk3 $end
$upscope $end
$upscope $end
$scope begin PTS[29] $end
$scope begin genblk3 $end
$upscope $end
$upscope $end
$scope begin PTS[30] $end
$scope begin genblk3 $end
$upscope $end
$upscope $end
$scope begin PTS[31] $end
$scope begin genblk3 $end
$upscope $end
$upscope $end
$scope begin PTS[32] $end
$scope begin genblk3 $end
$upscope $end
$upscope $end
$scope begin PTS[33] $end
$scope begin genblk3 $end
$upscope $end
$upscope $end
$scope begin PTS[34] $end
$scope begin genblk3 $end
$upscope $end
$upscope $end
$scope begin PTS[35] $end
$scope begin genblk3 $end
$upscope $end
$upscope $end
$scope begin PTS[36] $end
$scope begin genblk3 $end
$upscope $end
$upscope $end
$scope begin PTS[37] $end
$scope begin genblk3 $end
$upscope $end
$upscope $end
$scope begin PTS[38] $end
$scope begin genblk3 $end
$upscope $end
$upscope $end
$scope begin PTS[39] $end
$scope begin genblk3 $end
$upscope $end
$upscope $end
$scope begin PTS[40] $end
$scope begin genblk3 $end
$upscope $end
$upscope $end
$scope begin PTS[41] $end
$scope begin genblk3 $end
$upscope $end
$upscope $end
$scope begin PTS[42] $end
$scope begin genblk3 $end
$upscope $end
$upscope $end
$scope begin PTS[43] $end
$scope begin genblk3 $end
$upscope $end
$upscope $end
$scope begin PTS[44] $end
$scope begin genblk3 $end
$upscope $end
$upscope $end
$scope begin PTS[45] $end
$scope begin genblk3 $end
$upscope $end
$upscope $end
$scope begin PTS[46] $end
$scope begin genblk3 $end
$upscope $end
$upscope $end
$scope begin PTS[47] $end
$scope begin genblk3 $end
$upscope $end
$upscope $end
$scope begin PTS[48] $end
$scope begin genblk3 $end
$upscope $end
$upscope $end
$scope begin PTS[49] $end
$scope begin genblk3 $end
$upscope $end
$upscope $end
$upscope $end
$scope module counter1 $end
$var wire 1 / Clock $end
$var wire 1 l Enable $end
$var wire 8 m Initial [7:0] $end
$var wire 1 n Reset $end
$var reg 8 o Q [7:0] $end
$upscope $end
$upscope $end
$scope module stpw_dat $end
$var wire 1 / Clock $end
$var wire 1 O Enable $end
$var wire 1 Y Reset $end
$var wire 1 X complete $end
$var wire 8 p countValue [7:0] $end
$var wire 8 q framesize [7:0] $end
$var wire 1 r go $end
$var wire 8 s initialValue [7:0] $end
$var wire 50 t parallel [49:0] $end
$var wire 1 V serial $end
$var wire 1 u serialTemp $end
$var wire 1 v validData $end
$scope module stp $end
$var wire 1 / Clock $end
$var wire 1 w Enable $end
$var wire 1 Y Reset $end
$var wire 50 x parallel [49:0] $end
$var wire 1 u serial $end
$var wire 50 y serialBus [49:0] $end
$scope module ffd $end
$var wire 1 / Clock $end
$var wire 50 z D [49:0] $end
$var wire 1 w Enable $end
$var wire 1 Y Reset $end
$var reg 50 { Q [49:0] $end
$upscope $end
$scope begin STP[0] $end
$scope begin genblk2 $end
$upscope $end
$upscope $end
$scope begin STP[1] $end
$scope begin genblk3 $end
$upscope $end
$upscope $end
$scope begin STP[2] $end
$scope begin genblk3 $end
$upscope $end
$upscope $end
$scope begin STP[3] $end
$scope begin genblk3 $end
$upscope $end
$upscope $end
$scope begin STP[4] $end
$scope begin genblk3 $end
$upscope $end
$upscope $end
$scope begin STP[5] $end
$scope begin genblk3 $end
$upscope $end
$upscope $end
$scope begin STP[6] $end
$scope begin genblk3 $end
$upscope $end
$upscope $end
$scope begin STP[7] $end
$scope begin genblk3 $end
$upscope $end
$upscope $end
$scope begin STP[8] $end
$scope begin genblk3 $end
$upscope $end
$upscope $end
$scope begin STP[9] $end
$scope begin genblk3 $end
$upscope $end
$upscope $end
$scope begin STP[10] $end
$scope begin genblk3 $end
$upscope $end
$upscope $end
$scope begin STP[11] $end
$scope begin genblk3 $end
$upscope $end
$upscope $end
$scope begin STP[12] $end
$scope begin genblk3 $end
$upscope $end
$upscope $end
$scope begin STP[13] $end
$scope begin genblk3 $end
$upscope $end
$upscope $end
$scope begin STP[14] $end
$scope begin genblk3 $end
$upscope $end
$upscope $end
$scope begin STP[15] $end
$scope begin genblk3 $end
$upscope $end
$upscope $end
$scope begin STP[16] $end
$scope begin genblk3 $end
$upscope $end
$upscope $end
$scope begin STP[17] $end
$scope begin genblk3 $end
$upscope $end
$upscope $end
$scope begin STP[18] $end
$scope begin genblk3 $end
$upscope $end
$upscope $end
$scope begin STP[19] $end
$scope begin genblk3 $end
$upscope $end
$upscope $end
$scope begin STP[20] $end
$scope begin genblk3 $end
$upscope $end
$upscope $end
$scope begin STP[21] $end
$scope begin genblk3 $end
$upscope $end
$upscope $end
$scope begin STP[22] $end
$scope begin genblk3 $end
$upscope $end
$upscope $end
$scope begin STP[23] $end
$scope begin genblk3 $end
$upscope $end
$upscope $end
$scope begin STP[24] $end
$scope begin genblk3 $end
$upscope $end
$upscope $end
$scope begin STP[25] $end
$scope begin genblk3 $end
$upscope $end
$upscope $end
$scope begin STP[26] $end
$scope begin genblk3 $end
$upscope $end
$upscope $end
$scope begin STP[27] $end
$scope begin genblk3 $end
$upscope $end
$upscope $end
$scope begin STP[28] $end
$scope begin genblk3 $end
$upscope $end
$upscope $end
$scope begin STP[29] $end
$scope begin genblk3 $end
$upscope $end
$upscope $end
$scope begin STP[30] $end
$scope begin genblk3 $end
$upscope $end
$upscope $end
$scope begin STP[31] $end
$scope begin genblk3 $end
$upscope $end
$upscope $end
$scope begin STP[32] $end
$scope begin genblk3 $end
$upscope $end
$upscope $end
$scope begin STP[33] $end
$scope begin genblk3 $end
$upscope $end
$upscope $end
$scope begin STP[34] $end
$scope begin genblk3 $end
$upscope $end
$upscope $end
$scope begin STP[35] $end
$scope begin genblk3 $end
$upscope $end
$upscope $end
$scope begin STP[36] $end
$scope begin genblk3 $end
$upscope $end
$upscope $end
$scope begin STP[37] $end
$scope begin genblk3 $end
$upscope $end
$upscope $end
$scope begin STP[38] $end
$scope begin genblk3 $end
$upscope $end
$upscope $end
$scope begin STP[39] $end
$scope begin genblk3 $end
$upscope $end
$upscope $end
$scope begin STP[40] $end
$scope begin genblk3 $end
$upscope $end
$upscope $end
$scope begin STP[41] $end
$scope begin genblk3 $end
$upscope $end
$upscope $end
$scope begin STP[42] $end
$scope begin genblk3 $end
$upscope $end
$upscope $end
$scope begin STP[43] $end
$scope begin genblk3 $end
$upscope $end
$upscope $end
$scope begin STP[44] $end
$scope begin genblk3 $end
$upscope $end
$upscope $end
$scope begin STP[45] $end
$scope begin genblk3 $end
$upscope $end
$upscope $end
$scope begin STP[46] $end
$scope begin genblk3 $end
$upscope $end
$upscope $end
$scope begin STP[47] $end
$scope begin genblk3 $end
$upscope $end
$upscope $end
$scope begin STP[48] $end
$scope begin genblk3 $end
$upscope $end
$upscope $end
$scope begin STP[49] $end
$scope begin genblk3 $end
$upscope $end
$upscope $end
$upscope $end
$scope module counter1 $end
$var wire 1 / Clock $end
$var wire 1 | Enable $end
$var wire 8 } Initial [7:0] $end
$var wire 1 ~ Reset $end
$var reg 8 !" Q [7:0] $end
$upscope $end
$upscope $end
$scope module dat_PAD $end
$var wire 1 / clock $end
$var wire 1 Z data_in $end
$var wire 1 V data_out $end
$var wire 1 T enable $end
$var wire 1 ' io_port $end
$var wire 1 U output_input $end
$var reg 1 "" control $end
$var reg 1 #" dataFROMCARD $end
$var reg 1 $" dataToCARD $end
$upscope $end
$scope module dat1 $end
$var wire 1 ( DATA_TIMEOUT $end
$var wire 16 %" TIMEOUT_REG [15:0] $end
$var wire 1 ! ack_in $end
$var wire 4 &" blocks [3:0] $end
$var wire 32 '" dataFromFifo [31:0] $end
$var wire 32 (" dataRead [31:0] $end
$var wire 1 + idle_in $end
$var wire 1 - multiple $end
$var wire 1 X reception_complete $end
$var wire 1 . reset $end
$var wire 1 / sd_clock $end
$var wire 1 1 strobe_in $end
$var wire 1 [ transmission_complete $end
$var wire 1 3 writeRead $end
$var reg 1 )" ack_out $end
$var reg 4 *" blockCount [3:0] $end
$var reg 1 +" complete $end
$var reg 32 ," dataPARALLEL [31:0] $end
$var reg 32 -" dataReadTOFIFO [31:0] $end
$var reg 1 ." dummy_count $end
$var reg 1 /" enable_pts_wrapper $end
$var reg 1 0" enable_stp_wrapper $end
$var reg 1 1" fifoRead $end
$var reg 1 2" load_send $end
$var reg 1 3" loaded $end
$var reg 4 4" next_state [3:0] $end
$var reg 1 5" pad_enable $end
$var reg 1 6" pad_state $end
$var reg 1 7" read_fifo_enable $end
$var reg 1 8" reset_wrapper $end
$var reg 1 9" serial_ready $end
$var reg 4 :" state [3:0] $end
$var reg 16 ;" timeout_count [15:0] $end
$var reg 1 <" timeout_reset $end
$var reg 1 =" waiting_response $end
$var reg 1 >" write_fifo_enable $end
$upscope $end
$upscope $end
$scope module gencmd $end
$var wire 1 ?" ack_in $end
$var wire 1 $ clock $end
$var wire 1 @" newCMD $end
$var wire 1 . reset $end
$var wire 1 A" serial_ready $end
$var wire 1 B" strobe_in $end
$scope module clk1 $end
$var reg 1 C" clock $end
$upscope $end
$scope module r1 $end
$var reg 1 D" reset $end
$upscope $end
$scope module nDG $end
$var reg 1 E" newCMD $end
$upscope $end
$scope module sRg $end
$var reg 1 F" serialReady $end
$upscope $end
$scope module cg $end
$var reg 1 G" strobe_in $end
$upscope $end
$scope module aig $end
$var reg 1 H" ack_in $end
$upscope $end
$upscope $end
$scope module gsd $end
$var wire 1 / clock $end
$scope module clk1 $end
$var reg 1 I" clock $end
$var reg 1 J" first $end
$upscope $end
$upscope $end
$scope module sd $end
$var wire 1 / Clock $end
$var wire 1 K" Enable $end
$var wire 1 L" Reset $end
$var wire 1 % complete $end
$var wire 8 M" countValue [7:0] $end
$var wire 8 N" framesize [7:0] $end
$var wire 1 O" go $end
$var wire 8 P" initialValue [7:0] $end
$var wire 8 Q" kk [7:0] $end
$var wire 1 R" load_send $end
$var wire 51 S" parallel [50:0] $end
$var wire 1 ' serial $end
$var wire 1 T" serialTemp $end
$scope module pts $end
$var wire 1 / Clock $end
$var wire 1 U" Enable $end
$var wire 1 V" Reset $end
$var wire 51 W" ffdinputBus [50:0] $end
$var wire 51 X" ffdqBus [50:0] $end
$var wire 1 R" load_send $end
$var wire 51 Y" parallel [50:0] $end
$var wire 1 T" serial $end
$scope module ffd $end
$var wire 1 / Clock $end
$var wire 51 Z" D [50:0] $end
$var wire 1 U" Enable $end
$var wire 1 V" Reset $end
$var reg 51 [" Q [50:0] $end
$upscope $end
$scope begin PTS[0] $end
$scope begin genblk2 $end
$upscope $end
$upscope $end
$scope begin PTS[1] $end
$scope begin genblk3 $end
$upscope $end
$upscope $end
$scope begin PTS[2] $end
$scope begin genblk3 $end
$upscope $end
$upscope $end
$scope begin PTS[3] $end
$scope begin genblk3 $end
$upscope $end
$upscope $end
$scope begin PTS[4] $end
$scope begin genblk3 $end
$upscope $end
$upscope $end
$scope begin PTS[5] $end
$scope begin genblk3 $end
$upscope $end
$upscope $end
$scope begin PTS[6] $end
$scope begin genblk3 $end
$upscope $end
$upscope $end
$scope begin PTS[7] $end
$scope begin genblk3 $end
$upscope $end
$upscope $end
$scope begin PTS[8] $end
$scope begin genblk3 $end
$upscope $end
$upscope $end
$scope begin PTS[9] $end
$scope begin genblk3 $end
$upscope $end
$upscope $end
$scope begin PTS[10] $end
$scope begin genblk3 $end
$upscope $end
$upscope $end
$scope begin PTS[11] $end
$scope begin genblk3 $end
$upscope $end
$upscope $end
$scope begin PTS[12] $end
$scope begin genblk3 $end
$upscope $end
$upscope $end
$scope begin PTS[13] $end
$scope begin genblk3 $end
$upscope $end
$upscope $end
$scope begin PTS[14] $end
$scope begin genblk3 $end
$upscope $end
$upscope $end
$scope begin PTS[15] $end
$scope begin genblk3 $end
$upscope $end
$upscope $end
$scope begin PTS[16] $end
$scope begin genblk3 $end
$upscope $end
$upscope $end
$scope begin PTS[17] $end
$scope begin genblk3 $end
$upscope $end
$upscope $end
$scope begin PTS[18] $end
$scope begin genblk3 $end
$upscope $end
$upscope $end
$scope begin PTS[19] $end
$scope begin genblk3 $end
$upscope $end
$upscope $end
$scope begin PTS[20] $end
$scope begin genblk3 $end
$upscope $end
$upscope $end
$scope begin PTS[21] $end
$scope begin genblk3 $end
$upscope $end
$upscope $end
$scope begin PTS[22] $end
$scope begin genblk3 $end
$upscope $end
$upscope $end
$scope begin PTS[23] $end
$scope begin genblk3 $end
$upscope $end
$upscope $end
$scope begin PTS[24] $end
$scope begin genblk3 $end
$upscope $end
$upscope $end
$scope begin PTS[25] $end
$scope begin genblk3 $end
$upscope $end
$upscope $end
$scope begin PTS[26] $end
$scope begin genblk3 $end
$upscope $end
$upscope $end
$scope begin PTS[27] $end
$scope begin genblk3 $end
$upscope $end
$upscope $end
$scope begin PTS[28] $end
$scope begin genblk3 $end
$upscope $end
$upscope $end
$scope begin PTS[29] $end
$scope begin genblk3 $end
$upscope $end
$upscope $end
$scope begin PTS[30] $end
$scope begin genblk3 $end
$upscope $end
$upscope $end
$scope begin PTS[31] $end
$scope begin genblk3 $end
$upscope $end
$upscope $end
$scope begin PTS[32] $end
$scope begin genblk3 $end
$upscope $end
$upscope $end
$scope begin PTS[33] $end
$scope begin genblk3 $end
$upscope $end
$upscope $end
$scope begin PTS[34] $end
$scope begin genblk3 $end
$upscope $end
$upscope $end
$scope begin PTS[35] $end
$scope begin genblk3 $end
$upscope $end
$upscope $end
$scope begin PTS[36] $end
$scope begin genblk3 $end
$upscope $end
$upscope $end
$scope begin PTS[37] $end
$scope begin genblk3 $end
$upscope $end
$upscope $end
$scope begin PTS[38] $end
$scope begin genblk3 $end
$upscope $end
$upscope $end
$scope begin PTS[39] $end
$scope begin genblk3 $end
$upscope $end
$upscope $end
$scope begin PTS[40] $end
$scope begin genblk3 $end
$upscope $end
$upscope $end
$scope begin PTS[41] $end
$scope begin genblk3 $end
$upscope $end
$upscope $end
$scope begin PTS[42] $end
$scope begin genblk3 $end
$upscope $end
$upscope $end
$scope begin PTS[43] $end
$scope begin genblk3 $end
$upscope $end
$upscope $end
$scope begin PTS[44] $end
$scope begin genblk3 $end
$upscope $end
$upscope $end
$scope begin PTS[45] $end
$scope begin genblk3 $end
$upscope $end
$upscope $end
$scope begin PTS[46] $end
$scope begin genblk3 $end
$upscope $end
$upscope $end
$scope begin PTS[47] $end
$scope begin genblk3 $end
$upscope $end
$upscope $end
$scope begin PTS[48] $end
$scope begin genblk3 $end
$upscope $end
$upscope $end
$scope begin PTS[49] $end
$scope begin genblk3 $end
$upscope $end
$upscope $end
$scope begin PTS[50] $end
$scope begin genblk3 $end
$upscope $end
$upscope $end
$upscope $end
$scope module counter1 $end
$var wire 1 / Clock $end
$var wire 1 \" Enable $end
$var wire 8 ]" Initial [7:0] $end
$var wire 1 ^" Reset $end
$var reg 8 _" Q [7:0] $end
$upscope $end
$upscope $end
$upscope $end
$enddefinitions $end
#0
$dumpvars
bx _"
x^"
b0 ]"
0\"
bx ["
b1111101010111100110111100100000011111111111111111 Z"
b1111101010111100110111100100000011111111111111111 Y"
bx X"
b1111101010111100110111100100000011111111111111111 W"
xV"
xU"
xT"
b1111101010111100110111100100000011111111111111111 S"
0R"
b110010 Q"
b0 P"
xO"
b110011 N"
bx M"
0L"
1K"
1J"
0I"
0H"
0G"
0F"
0E"
0D"
0C"
0B"
0A"
0@"
0?"
x>"
x="
x<"
bx ;"
bx :"
x9"
x8"
x7"
x6"
x5"
b0 4"
x3"
x2"
x1"
x0"
x/"
x."
bx -"
bx ,"
x+"
bx *"
x)"
bx ("
b10101011010001011111111011011100 '"
bx &"
bx %"
x$"
x#"
0""
bx !"
x~
b0 }
x|
bx {
bx z
bx y
bx x
xw
1v
xu
bx t
b0 s
xr
b0xxx0x0 q
bx p
bx o
xn
b0 m
xl
bx k
bx j
b0xxxxxxxxxxxxxxxxxxxxxxxxxxxxxxxx00000000000000001 i
bx h
bx g
xf
xe
xd
b0xxxxxxxxxxxxxxxxxxxxxxxxxxxxxxxx00000000000000001 c
b110001 b
b0 a
x`
b110010 _
bx ^
x]
x\
x[
xZ
xY
xX
xW
xV
xU
xT
xS
b0xxx0x0 R
b0xxxxxxxxxxxxxxxxxxxxxxxxxxxxxxxx00000000000000001 Q
bx P
xO
xN
bx M
bx L
b10101011010001011111111011011100 K
bx J
bx I
xH
xG
xF
bx E
b0 D
xC
xB
bx A
x@
bx ?
0>
1=
x<
1;
0:
19
b10 8
b1001110 7
06
15
14
x3
bx 2
x1
x0
0/
0.
x-
x,
x+
b1111101010111100110111100100000011111111111111111 *
b11111010101111001101111001000000 )
x(
x'
x&
x%
0$
bx #
x"
x!
$end
#5000
b0 ?
b0 2
b0 I
b0 %"
0B
0+
b0 A
b0 #
b0 J
b0 &"
0C
0-
0H
03
0G
0,
0@
0!
0F
01
b1 D
b0 E
1C"
1$
#10000
0C"
0$
#15000
1B
1+
b10 D
b1 E
1C"
1$
#20000
0C"
0$
#25000
b1001110 ?
b1001110 2
b1001110 I
b1001110 %"
0B
0+
b10 A
b10 #
b10 J
b10 &"
b10 E
1C"
1$
#30000
0C"
0$
#35000
1C"
1$
#40000
0C"
0$
#45000
1C"
1$
#50000
0C"
0$
#52000
zZ
0<
b110010 R
b110010 q
b1010101101000101111111101101110000000000000000001 g
b1010101101000101111111101101110000000000000000001 j
0|
0(
0w
0e
0l
1~
1n
1f
z'
0v
bx0 y
bx0 z
0u
1<"
01"
b10101011010001011111111011011100 ,"
b1010101101000101111111101101110000000000000000001 Q
b1010101101000101111111101101110000000000000000001 c
b1010101101000101111111101101110000000000000000001 i
b10101011010001011111111011011100 L
b0 *"
03"
b0 -"
b0 M
07"
0W
0>"
0]
05"
0T
06"
0U
0="
0\
00"
0O
0/"
0N
02"
0S
18"
1Y
0)"
0"
0+"
0&
09"
00
b1 4"
z$"
z#"
zV
0."
b0 ;"
b0 :"
1I"
1/
#55000
1C"
1$
#60000
0C"
0$
#65000
1C"
1$
#70000
0C"
0$
#72000
0I"
0/
#75000
1C"
1$
#80000
0C"
0$
#85000
1C"
1$
#90000
0C"
0$
#92000
b1 g
b1 j
b11 D
b0 ,"
b1 Q
b1 c
b1 i
b0 L
19"
10
b1 :"
0X
1r
b0 y
b0 z
b0 ("
0[
1`
0d
b0 !"
b0 p
b0 {
b0 P
b0 t
b0 x
b0 o
b0 ^
b0 k
b0 h
1I"
1/
#95000
b100 D
b11 E
1C"
1$
#100000
0C"
0$
1D"
1.
#105000
b110 4"
1F
11
b100 E
1C"
1$
#110000
0C"
0$
#112000
0I"
0/
#115000
b100 E
1C"
1$
#120000
0C"
0$
#125000
b100 E
1C"
1$
#130000
0C"
0$
#132000
b1010101101000101111111101101110000000000000000001 g
b1010101101000101111111101101110000000000000000001 j
b10101011010001011111111011011100 ,"
b1010101101000101111111101101110000000000000000001 Q
b1010101101000101111111101101110000000000000000001 c
b1010101101000101111111101101110000000000000000001 i
b10101011010001011111111011011100 L
09"
00
b1 4"
b0 :"
1I"
1/
#135000
b100 E
1C"
1$
#140000
0C"
0$
#145000
b100 E
1C"
1$
#150000
0C"
0$
#152000
0I"
0/
#155000
b100 E
1C"
1$
#160000
0C"
0$
#165000
b100 E
1C"
1$
#170000
0C"
0$
#172000
1I"
1/
#175000
b100 E
1C"
1$
#180000
0C"
0$
#185000
b100 E
1C"
1$
#190000
0C"
0$
#192000
0I"
0/
#195000
b100 E
1C"
1$
#200000
0C"
0$
#205000
b100 E
1C"
1$
#210000
0C"
0$
#212000
1I"
1/
#215000
b100 E
1C"
1$
#220000
0C"
0$
#225000
b100 E
1C"
1$
#230000
0C"
0$
#232000
0I"
0/
#235000
b100 E
1C"
1$
#240000
0C"
0$
#245000
b100 E
1C"
1$
#250000
0C"
0$
#252000
1I"
1/
#255000
b100 E
1C"
1$
#260000
0C"
0$
#265000
b100 E
1C"
1$
#270000
0C"
0$
#272000
0I"
0/
#275000
b100 E
1C"
1$
#280000
0C"
0$
#285000
b100 E
1C"
1$
#290000
0C"
0$
#292000
1I"
1/
#295000
b100 E
1C"
1$
#300000
0C"
0$
#305000
b100 E
1C"
1$
#310000
0C"
0$
#312000
0I"
0/
#315000
b100 E
1C"
1$
#320000
0C"
0$
#325000
b100 E
1C"
1$
#330000
0C"
0$
#332000
1I"
1/
#335000
b100 E
1C"
1$
#340000
0C"
0$
#345000
b100 E
1C"
1$
#350000
0C"
0$
0D"
0.
#352000
0I"
0/
#355000
1C"
1$
#360000
0C"
0$
#365000
1C"
1$
#370000
0C"
0$
#372000
b1 g
b1 j
b0 ,"
b1 Q
b1 c
b1 i
b0 L
19"
10
b110 4"
b1 :"
1I"
1/
#375000
1C"
1$
#380000
0C"
0$
#385000
1C"
1$
#390000
0C"
0$
#392000
0I"
0/
#395000
1C"
1$
#400000
0C"
0$
#405000
1C"
1$
#410000
0C"
0$
#412000
1w
0~
0n
0f
0<"
15"
1T
10"
1O
08"
0Y
b110 :"
1I"
1/
#415000
1C"
1$
#420000
0C"
0$
#425000
1C"
1$
#430000
0C"
0$
#432000
0I"
0/
#435000
1C"
1$
#440000
0C"
0$
#445000
1C"
1$
#450000
0C"
0$
#452000
1""
b1 ;"
1I"
1/
#455000
1C"
1$
#460000
0C"
0$
#465000
1C"
1$
#470000
0C"
0$
#472000
0I"
0/
#475000
1C"
1$
#480000
0C"
0$
#485000
1C"
1$
#490000
0C"
0$
#492000
b10 ;"
1I"
1/
#495000
1C"
1$
#500000
0C"
0$
05
0;
#505000
1C"
1$
#510000
0C"
0$
#512000
0I"
0/
#515000
1C"
1$
#520000
0C"
0$
#525000
1C"
1$
#530000
0C"
0$
#532000
b11 ;"
1I"
1/
#535000
1C"
1$
#540000
0C"
0$
#545000
1C"
1$
#550000
0C"
0$
#552000
0I"
0/
#555000
1C"
1$
#560000
0C"
0$
#565000
1C"
1$
#570000
0C"
0$
#572000
b100 ;"
1I"
1/
#575000
1C"
1$
#580000
0C"
0$
#585000
1C"
1$
#590000
0C"
0$
#592000
0I"
0/
#595000
1C"
1$
#600000
0C"
0$
#605000
1C"
1$
#610000
0C"
0$
#612000
b101 ;"
1I"
1/
#615000
1C"
1$
#620000
0C"
0$
#625000
1C"
1$
#630000
0C"
0$
#632000
0I"
0/
#635000
1C"
1$
#640000
0C"
0$
#645000
1C"
1$
#650000
0C"
0$
#652000
b110 ;"
1I"
1/
#655000
1C"
1$
#660000
0C"
0$
#665000
1C"
1$
#670000
0C"
0$
#672000
0I"
0/
#675000
1C"
1$
#680000
0C"
0$
#685000
1C"
1$
#690000
0C"
0$
#692000
b111 ;"
1I"
1/
#695000
1C"
1$
#700000
0C"
0$
#705000
1C"
1$
#710000
0C"
0$
#712000
0I"
0/
#715000
1C"
1$
#720000
0C"
0$
#725000
1C"
1$
#730000
0C"
0$
#732000
b1000 ;"
1I"
1/
#735000
1C"
1$
#740000
0C"
0$
#745000
1C"
1$
#750000
0C"
0$
#752000
0I"
0/
#755000
1C"
1$
#760000
0C"
0$
#765000
1C"
1$
#770000
0C"
0$
#772000
b1001 ;"
1I"
1/
#775000
1C"
1$
#780000
0C"
0$
#785000
1C"
1$
#790000
0C"
0$
#792000
0I"
0/
#795000
1C"
1$
#800000
0C"
0$
#805000
1C"
1$
#810000
0C"
0$
#812000
b1010 ;"
1I"
1/
#815000
1C"
1$
#820000
0C"
0$
#825000
1C"
1$
#830000
0C"
0$
#832000
0I"
0/
#835000
1C"
1$
#840000
0C"
0$
#845000
1C"
1$
#850000
0C"
0$
#852000
b1011 ;"
1I"
1/
#855000
1C"
1$
#860000
0C"
0$
#865000
1C"
1$
#870000
0C"
0$
#872000
0I"
0/
#875000
1C"
1$
#880000
0C"
0$
#885000
1C"
1$
