testbench/dat_all_send_multiple.vcd
$date
	Sun Jun 26 18:00:24 2016
$end
$version
	Icarus Verilog
$end
$timescale
	1ps
$end
$scope module TestBench $end
$var wire 1 ! ack_host_phys $end
$var wire 1 " ack_phys_host $end
$var wire 4 # blocks_host_phys [3:0] $end
$var wire 1 $ clock $end
$var wire 1 % complete_card $end
$var wire 1 & complete_phys_host $end
$var wire 1 ' dat_pin $end
$var wire 8 ( data_response [7:0] $end
$var wire 1 ) kk $end
$var wire 1 * multiple_host_phys $end
$var wire 1 + reset $end
$var wire 1 , sd_clock $end
$var wire 1 - sr_phys_host $end
$var wire 1 . strobe_host_phys $end
$var wire 1 / wr_host_phys $end
$var reg 1 0 Enable_card $end
$var reg 1 1 load_send_card $end
$var reg 1 2 new_Dat $end
$var reg 1 3 reset_card $end
$scope module datc $end
$var wire 1 " ack_in $end
$var wire 4 4 blockCount [3:0] $end
$var wire 1 $ clock $end
$var wire 1 & complete $end
$var wire 1 5 fifo_okay $end
$var wire 1 6 multipleData $end
$var wire 1 7 newDat $end
$var wire 1 + reset $end
$var wire 1 - serial_ready $end
$var wire 1 8 writeRead $end
$var reg 1 9 ack_out $end
$var reg 4 : blocks [3:0] $end
$var reg 1 ; multiple $end
$var reg 3 < next_state [2:0] $end
$var reg 3 = state [2:0] $end
$var reg 1 > strobe_out $end
$var reg 1 ? transfer_complete $end
$var reg 1 @ writereadphys $end
$upscope $end
$scope module dat $end
$var wire 1 A DATA_TIMEOUT $end
$var wire 16 B TIMEOUT_REG [15:0] $end
$var wire 1 ! ack_in $end
$var wire 1 " ack_out $end
$var wire 4 C blocks [3:0] $end
$var wire 1 & complete $end
$var wire 1 ' dat_pin $end
$var wire 32 D dataFROMFIFO [31:0] $end
$var wire 32 E dataPARALLEL [31:0] $end
$var wire 32 F dataToFIFO [31:0] $end
$var wire 1 G enable_pts_wrapper $end
$var wire 1 H enable_stp_wrapper $end
$var wire 50 I frame_received [49:0] $end
$var wire 50 J frame_to_send [49:0] $end
$var wire 8 K framesize_reception [7:0] $end
$var wire 1 L idle_in $end
$var wire 1 M load_send $end
$var wire 1 * multiple $end
$var wire 1 N pad_enable $end
$var wire 1 O pad_state $end
$var wire 1 P padserial $end
$var wire 1 Q read_enable $end
$var wire 1 R reception_complete $end
$var wire 1 + reset $end
$var wire 1 S reset_wrapper $end
$var wire 1 , sd_clock $end
$var wire 1 - serial_ready $end
$var wire 1 T serialpad $end
$var wire 1 U status $end
$var wire 1 . strobe_in $end
$var wire 1 V transmission_complete $end
$var wire 1 W waiting_response $end
$var wire 1 / writeRead $end
$var wire 1 X write_enable $end
$scope module ptsw_dat $end
$var wire 1 , Clock $end
$var wire 1 G Enable $end
$var wire 1 S Reset $end
$var wire 1 V complete $end
$var wire 8 Y countValue [7:0] $end
$var wire 8 Z framesize [7:0] $end
$var wire 1 [ go $end
$var wire 8 \ initialValue [7:0] $end
$var wire 8 ] kk [7:0] $end
$var wire 1 M load_send $end
$var wire 50 ^ parallel [49:0] $end
$var wire 1 T serial $end
$var wire 1 _ serialTemp $end
$scope module pts $end
$var wire 1 , Clock $end
$var wire 1 ` Enable $end
$var wire 1 a Reset $end
$var wire 50 b ffdinputBus [49:0] $end
$var wire 50 c ffdqBus [49:0] $end
$var wire 1 M load_send $end
$var wire 50 d parallel [49:0] $end
$var wire 1 _ serial $end
$scope module ffd $end
$var wire 1 , Clock $end
$var wire 50 e D [49:0] $end
$var wire 1 ` Enable $end
$var wire 1 a Reset $end
$var reg 50 f Q [49:0] $end
$upscope $end
$scope begin PTS[0] $end
$scope begin genblk2 $end
$upscope $end
$upscope $end
$scope begin PTS[1] $end
$scope begin genblk3 $end
$upscope $end
$upscope $end
$scope begin PTS[2] $end
$scope begin genblk3 $end
$upscope $end
$upscope $end
$scope begin PTS[3] $end
$scope begin genblk3 $end
$upscope $end
$upscope $end
$scope begin PTS[4] $end
$scope begin genblk3 $end
$upscope $end
$upscope $end
$scope begin PTS[5] $end
$scope begin genblk3 $end
$upscope $end
$upscope $end
$scope begin PTS[6] $end
$scope begin genblk3 $end
$upscope $end
$upscope $end
$scope begin PTS[7] $end
$scope begin genblk3 $end
$upscope $end
$upscope $end
$scope begin PTS[8] $end
$scope begin genblk3 $end
$upscope $end
$upscope $end
$scope begin PTS[9] $end
$scope begin genblk3 $end
$upscope $end
$upscope $end
$scope begin PTS[10] $end
$scope begin genblk3 $end
$upscope $end
$upscope $end
$scope begin PTS[11] $end
$scope begin genblk3 $end
$upscope $end
$upscope $end
$scope begin PTS[12] $end
$scope begin genblk3 $end
$upscope $end
$upscope $end
$scope begin PTS[13] $end
$scope begin genblk3 $end
$upscope $end
$upscope $end
$scope begin PTS[14] $end
$scope begin genblk3 $end
$upscope $end
$upscope $end
$scope begin PTS[15] $end
$scope begin genblk3 $end
$upscope $end
$upscope $end
$scope begin PTS[16] $end
$scope begin genblk3 $end
$upscope $end
$upscope $end
$scope begin PTS[17] $end
$scope begin genblk3 $end
$upscope $end
$upscope $end
$scope begin PTS[18] $end
$scope begin genblk3 $end
$upscope $end
$upscope $end
$scope begin PTS[19] $end
$scope begin genblk3 $end
$upscope $end
$upscope $end
$scope begin PTS[20] $end
$scope begin genblk3 $end
$upscope $end
$upscope $end
$scope begin PTS[21] $end
$scope begin genblk3 $end
$upscope $end
$upscope $end
$scope begin PTS[22] $end
$scope begin genblk3 $end
$upscope $end
$upscope $end
$scope begin PTS[23] $end
$scope begin genblk3 $end
$upscope $end
$upscope $end
$scope begin PTS[24] $end
$scope begin genblk3 $end
$upscope $end
$upscope $end
$scope begin PTS[25] $end
$scope begin genblk3 $end
$upscope $end
$upscope $end
$scope begin PTS[26] $end
$scope begin genblk3 $end
$upscope $end
$upscope $end
$scope begin PTS[27] $end
$scope begin genblk3 $end
$upscope $end
$upscope $end
$scope begin PTS[28] $end
$scope begin genblk3 $end
$upscope $end
$upscope $end
$scope begin PTS[29] $end
$scope begin genblk3 $end
$upscope $end
$upscope $end
$scope begin PTS[30] $end
$scope begin genblk3 $end
$upscope $end
$upscope $end
$scope begin PTS[31] $end
$scope begin genblk3 $end
$upscope $end
$upscope $end
$scope begin PTS[32] $end
$scope begin genblk3 $end
$upscope $end
$upscope $end
$scope begin PTS[33] $end
$scope begin genblk3 $end
$upscope $end
$upscope $end
$scope begin PTS[34] $end
$scope begin genblk3 $end
$upscope $end
$upscope $end
$scope begin PTS[35] $end
$scope begin genblk3 $end
$upscope $end
$upscope $end
$scope begin PTS[36] $end
$scope begin genblk3 $end
$upscope $end
$upscope $end
$scope begin PTS[37] $end
$scope begin genblk3 $end
$upscope $end
$upscope $end
$scope begin PTS[38] $end
$scope begin genblk3 $end
$upscope $end
$upscope $end
$scope begin PTS[39] $end
$scope begin genblk3 $end
$upscope $end
$upscope $end
$scope begin PTS[40] $end
$scope begin genblk3 $end
$upscope $end
$upscope $end
$scope begin PTS[41] $end
$scope begin genblk3 $end
$upscope $end
$upscope $end
$scope begin PTS[42] $end
$scope begin genblk3 $end
$upscope $end
$upscope $end
$scope begin PTS[43] $end
$scope begin genblk3 $end
$upscope $end
$upscope $end
$scope begin PTS[44] $end
$scope begin genblk3 $end
$upscope $end
$upscope $end
$scope begin PTS[45] $end
$scope begin genblk3 $end
$upscope $end
$upscope $end
$scope begin PTS[46] $end
$scope begin genblk3 $end
$upscope $end
$upscope $end
$scope begin PTS[47] $end
$scope begin genblk3 $end
$upscope $end
$upscope $end
$scope begin PTS[48] $end
$scope begin genblk3 $end
$upscope $end
$upscope $end
$scope begin PTS[49] $end
$scope begin genblk3 $end
$upscope $end
$upscope $end
$upscope $end
$scope module counter1 $end
$var wire 1 , Clock $end
$var wire 1 g Enable $end
$var wire 8 h Initial [7:0] $end
$var wire 1 i Reset $end
$var reg 8 j Q [7:0] $end
$upscope $end
$upscope $end
$scope module stpw_dat $end
$var wire 1 , Clock $end
$var wire 1 H Enable $end
$var wire 1 S Reset $end
$var wire 1 R complete $end
$var wire 8 k countValue [7:0] $end
$var wire 8 l framesize [7:0] $end
$var wire 1 m go $end
$var wire 8 n initialValue [7:0] $end
$var wire 50 o parallel [49:0] $end
$var wire 1 P serial $end
$var wire 1 p serialTemp $end
$var wire 1 q validData $end
$scope module stp $end
$var wire 1 , Clock $end
$var wire 1 r Enable $end
$var wire 1 S Reset $end
$var wire 50 s parallel [49:0] $end
$var wire 1 p serial $end
$var wire 50 t serialBus [49:0] $end
$scope module ffd $end
$var wire 1 , Clock $end
$var wire 50 u D [49:0] $end
$var wire 1 r Enable $end
$var wire 1 S Reset $end
$var reg 50 v Q [49:0] $end
$upscope $end
$scope begin STP[0] $end
$scope begin genblk2 $end
$upscope $end
$upscope $end
$scope begin STP[1] $end
$scope begin genblk3 $end
$upscope $end
$upscope $end
$scope begin STP[2] $end
$scope begin genblk3 $end
$upscope $end
$upscope $end
$scope begin STP[3] $end
$scope begin genblk3 $end
$upscope $end
$upscope $end
$scope begin STP[4] $end
$scope begin genblk3 $end
$upscope $end
$upscope $end
$scope begin STP[5] $end
$scope begin genblk3 $end
$upscope $end
$upscope $end
$scope begin STP[6] $end
$scope begin genblk3 $end
$upscope $end
$upscope $end
$scope begin STP[7] $end
$scope begin genblk3 $end
$upscope $end
$upscope $end
$scope begin STP[8] $end
$scope begin genblk3 $end
$upscope $end
$upscope $end
$scope begin STP[9] $end
$scope begin genblk3 $end
$upscope $end
$upscope $end
$scope begin STP[10] $end
$scope begin genblk3 $end
$upscope $end
$upscope $end
$scope begin STP[11] $end
$scope begin genblk3 $end
$upscope $end
$upscope $end
$scope begin STP[12] $end
$scope begin genblk3 $end
$upscope $end
$upscope $end
$scope begin STP[13] $end
$scope begin genblk3 $end
$upscope $end
$upscope $end
$scope begin STP[14] $end
$scope begin genblk3 $end
$upscope $end
$upscope $end
$scope begin STP[15] $end
$scope begin genblk3 $end
$upscope $end
$upscope $end
$scope begin STP[16] $end
$scope begin genblk3 $end
$upscope $end
$upscope $end
$scope begin STP[17] $end
$scope begin genblk3 $end
$upscope $end
$upscope $end
$scope begin STP[18] $end
$scope begin genblk3 $end
$upscope $end
$upscope $end
$scope begin STP[19] $end
$scope begin genblk3 $end
$upscope $end
$upscope $end
$scope begin STP[20] $end
$scope begin genblk3 $end
$upscope $end
$upscope $end
$scope begin STP[21] $end
$scope begin genblk3 $end
$upscope $end
$upscope $end
$scope begin STP[22] $end
$scope begin genblk3 $end
$upscope $end
$upscope $end
$scope begin STP[23] $end
$scope begin genblk3 $end
$upscope $end
$upscope $end
$scope begin STP[24] $end
$scope begin genblk3 $end
$upscope $end
$upscope $end
$scope begin STP[25] $end
$scope begin genblk3 $end
$upscope $end
$upscope $end
$scope begin STP[26] $end
$scope begin genblk3 $end
$upscope $end
$upscope $end
$scope begin STP[27] $end
$scope begin genblk3 $end
$upscope $end
$upscope $end
$scope begin STP[28] $end
$scope begin genblk3 $end
$upscope $end
$upscope $end
$scope begin STP[29] $end
$scope begin genblk3 $end
$upscope $end
$upscope $end
$scope begin STP[30] $end
$scope begin genblk3 $end
$upscope $end
$upscope $end
$scope begin STP[31] $end
$scope begin genblk3 $end
$upscope $end
$upscope $end
$scope begin STP[32] $end
$scope begin genblk3 $end
$upscope $end
$upscope $end
$scope begin STP[33] $end
$scope begin genblk3 $end
$upscope $end
$upscope $end
$scope begin STP[34] $end
$scope begin genblk3 $end
$upscope $end
$upscope $end
$scope begin STP[35] $end
$scope begin genblk3 $end
$upscope $end
$upscope $end
$scope begin STP[36] $end
$scope begin genblk3 $end
$upscope $end
$upscope $end
$scope begin STP[37] $end
$scope begin genblk3 $end
$upscope $end
$upscope $end
$scope begin STP[38] $end
$scope begin genblk3 $end
$upscope $end
$upscope $end
$scope begin STP[39] $end
$scope begin genblk3 $end
$upscope $end
$upscope $end
$scope begin STP[40] $end
$scope begin genblk3 $end
$upscope $end
$upscope $end
$scope begin STP[41] $end
$scope begin genblk3 $end
$upscope $end
$upscope $end
$scope begin STP[42] $end
$scope begin genblk3 $end
$upscope $end
$upscope $end
$scope begin STP[43] $end
$scope begin genblk3 $end
$upscope $end
$upscope $end
$scope begin STP[44] $end
$scope begin genblk3 $end
$upscope $end
$upscope $end
$scope begin STP[45] $end
$scope begin genblk3 $end
$upscope $end
$upscope $end
$scope begin STP[46] $end
$scope begin genblk3 $end
$upscope $end
$upscope $end
$scope begin STP[47] $end
$scope begin genblk3 $end
$upscope $end
$upscope $end
$scope begin STP[48] $end
$scope begin genblk3 $end
$upscope $end
$upscope $end
$scope begin STP[49] $end
$scope begin genblk3 $end
$upscope $end
$upscope $end
$upscope $end
$scope module counter1 $end
$var wire 1 , Clock $end
$var wire 1 w Enable $end
$var wire 8 x Initial [7:0] $end
$var wire 1 y Reset $end
$var reg 8 z Q [7:0] $end
$upscope $end
$upscope $end
$scope module dat_PAD $end
$var wire 1 , clock $end
$var wire 1 T data_in $end
$var wire 1 P data_out $end
$var wire 1 N enable $end
$var wire 1 ' io_port $end
$var wire 1 O output_input $end
$var reg 1 { control $end
$var reg 1 | dataFROMCARD $end
$var reg 1 } dataToCARD $end
$upscope $end
$scope module dat1 $end
$var wire 1 A DATA_TIMEOUT $end
$var wire 16 ~ TIMEOUT_REG [15:0] $end
$var wire 1 ! ack_in $end
$var wire 4 !" blocks [3:0] $end
$var wire 32 "" dataFromFifo [31:0] $end
$var wire 32 #" dataRead [31:0] $end
$var wire 1 L idle_in $end
$var wire 1 * multiple $end
$var wire 1 R reception_complete $end
$var wire 1 + reset $end
$var wire 1 , sd_clock $end
$var wire 1 . strobe_in $end
$var wire 1 V transmission_complete $end
$var wire 1 / writeRead $end
$var reg 1 $" ack_out $end
$var reg 4 %" blockCount [3:0] $end
$var reg 1 &" complete $end
$var reg 32 '" dataPARALLEL [31:0] $end
$var reg 32 (" dataReadTOFIFO [31:0] $end
$var reg 1 )" dummy_count $end
$var reg 1 *" enable_pts_wrapper $end
$var reg 1 +" enable_stp_wrapper $end
$var reg 1 ," fifoRead $end
$var reg 1 -" load_send $end
$var reg 1 ." loaded $end
$var reg 4 /" next_state [3:0] $end
$var reg 1 0" pad_enable $end
$var reg 1 1" pad_state $end
$var reg 1 2" read_fifo_enable $end
$var reg 1 3" reset_wrapper $end
$var reg 1 4" serial_ready $end
$var reg 4 5" state [3:0] $end
$var reg 16 6" timeout_count [15:0] $end
$var reg 1 7" waiting_response $end
$var reg 1 8" write_fifo_enable $end
$upscope $end
$upscope $end
$scope module gencmd $end
$var wire 1 9" ack_in $end
$var wire 1 $ clock $end
$var wire 1 :" newCMD $end
$var wire 1 + reset $end
$var wire 1 ;" serial_ready $end
$var wire 1 <" strobe_in $end
$scope module clk1 $end
$var reg 1 =" clock $end
$upscope $end
$scope module r1 $end
$var reg 1 >" reset $end
$upscope $end
$scope module nDG $end
$var reg 1 ?" newCMD $end
$upscope $end
$scope module sRg $end
$var reg 1 @" serialReady $end
$upscope $end
$scope module cg $end
$var reg 1 A" strobe_in $end
$upscope $end
$scope module aig $end
$var reg 1 B" ack_in $end
$upscope $end
$upscope $end
$scope module gsd $end
$var wire 1 , clock $end
$scope module clk1 $end
$var reg 1 C" clock $end
$var reg 1 D" first $end
$upscope $end
$upscope $end
$scope module sd $end
$var wire 1 , Clock $end
$var wire 1 E" Enable $end
$var wire 1 F" Reset $end
$var wire 1 % complete $end
$var wire 8 G" countValue [7:0] $end
$var wire 8 H" framesize [7:0] $end
$var wire 1 I" go $end
$var wire 8 J" initialValue [7:0] $end
$var wire 8 K" kk [7:0] $end
$var wire 1 L" load_send $end
$var wire 9 M" parallel [8:0] $end
$var wire 1 ' serial $end
$var wire 1 N" serialTemp $end
$scope module pts $end
$var wire 1 , Clock $end
$var wire 1 O" Enable $end
$var wire 1 P" Reset $end
$var wire 9 Q" ffdinputBus [8:0] $end
$var wire 9 R" ffdqBus [8:0] $end
$var wire 1 L" load_send $end
$var wire 9 S" parallel [8:0] $end
$var wire 1 N" serial $end
$scope module ffd $end
$var wire 1 , Clock $end
$var wire 9 T" D [8:0] $end
$var wire 1 O" Enable $end
$var wire 1 P" Reset $end
$var reg 9 U" Q [8:0] $end
$upscope $end
$scope begin PTS[0] $end
$scope begin genblk2 $end
$upscope $end
$upscope $end
$scope begin PTS[1] $end
$scope begin genblk3 $end
$upscope $end
$upscope $end
$scope begin PTS[2] $end
$scope begin genblk3 $end
$upscope $end
$upscope $end
$scope begin PTS[3] $end
$scope begin genblk3 $end
$upscope $end
$upscope $end
$scope begin PTS[4] $end
$scope begin genblk3 $end
$upscope $end
$upscope $end
$scope begin PTS[5] $end
$scope begin genblk3 $end
$upscope $end
$upscope $end
$scope begin PTS[6] $end
$scope begin genblk3 $end
$upscope $end
$upscope $end
$scope begin PTS[7] $end
$scope begin genblk3 $end
$upscope $end
$upscope $end
$scope begin PTS[8] $end
$scope begin genblk3 $end
$upscope $end
$upscope $end
$upscope $end
$scope module counter1 $end
$var wire 1 , Clock $end
$var wire 1 V" Enable $end
$var wire 8 W" Initial [7:0] $end
$var wire 1 X" Reset $end
$var reg 8 Y" Q [7:0] $end
$upscope $end
$upscope $end
$upscope $end
$enddefinitions $end
#0
$dumpvars
bx Y"
xX"
b0 W"
0V"
bx U"
b111001011 T"
b111001011 S"
bx R"
b111001011 Q"
xP"
0O"
xN"
b111001011 M"
0L"
b1000 K"
b0 J"
xI"
b1001 H"
bx G"
0F"
0E"
1D"
0C"
0B"
0A"
0@"
0?"
0>"
0="
0<"
0;"
0:"
09"
x8"
x7"
bx 6"
bx 5"
x4"
x3"
x2"
x1"
x0"
b0 /"
x."
x-"
x,"
x+"
x*"
x)"
bx ("
bx '"
x&"
bx %"
x$"
bx #"
b10101011010001011111111011011100 ""
bx !"
b1100100 ~
x}
x|
0{
bx z
xy
b0 x
xw
bx v
bx u
bx t
bx s
xr
1q
xp
bx o
b0 n
xm
b0xxx0x0 l
bx k
bx j
xi
b0 h
xg
bx f
bx e
b0xxxxxxxxxxxxxxxxxxxxxxxxxxxxxxxx00000000000000001 d
bx c
bx b
xa
x`
x_
b0xxxxxxxxxxxxxxxxxxxxxxxxxxxxxxxx00000000000000001 ^
b110001 ]
b0 \
x[
b110010 Z
bx Y
xX
xW
xV
zU
xT
xS
xR
xQ
xP
xO
xN
xM
0L
b0xxx0x0 K
b0xxxxxxxxxxxxxxxxxxxxxxxxxxxxxxxx00000000000000001 J
bx I
xH
xG
bx F
bx E
b10101011010001011111111011011100 D
bx C
b1100100 B
xA
x@
x?
x>
bx =
b0 <
x;
bx :
x9
18
07
16
15
b10 4
03
02
01
00
x/
x.
x-
0,
0+
x*
x)
b11100101 (
x'
x&
x%
0$
bx #
x"
x!
$end
#5000
b0 :
b0 #
b0 C
b0 !"
0;
0*
0@
0/
0?
0)
09
0!
0>
0.
b1 <
b0 =
1="
1$
#10000
0="
0$
#15000
b1 =
1="
1$
#20000
0="
0$
#25000
1="
1$
#30000
0="
0$
#35000
1="
1$
#40000
0="
0$
#45000
1="
1$
#50000
1P"
1X"
0="
0$
13
1F"
#52000
zT
b110010 K
b110010 l
b1010101101000101111111101101110000000000000000001 b
b1010101101000101111111101101110000000000000000001 e
0w
0r
0`
0g
1y
1i
1a
z'
0q
bx0 t
bx0 u
0p
0A
0,"
b10101011010001011111111011011100 '"
b1010101101000101111111101101110000000000000000001 J
b1010101101000101111111101101110000000000000000001 ^
b1010101101000101111111101101110000000000000000001 d
b10101011010001011111111011011100 E
b0 %"
0."
b0 ("
b0 F
02"
0Q
08"
0X
00"
0N
01"
0O
07"
0W
0+"
0H
0*"
0G
0-"
0M
13"
1S
0$"
0"
0&"
0&
04"
0-
b1 /"
z}
z|
zP
0)"
b0 6"
b0 5"
0N"
0%
1I"
b0 U"
b0 R"
b0 Y"
b0 G"
1C"
1,
#55000
1="
1$
#60000
0="
0$
#65000
1="
1$
#70000
0="
0$
#72000
0C"
0,
#75000
1="
1$
#80000
0="
0$
#85000
1="
1$
#90000
0="
0$
#92000
b1 b
b1 e
b0 '"
b1 J
b1 ^
b1 d
b0 E
14"
1-
b1 5"
0R
1m
b0 t
b0 u
b0 #"
0V
1[
0_
b0 z
b0 k
b0 v
b0 I
b0 o
b0 s
b0 j
b0 Y
b0 f
b0 c
1C"
1,
#95000
1="
1$
#100000
0="
0$
1>"
1+
#105000
b0 =
1="
1$
#110000
0="
0$
#112000
0C"
0,
#115000
1="
1$
#120000
0="
0$
#125000
1="
1$
#130000
0="
0$
#132000
b1010101101000101111111101101110000000000000000001 b
b1010101101000101111111101101110000000000000000001 e
b10101011010001011111111011011100 '"
b1010101101000101111111101101110000000000000000001 J
b1010101101000101111111101101110000000000000000001 ^
b1010101101000101111111101101110000000000000000001 d
b10101011010001011111111011011100 E
04"
0-
b0 5"
1C"
1,
