testbench/dat_phys_2.vcd
$date
	Fri Jun 17 10:30:04 2016
$end
$version
	Icarus Verilog
$end
$timescale
	1ps
$end
$scope module TestBench $end
$var wire 1 ! complete_card $end
$var wire 1 " dat_to_card $end
$var wire 1 # reset $end
$var wire 1 $ sd_clock $end
$var wire 1 % strobe_in $end
$var wire 50 & to_send [49:0] $end
$var wire 49 ' to_send_kk [48:0] $end
$var reg 1 ( Enable_card $end
$var reg 1 ) load_send_card $end
$var reg 1 * reset_card $end
$scope module dat $end
$var wire 1 + DATA_TIMEOUT $end
$var wire 16 , TIMEOUT_REG [15:0] $end
$var wire 1 - ack_in $end
$var wire 1 . ack_out $end
$var wire 4 / blocks [3:0] $end
$var wire 1 0 complete $end
$var wire 1 " dat_pin $end
$var wire 32 1 dataFROMFIFO [31:0] $end
$var wire 32 2 dataToFIFO [31:0] $end
$var wire 1 3 enable_pts_wrapper $end
$var wire 1 4 enable_stp_wrapper $end
$var wire 50 5 frame_received [49:0] $end
$var wire 50 6 frame_to_send [49:0] $end
$var wire 8 7 framesize_reception [7:0] $end
$var wire 1 8 idle_in $end
$var wire 1 9 load_send $end
$var wire 1 : multiple $end
$var wire 1 ; pad_enable $end
$var wire 1 < pad_state $end
$var wire 1 = padserial $end
$var wire 1 > read_enable $end
$var wire 1 ? reception_complete $end
$var wire 1 # reset $end
$var wire 1 @ reset_wrapper $end
$var wire 1 $ sd_clock $end
$var wire 1 A serial_ready $end
$var wire 1 B serialpad $end
$var wire 1 C status $end
$var wire 1 % strobe_in $end
$var wire 1 D transmission_complete $end
$var wire 1 E waiting_response $end
$var wire 1 F writeRead $end
$var wire 1 G write_enable $end
$scope module ptsw_dat $end
$var wire 1 $ Clock $end
$var wire 1 3 Enable $end
$var wire 1 @ Reset $end
$var wire 1 D complete $end
$var wire 8 H countValue [7:0] $end
$var wire 8 I framesize [7:0] $end
$var wire 1 J go $end
$var wire 8 K initialValue [7:0] $end
$var wire 8 L kk [7:0] $end
$var wire 1 9 load_send $end
$var wire 50 M parallel [49:0] $end
$var wire 1 B serial $end
$var wire 1 N serialTemp $end
$scope module pts $end
$var wire 1 $ Clock $end
$var wire 1 O Enable $end
$var wire 1 @ Reset $end
$var wire 50 P ffdinputBus [49:0] $end
$var wire 50 Q ffdqBus [49:0] $end
$var wire 1 9 load_send $end
$var wire 50 R parallel [49:0] $end
$var wire 1 N serial $end
$scope module ffd $end
$var wire 1 $ Clock $end
$var wire 50 S D [49:0] $end
$var wire 1 O Enable $end
$var wire 1 @ Reset $end
$var reg 50 T Q [49:0] $end
$upscope $end
$scope begin PTS[0] $end
$scope begin genblk2 $end
$upscope $end
$upscope $end
$scope begin PTS[1] $end
$scope begin genblk3 $end
$upscope $end
$upscope $end
$scope begin PTS[2] $end
$scope begin genblk3 $end
$upscope $end
$upscope $end
$scope begin PTS[3] $end
$scope begin genblk3 $end
$upscope $end
$upscope $end
$scope begin PTS[4] $end
$scope begin genblk3 $end
$upscope $end
$upscope $end
$scope begin PTS[5] $end
$scope begin genblk3 $end
$upscope $end
$upscope $end
$scope begin PTS[6] $end
$scope begin genblk3 $end
$upscope $end
$upscope $end
$scope begin PTS[7] $end
$scope begin genblk3 $end
$upscope $end
$upscope $end
$scope begin PTS[8] $end
$scope begin genblk3 $end
$upscope $end
$upscope $end
$scope begin PTS[9] $end
$scope begin genblk3 $end
$upscope $end
$upscope $end
$scope begin PTS[10] $end
$scope begin genblk3 $end
$upscope $end
$upscope $end
$scope begin PTS[11] $end
$scope begin genblk3 $end
$upscope $end
$upscope $end
$scope begin PTS[12] $end
$scope begin genblk3 $end
$upscope $end
$upscope $end
$scope begin PTS[13] $end
$scope begin genblk3 $end
$upscope $end
$upscope $end
$scope begin PTS[14] $end
$scope begin genblk3 $end
$upscope $end
$upscope $end
$scope begin PTS[15] $end
$scope begin genblk3 $end
$upscope $end
$upscope $end
$scope begin PTS[16] $end
$scope begin genblk3 $end
$upscope $end
$upscope $end
$scope begin PTS[17] $end
$scope begin genblk3 $end
$upscope $end
$upscope $end
$scope begin PTS[18] $end
$scope begin genblk3 $end
$upscope $end
$upscope $end
$scope begin PTS[19] $end
$scope begin genblk3 $end
$upscope $end
$upscope $end
$scope begin PTS[20] $end
$scope begin genblk3 $end
$upscope $end
$upscope $end
$scope begin PTS[21] $end
$scope begin genblk3 $end
$upscope $end
$upscope $end
$scope begin PTS[22] $end
$scope begin genblk3 $end
$upscope $end
$upscope $end
$scope begin PTS[23] $end
$scope begin genblk3 $end
$upscope $end
$upscope $end
$scope begin PTS[24] $end
$scope begin genblk3 $end
$upscope $end
$upscope $end
$scope begin PTS[25] $end
$scope begin genblk3 $end
$upscope $end
$upscope $end
$scope begin PTS[26] $end
$scope begin genblk3 $end
$upscope $end
$upscope $end
$scope begin PTS[27] $end
$scope begin genblk3 $end
$upscope $end
$upscope $end
$scope begin PTS[28] $end
$scope begin genblk3 $end
$upscope $end
$upscope $end
$scope begin PTS[29] $end
$scope begin genblk3 $end
$upscope $end
$upscope $end
$scope begin PTS[30] $end
$scope begin genblk3 $end
$upscope $end
$upscope $end
$scope begin PTS[31] $end
$scope begin genblk3 $end
$upscope $end
$upscope $end
$scope begin PTS[32] $end
$scope begin genblk3 $end
$upscope $end
$upscope $end
$scope begin PTS[33] $end
$scope begin genblk3 $end
$upscope $end
$upscope $end
$scope begin PTS[34] $end
$scope begin genblk3 $end
$upscope $end
$upscope $end
$scope begin PTS[35] $end
$scope begin genblk3 $end
$upscope $end
$upscope $end
$scope begin PTS[36] $end
$scope begin genblk3 $end
$upscope $end
$upscope $end
$scope begin PTS[37] $end
$scope begin genblk3 $end
$upscope $end
$upscope $end
$scope begin PTS[38] $end
$scope begin genblk3 $end
$upscope $end
$upscope $end
$scope begin PTS[39] $end
$scope begin genblk3 $end
$upscope $end
$upscope $end
$scope begin PTS[40] $end
$scope begin genblk3 $end
$upscope $end
$upscope $end
$scope begin PTS[41] $end
$scope begin genblk3 $end
$upscope $end
$upscope $end
$scope begin PTS[42] $end
$scope begin genblk3 $end
$upscope $end
$upscope $end
$scope begin PTS[43] $end
$scope begin genblk3 $end
$upscope $end
$upscope $end
$scope begin PTS[44] $end
$scope begin genblk3 $end
$upscope $end
$upscope $end
$scope begin PTS[45] $end
$scope begin genblk3 $end
$upscope $end
$upscope $end
$scope begin PTS[46] $end
$scope begin genblk3 $end
$upscope $end
$upscope $end
$scope begin PTS[47] $end
$scope begin genblk3 $end
$upscope $end
$upscope $end
$scope begin PTS[48] $end
$scope begin genblk3 $end
$upscope $end
$upscope $end
$scope begin PTS[49] $end
$scope begin genblk3 $end
$upscope $end
$upscope $end
$upscope $end
$scope module counter1 $end
$var wire 1 $ Clock $end
$var wire 1 U Enable $end
$var wire 8 V Initial [7:0] $end
$var wire 1 @ Reset $end
$var reg 8 W Q [7:0] $end
$upscope $end
$upscope $end
$scope module stpw_dat $end
$var wire 1 $ Clock $end
$var wire 1 4 Enable $end
$var wire 1 @ Reset $end
$var wire 1 ? complete $end
$var wire 8 X countValue [7:0] $end
$var wire 8 Y framesize [7:0] $end
$var wire 1 Z go $end
$var wire 8 [ initialValue [7:0] $end
$var wire 50 \ parallel [49:0] $end
$var wire 1 = serial $end
$var wire 1 ] serialTemp $end
$var wire 1 ^ validData $end
$scope module stp $end
$var wire 1 $ Clock $end
$var wire 1 _ Enable $end
$var wire 1 @ Reset $end
$var wire 50 ` parallel [49:0] $end
$var wire 1 ] serial $end
$var wire 50 a serialBus [49:0] $end
$scope module ffd $end
$var wire 1 $ Clock $end
$var wire 50 b D [49:0] $end
$var wire 1 _ Enable $end
$var wire 1 @ Reset $end
$var reg 50 c Q [49:0] $end
$upscope $end
$scope begin STP[0] $end
$scope begin genblk2 $end
$upscope $end
$upscope $end
$scope begin STP[1] $end
$scope begin genblk3 $end
$upscope $end
$upscope $end
$scope begin STP[2] $end
$scope begin genblk3 $end
$upscope $end
$upscope $end
$scope begin STP[3] $end
$scope begin genblk3 $end
$upscope $end
$upscope $end
$scope begin STP[4] $end
$scope begin genblk3 $end
$upscope $end
$upscope $end
$scope begin STP[5] $end
$scope begin genblk3 $end
$upscope $end
$upscope $end
$scope begin STP[6] $end
$scope begin genblk3 $end
$upscope $end
$upscope $end
$scope begin STP[7] $end
$scope begin genblk3 $end
$upscope $end
$upscope $end
$scope begin STP[8] $end
$scope begin genblk3 $end
$upscope $end
$upscope $end
$scope begin STP[9] $end
$scope begin genblk3 $end
$upscope $end
$upscope $end
$scope begin STP[10] $end
$scope begin genblk3 $end
$upscope $end
$upscope $end
$scope begin STP[11] $end
$scope begin genblk3 $end
$upscope $end
$upscope $end
$scope begin STP[12] $end
$scope begin genblk3 $end
$upscope $end
$upscope $end
$scope begin STP[13] $end
$scope begin genblk3 $end
$upscope $end
$upscope $end
$scope begin STP[14] $end
$scope begin genblk3 $end
$upscope $end
$upscope $end
$scope begin STP[15] $end
$scope begin genblk3 $end
$upscope $end
$upscope $end
$scope begin STP[16] $end
$scope begin genblk3 $end
$upscope $end
$upscope $end
$scope begin STP[17] $end
$scope begin genblk3 $end
$upscope $end
$upscope $end
$scope begin STP[18] $end
$scope begin genblk3 $end
$upscope $end
$upscope $end
$scope begin STP[19] $end
$scope begin genblk3 $end
$upscope $end
$upscope $end
$scope begin STP[20] $end
$scope begin genblk3 $end
$upscope $end
$upscope $end
$scope begin STP[21] $end
$scope begin genblk3 $end
$upscope $end
$upscope $end
$scope begin STP[22] $end
$scope begin genblk3 $end
$upscope $end
$upscope $end
$scope begin STP[23] $end
$scope begin genblk3 $end
$upscope $end
$upscope $end
$scope begin STP[24] $end
$scope begin genblk3 $end
$upscope $end
$upscope $end
$scope begin STP[25] $end
$scope begin genblk3 $end
$upscope $end
$upscope $end
$scope begin STP[26] $end
$scope begin genblk3 $end
$upscope $end
$upscope $end
$scope begin STP[27] $end
$scope begin genblk3 $end
$upscope $end
$upscope $end
$scope begin STP[28] $end
$scope begin genblk3 $end
$upscope $end
$upscope $end
$scope begin STP[29] $end
$scope begin genblk3 $end
$upscope $end
$upscope $end
$scope begin STP[30] $end
$scope begin genblk3 $end
$upscope $end
$upscope $end
$scope begin STP[31] $end
$scope begin genblk3 $end
$upscope $end
$upscope $end
$scope begin STP[32] $end
$scope begin genblk3 $end
$upscope $end
$upscope $end
$scope begin STP[33] $end
$scope begin genblk3 $end
$upscope $end
$upscope $end
$scope begin STP[34] $end
$scope begin genblk3 $end
$upscope $end
$upscope $end
$scope begin STP[35] $end
$scope begin genblk3 $end
$upscope $end
$upscope $end
$scope begin STP[36] $end
$scope begin genblk3 $end
$upscope $end
$upscope $end
$scope begin STP[37] $end
$scope begin genblk3 $end
$upscope $end
$upscope $end
$scope begin STP[38] $end
$scope begin genblk3 $end
$upscope $end
$upscope $end
$scope begin STP[39] $end
$scope begin genblk3 $end
$upscope $end
$upscope $end
$scope begin STP[40] $end
$scope begin genblk3 $end
$upscope $end
$upscope $end
$scope begin STP[41] $end
$scope begin genblk3 $end
$upscope $end
$upscope $end
$scope begin STP[42] $end
$scope begin genblk3 $end
$upscope $end
$upscope $end
$scope begin STP[43] $end
$scope begin genblk3 $end
$upscope $end
$upscope $end
$scope begin STP[44] $end
$scope begin genblk3 $end
$upscope $end
$upscope $end
$scope begin STP[45] $end
$scope begin genblk3 $end
$upscope $end
$upscope $end
$scope begin STP[46] $end
$scope begin genblk3 $end
$upscope $end
$upscope $end
$scope begin STP[47] $end
$scope begin genblk3 $end
$upscope $end
$upscope $end
$scope begin STP[48] $end
$scope begin genblk3 $end
$upscope $end
$upscope $end
$scope begin STP[49] $end
$scope begin genblk3 $end
$upscope $end
$upscope $end
$upscope $end
$scope module counter1 $end
$var wire 1 $ Clock $end
$var wire 1 d Enable $end
$var wire 8 e Initial [7:0] $end
$var wire 1 f Reset $end
$var reg 8 g Q [7:0] $end
$upscope $end
$upscope $end
$scope module dat_PAD $end
$var wire 1 $ clock $end
$var wire 1 B data_in $end
$var wire 1 = data_out $end
$var wire 1 ; enable $end
$var wire 1 " io_port $end
$var wire 1 < output_input $end
$var reg 1 h control $end
$var reg 1 i dataFROMCARD $end
$var reg 1 j dataToCARD $end
$upscope $end
$scope module dat1 $end
$var wire 1 + DATA_TIMEOUT $end
$var wire 16 k TIMEOUT_REG [15:0] $end
$var wire 1 - ack_in $end
$var wire 4 l blocks [3:0] $end
$var wire 32 m dataRead [31:0] $end
$var wire 1 8 idle_in $end
$var wire 1 : multiple $end
$var wire 1 ? reception_complete $end
$var wire 1 # reset $end
$var wire 1 $ sd_clock $end
$var wire 1 % strobe_in $end
$var wire 1 D transmission_complete $end
$var wire 1 F writeRead $end
$var reg 1 n ack_out $end
$var reg 4 o blockCount [3:0] $end
$var reg 1 p complete $end
$var reg 32 q dataReadTOFIFO [31:0] $end
$var reg 1 r dummy_count $end
$var reg 1 s enable_pts_wrapper $end
$var reg 1 t enable_stp_wrapper $end
$var reg 1 u load_send $end
$var reg 1 v loaded $end
$var reg 4 w next_state [3:0] $end
$var reg 1 x pad_enable $end
$var reg 1 y pad_state $end
$var reg 1 z read_fifo_enable $end
$var reg 1 { reset_wrapper $end
$var reg 1 | serial_ready $end
$var reg 4 } state [3:0] $end
$var reg 16 ~ timeout_count [15:0] $end
$var reg 1 !" waiting_response $end
$var reg 1 "" write_fifo_enable $end
$upscope $end
$upscope $end
$scope module gencmd $end
$var wire 1 #" ack_in $end
$var wire 1 $ clock $end
$var wire 1 $" newCMD $end
$var wire 1 # reset $end
$var wire 1 %" serial_ready $end
$var wire 1 % strobe_in $end
$scope module clk1 $end
$var reg 1 &" clock $end
$upscope $end
$scope module r1 $end
$var reg 1 '" reset $end
$upscope $end
$scope module nDG $end
$var reg 1 (" newCMD $end
$upscope $end
$scope module sRg $end
$var reg 1 )" serialReady $end
$upscope $end
$scope module cg $end
$var reg 1 *" strobe_in $end
$upscope $end
$scope module aig $end
$var reg 1 +" ack_in $end
$upscope $end
$upscope $end
$scope module sd $end
$var wire 1 $ Clock $end
$var wire 1 ," Enable $end
$var wire 1 -" Reset $end
$var wire 1 ! complete $end
$var wire 8 ." countValue [7:0] $end
$var wire 8 /" framesize [7:0] $end
$var wire 1 0" go $end
$var wire 8 1" initialValue [7:0] $end
$var wire 8 2" kk [7:0] $end
$var wire 1 3" load_send $end
$var wire 51 4" parallel [50:0] $end
$var wire 1 " serial $end
$var wire 1 5" serialTemp $end
$scope module pts $end
$var wire 1 $ Clock $end
$var wire 1 6" Enable $end
$var wire 1 -" Reset $end
$var wire 51 7" ffdinputBus [50:0] $end
$var wire 51 8" ffdqBus [50:0] $end
$var wire 1 3" load_send $end
$var wire 51 9" parallel [50:0] $end
$var wire 1 5" serial $end
$scope module ffd $end
$var wire 1 $ Clock $end
$var wire 51 :" D [50:0] $end
$var wire 1 6" Enable $end
$var wire 1 -" Reset $end
$var reg 51 ;" Q [50:0] $end
$upscope $end
$scope begin PTS[0] $end
$scope begin genblk2 $end
$upscope $end
$upscope $end
$scope begin PTS[1] $end
$scope begin genblk3 $end
$upscope $end
$upscope $end
$scope begin PTS[2] $end
$scope begin genblk3 $end
$upscope $end
$upscope $end
$scope begin PTS[3] $end
$scope begin genblk3 $end
$upscope $end
$upscope $end
$scope begin PTS[4] $end
$scope begin genblk3 $end
$upscope $end
$upscope $end
$scope begin PTS[5] $end
$scope begin genblk3 $end
$upscope $end
$upscope $end
$scope begin PTS[6] $end
$scope begin genblk3 $end
$upscope $end
$upscope $end
$scope begin PTS[7] $end
$scope begin genblk3 $end
$upscope $end
$upscope $end
$scope begin PTS[8] $end
$scope begin genblk3 $end
$upscope $end
$upscope $end
$scope begin PTS[9] $end
$scope begin genblk3 $end
$upscope $end
$upscope $end
$scope begin PTS[10] $end
$scope begin genblk3 $end
$upscope $end
$upscope $end
$scope begin PTS[11] $end
$scope begin genblk3 $end
$upscope $end
$upscope $end
$scope begin PTS[12] $end
$scope begin genblk3 $end
$upscope $end
$upscope $end
$scope begin PTS[13] $end
$scope begin genblk3 $end
$upscope $end
$upscope $end
$scope begin PTS[14] $end
$scope begin genblk3 $end
$upscope $end
$upscope $end
$scope begin PTS[15] $end
$scope begin genblk3 $end
$upscope $end
$upscope $end
$scope begin PTS[16] $end
$scope begin genblk3 $end
$upscope $end
$upscope $end
$scope begin PTS[17] $end
$scope begin genblk3 $end
$upscope $end
$upscope $end
$scope begin PTS[18] $end
$scope begin genblk3 $end
$upscope $end
$upscope $end
$scope begin PTS[19] $end
$scope begin genblk3 $end
$upscope $end
$upscope $end
$scope begin PTS[20] $end
$scope begin genblk3 $end
$upscope $end
$upscope $end
$scope begin PTS[21] $end
$scope begin genblk3 $end
$upscope $end
$upscope $end
$scope begin PTS[22] $end
$scope begin genblk3 $end
$upscope $end
$upscope $end
$scope begin PTS[23] $end
$scope begin genblk3 $end
$upscope $end
$upscope $end
$scope begin PTS[24] $end
$scope begin genblk3 $end
$upscope $end
$upscope $end
$scope begin PTS[25] $end
$scope begin genblk3 $end
$upscope $end
$upscope $end
$scope begin PTS[26] $end
$scope begin genblk3 $end
$upscope $end
$upscope $end
$scope begin PTS[27] $end
$scope begin genblk3 $end
$upscope $end
$upscope $end
$scope begin PTS[28] $end
$scope begin genblk3 $end
$upscope $end
$upscope $end
$scope begin PTS[29] $end
$scope begin genblk3 $end
$upscope $end
$upscope $end
$scope begin PTS[30] $end
$scope begin genblk3 $end
$upscope $end
$upscope $end
$scope begin PTS[31] $end
$scope begin genblk3 $end
$upscope $end
$upscope $end
$scope begin PTS[32] $end
$scope begin genblk3 $end
$upscope $end
$upscope $end
$scope begin PTS[33] $end
$scope begin genblk3 $end
$upscope $end
$upscope $end
$scope begin PTS[34] $end
$scope begin genblk3 $end
$upscope $end
$upscope $end
$scope begin PTS[35] $end
$scope begin genblk3 $end
$upscope $end
$upscope $end
$scope begin PTS[36] $end
$scope begin genblk3 $end
$upscope $end
$upscope $end
$scope begin PTS[37] $end
$scope begin genblk3 $end
$upscope $end
$upscope $end
$scope begin PTS[38] $end
$scope begin genblk3 $end
$upscope $end
$upscope $end
$scope begin PTS[39] $end
$scope begin genblk3 $end
$upscope $end
$upscope $end
$scope begin PTS[40] $end
$scope begin genblk3 $end
$upscope $end
$upscope $end
$scope begin PTS[41] $end
$scope begin genblk3 $end
$upscope $end
$upscope $end
$scope begin PTS[42] $end
$scope begin genblk3 $end
$upscope $end
$upscope $end
$scope begin PTS[43] $end
$scope begin genblk3 $end
$upscope $end
$upscope $end
$scope begin PTS[44] $end
$scope begin genblk3 $end
$upscope $end
$upscope $end
$scope begin PTS[45] $end
$scope begin genblk3 $end
$upscope $end
$upscope $end
$scope begin PTS[46] $end
$scope begin genblk3 $end
$upscope $end
$upscope $end
$scope begin PTS[47] $end
$scope begin genblk3 $end
$upscope $end
$upscope $end
$scope begin PTS[48] $end
$scope begin genblk3 $end
$upscope $end
$upscope $end
$scope begin PTS[49] $end
$scope begin genblk3 $end
$upscope $end
$upscope $end
$scope begin PTS[50] $end
$scope begin genblk3 $end
$upscope $end
$upscope $end
$upscope $end
$scope module counter1 $end
$var wire 1 $ Clock $end
$var wire 1 <" Enable $end
$var wire 8 =" Initial [7:0] $end
$var wire 1 -" Reset $end
$var reg 8 >" Q [7:0] $end
$upscope $end
$upscope $end
$upscope $end
$enddefinitions $end
#0
$dumpvars
bx >"
b0 ="
0<"
bx ;"
b100000000000000000000000000000000000011110111101001 :"
b100000000000000000000000000000000000011110111101001 9"
bx 8"
b100000000000000000000000000000000000011110111101001 7"
06"
x5"
b100000000000000000000000000000000000011110111101001 4"
03"
b110010 2"
b0 1"
x0"
b110011 /"
bx ."
0-"
0,"
0+"
0*"
0)"
0("
0'"
0&"
0%"
0$"
0#"
x""
x!"
bx ~
bx }
x|
x{
xz
xy
xx
b0 w
xv
xu
xt
xs
xr
bx q
xp
bx o
xn
bx m
b10 l
b1100100 k
xj
xi
0h
bx g
xf
b0 e
xd
bx c
bx b
bx a
bx `
x_
1^
x]
bx \
b0 [
xZ
b0xx001x Y
bx X
bx W
b0 V
xU
bx T
bx S
b1 R
bx Q
bx P
xO
xN
b1 M
b110001 L
b0 K
xJ
b110010 I
bx H
xG
0F
xE
xD
zC
xB
xA
x@
x?
x>
x=
x<
x;
1:
x9
08
b0xx001x 7
b1 6
bx 5
x4
x3
bx 2
b0 1
x0
b10 /
x.
0-
b1100100 ,
x+
0*
0)
0(
b1111011110100 '
b10000000000000000000000000000000000001111011110100 &
0%
0$
0#
x"
x!
$end
#20000
zB
b110010 7
b110010 Y
b1 P
b1 S
0d
0_
0O
0U
1f
z"
0^
bx0 a
bx0 b
0]
0+
b0 o
0v
b0 q
b0 2
0z
0>
0""
0G
0x
0;
0y
0<
0!"
0E
0t
04
0s
03
0u
09
1{
1@
0n
0.
0p
00
0|
0A
b1 w
zj
zi
z=
0r
b0 ~
b0 }
1&"
1$
#40000
0&"
0$
#50000
1*
1-"
#60000
1|
1A
b1 }
0!
10"
05"
0?
1Z
b0 a
b0 b
b0 m
0D
1J
0N
b0 >"
b0 ."
b0 ;"
b0 8"
b0 g
b0 X
b0 c
b0 5
b0 \
b0 `
b0 W
b0 H
b0 T
b0 Q
1&"
1$
#80000
0&"
0$
#100000
0|
0A
b0 }
1&"
1$
1'"
1#
#120000
0&"
0$
#140000
1&"
1$
#160000
0&"
0$
#180000
1&"
1$
#200000
0&"
0$
#220000
1&"
1$
#240000
0&"
0$
#260000
1&"
1$
#280000
0&"
0$
#300000
1&"
1$
#320000
0&"
0$
#340000
1&"
1$
#350000
0*
0-"
0'"
0#
#360000
0&"
0$
#380000
1|
1A
b1 }
1&"
1$
#400000
0&"
0$
#420000
1&"
1$
#440000
0&"
0$
#460000
1&"
1$
#480000
0&"
0$
#500000
1&"
1$
#520000
0&"
0$
#540000
1&"
1$
#560000
0&"
0$
#580000
1&"
1$
#600000
0&"
0$
#620000
1&"
1$
#640000
0&"
0$
#660000
1&"
1$
#680000
0&"
0$
#700000
1&"
1$
#720000
0&"
0$
#740000
1&"
1$
#760000
0&"
0$
#780000
1&"
1$
#800000
0&"
0$
#820000
1&"
1$
#840000
0&"
0$
#860000
1&"
1$
#880000
0&"
0$
#900000
1&"
1$
#920000
0&"
0$
#940000
1&"
1$
#960000
0&"
0$
#980000
1&"
1$
#1000000
0&"
0$
1("
1$"
#1020000
1&"
1$
#1040000
0&"
0$
#1060000
1&"
1$
#1080000
0&"
0$
#1100000
1&"
1$
#1120000
0&"
0$
#1140000
1&"
1$
#1160000
0&"
0$
#1180000
1&"
1$
#1200000
0&"
0$
#1220000
1&"
1$
#1240000
0&"
0$
#1260000
1&"
1$
#1280000
0&"
0$
#1300000
1&"
1$
1)"
1%"
#1320000
0&"
0$
#1340000
1&"
1$
#1360000
0&"
0$
#1380000
1&"
1$
#1400000
0&"
0$
#1420000
1&"
1$
#1440000
0&"
0$
#1460000
1&"
1$
#1480000
0&"
0$
#1500000
1&"
1$
#1520000
0&"
0$
#1540000
1&"
1$
#1560000
0&"
0$
#1580000
1&"
1$
#1600000
0&"
0$
#1620000
1&"
1$
#1640000
0&"
0$
#1660000
1&"
1$
#1680000
0&"
0$
#1700000
1&"
1$
#1720000
0&"
0$
#1740000
1&"
1$
#1760000
0&"
0$
#1780000
1&"
1$
#1800000
0&"
0$
#1820000
1&"
1$
#1840000
0&"
0$
#1860000
1&"
1$
#1880000
0&"
0$
#1900000
1&"
1$
#1920000
0&"
0$
#1940000
1&"
1$
#1960000
0&"
0$
#1980000
1&"
1$
#2000000
b101 w
0&"
0$
0("
0$"
1*"
1%
#2020000
1_
0f
1x
1;
1t
14
0{
0@
0|
0A
b101 }
1&"
1$
#2040000
0&"
0$
#2060000
b1 ~
1h
1&"
1$
#2080000
0&"
0$
#2100000
b10 ~
1&"
1$
#2120000
0&"
0$
#2140000
b11 ~
1&"
1$
#2160000
0&"
0$
#2180000
b100 ~
1&"
1$
#2200000
0&"
0$
#2220000
b101 ~
1&"
1$
#2240000
0&"
0$
#2260000
b110 ~
1&"
1$
#2280000
0&"
0$
#2300000
b111 ~
1&"
1$
#2320000
0&"
0$
#2340000
b1000 ~
1&"
1$
#2360000
0&"
0$
#2380000
b1001 ~
1&"
1$
#2400000
0&"
0$
#2420000
b1010 ~
1&"
1$
#2440000
0&"
0$
#2460000
b1011 ~
1&"
1$
#2480000
0&"
0$
#2500000
b1100 ~
1&"
1$
#2520000
0&"
0$
#2540000
b1101 ~
1&"
1$
#2560000
0&"
0$
#2580000
b1110 ~
1&"
1$
#2600000
0&"
0$
#2620000
b1111 ~
1&"
1$
#2640000
0&"
0$
#2660000
b10000 ~
1&"
1$
#2680000
0&"
0$
#2700000
b10001 ~
1&"
1$
#2720000
0&"
0$
#2740000
b10010 ~
1&"
1$
#2760000
0&"
0$
#2780000
b10011 ~
1&"
1$
#2800000
0&"
0$
#2820000
b10100 ~
1&"
1$
#2840000
0&"
0$
#2860000
b10101 ~
1&"
1$
#2880000
0&"
0$
#2900000
b10110 ~
1&"
1$
#2920000
0&"
0$
#2940000
b10111 ~
1&"
1$
#2960000
0&"
0$
#2980000
b11000 ~
1&"
1$
#3000000
0&"
0$
#3020000
b11001 ~
1&"
1$
#3040000
0&"
0$
#3060000
b11010 ~
1&"
1$
#3080000
0&"
0$
#3100000
b11011 ~
1&"
1$
#3120000
0&"
0$
#3140000
b11100 ~
1&"
1$
#3160000
0&"
0$
#3180000
b11101 ~
1&"
1$
#3200000
0&"
0$
#3220000
b11110 ~
1&"
1$
#3240000
0&"
0$
#3260000
b11111 ~
1&"
1$
#3280000
0&"
0$
#3300000
b100000 ~
1&"
1$
#3320000
0&"
0$
#3340000
b100001 ~
1&"
1$
#3360000
0&"
0$
#3380000
b100010 ~
1&"
1$
#3400000
0&"
0$
#3420000
b100011 ~
1&"
1$
#3440000
0&"
0$
#3460000
b100100 ~
1&"
1$
#3480000
0&"
0$
#3500000
b100101 ~
1&"
1$
#3520000
0&"
0$
#3540000
b100110 ~
1&"
1$
#3560000
0&"
0$
#3580000
b100111 ~
1&"
1$
#3600000
0&"
0$
#3620000
b101000 ~
1&"
1$
#3640000
0&"
0$
#3660000
b101001 ~
1&"
1$
#3680000
0&"
0$
#3700000
b101010 ~
1&"
1$
#3720000
0&"
0$
#3740000
b101011 ~
1&"
1$
#3760000
0&"
0$
#3780000
b101100 ~
1&"
1$
#3800000
0&"
0$
#3820000
b101101 ~
1&"
1$
#3840000
0&"
0$
#3860000
b101110 ~
1&"
1$
#3880000
0&"
0$
#3900000
b101111 ~
1&"
1$
#3920000
0&"
0$
#3940000
b110000 ~
1&"
1$
#3960000
0&"
0$
#3980000
b110001 ~
1&"
1$
#4000000
0&"
0$
0*"
0%
#4020000
b110010 ~
1&"
1$
#4040000
0&"
0$
#4060000
b110011 ~
1&"
1$
#4080000
0&"
0$
#4100000
b110100 ~
1&"
1$
#4120000
0&"
0$
#4140000
b110101 ~
1&"
1$
#4160000
0&"
0$
#4180000
b110110 ~
1&"
1$
#4200000
0&"
0$
#4220000
b110111 ~
1&"
1$
#4240000
0&"
0$
#4260000
b111000 ~
1&"
1$
#4280000
0&"
0$
#4300000
b111001 ~
1&"
1$
#4320000
0&"
0$
#4340000
b111010 ~
1&"
1$
#4360000
0&"
0$
#4380000
b111011 ~
1&"
1$
#4400000
0&"
0$
#4420000
b111100 ~
1&"
1$
#4440000
0&"
0$
#4460000
b111101 ~
1&"
1$
#4480000
0&"
0$
#4500000
b111110 ~
1&"
1$
#4520000
0&"
0$
#4540000
b111111 ~
1&"
1$
#4560000
0&"
0$
#4580000
b1000000 ~
1&"
1$
#4600000
0&"
0$
#4620000
b1000001 ~
1&"
1$
#4640000
0&"
0$
#4660000
b1000010 ~
1&"
1$
#4680000
0&"
0$
#4700000
b1000011 ~
1&"
1$
#4720000
0&"
0$
#4740000
b1000100 ~
1&"
1$
#4760000
0&"
0$
#4780000
b1000101 ~
1&"
1$
#4800000
0&"
0$
#4820000
b1000110 ~
1&"
1$
#4840000
0&"
0$
#4860000
b1000111 ~
1&"
1$
#4880000
0&"
0$
#4900000
b1001000 ~
1&"
1$
#4920000
0&"
0$
#4940000
b1001001 ~
1&"
1$
#4960000
0&"
0$
#4980000
b1001010 ~
1&"
1$
#5000000
0&"
0$
#5020000
b1001011 ~
1&"
1$
#5040000
0&"
0$
#5050000
16"
1(
1,"
#5060000
15"
b1001100 ~
b100000000000000000000000000000000000011110111101001 ;"
b100000000000000000000000000000000000011110111101001 8"
1&"
1$
#5080000
0&"
0$
#5100000
b1001101 ~
1&"
1$
#5120000
0&"
0$
#5140000
b1001110 ~
1&"
1$
#5160000
0&"
0$
#5180000
b1001111 ~
1&"
1$
#5200000
0&"
0$
#5220000
b1010000 ~
1&"
1$
#5240000
0&"
0$
#5260000
b1010001 ~
1&"
1$
#5280000
0&"
0$
#5300000
b1010010 ~
1&"
1$
#5320000
0&"
0$
#5340000
b1010011 ~
1&"
1$
#5360000
0&"
0$
#5380000
b1010100 ~
1&"
1$
#5400000
0&"
0$
#5420000
b1010101 ~
1&"
1$
#5440000
0&"
0$
#5460000
b1010110 ~
1&"
1$
#5480000
0&"
0$
#5500000
b1010111 ~
1&"
1$
#5520000
0&"
0$
#5540000
b1011000 ~
1&"
1$
#5560000
0&"
0$
#5580000
b1011001 ~
1&"
1$
#5600000
0&"
0$
#5620000
b1011010 ~
1&"
1$
#5640000
0&"
0$
#5660000
b1011011 ~
1&"
1$
#5680000
0&"
0$
#5700000
b1011100 ~
1&"
1$
#5720000
0&"
0$
#5740000
b1011101 ~
1&"
1$
#5760000
0&"
0$
#5780000
b1011110 ~
1&"
1$
#5800000
0&"
0$
#5820000
b1011111 ~
1&"
1$
#5840000
0&"
0$
