testbench/fifo_dat_phys_read.vcd
$date
	Sat Jun 18 02:32:58 2016
$end
$version
	GTKWave Analyzer v3.3.66 (w)1999-2015 BSI
$end
$timescale
	1ps
$end
$scope module TestBench $end
$scope module dat $end
$var wire 32 % dataToFIFO[31:0] $end
$upscope $end
$scope module fifo1 $end
$var wire 3 , write_pointer[2:0] $end
$var wire 3 + read_pointer[2:0] $end
$var wire 32 . q[31:0] $end
$var wire 1 1 fifo_full $end
$var wire 1 0 fifo_empty $end
$var wire 1 # write_enable $end
$var wire 1 $ write_clock $end
$var wire 1 - read_enable $end
$var wire 1 / read_clock $end
$var wire 32 " data[31:0] $end
$upscope $end
$scope module dat $end
$scope module dat1 $end
$var wire 4 ( state[3:0] $end
$var wire 32 ' dataReadTOFIFO[31:0] $end
$var wire 1 ) reception_complete $end
$var wire 32 & dataRead[31:0] $end
$upscope $end
$scope module stpw_dat $end
$var wire 50 * parallel[49:0] $end
$upscope $end
$upscope $end
$upscope $end
$enddefinitions $end
$dumpvars
#0
bx &
0/
0$
bx ,
bx %
bx .
x1
bx *
0-
x)
x0
bx "
bx +
x#
bx (
bx '
#20000
b0 '
1/
1$
b0 %
b0 (
0#
b0 "
#40000
0$
0/
#60000
1/
1$
b0 &
b0 *
0)
b1 (
#80000
0$
0/
#100000
1/
1$
b0 (
b0 ,
01
b0 .
10
b0 +
#120000
0$
0/
#140000
1/
1$
#160000
0$
0/
#180000
1/
1$
#200000
0$
0/
#220000
1/
1$
#240000
0$
0/
#260000
1/
1$
#280000
0$
0/
#300000
1/
1$
#320000
0$
0/
#340000
1/
1$
#360000
0$
0/
#380000
1/
1$
b1 (
#400000
0$
0/
#420000
1/
1$
#440000
0$
0/
#460000
1/
1$
#480000
0$
0/
#500000
1/
1$
#520000
0$
0/
#540000
1/
1$
#560000
0$
0/
#580000
1/
1$
#600000
0$
0/
#620000
1/
1$
#640000
0$
0/
#660000
1/
1$
#680000
0$
0/
#700000
1/
1$
#720000
0$
0/
#740000
1/
1$
#760000
0$
0/
#780000
1/
1$
#800000
0$
0/
#820000
1/
1$
#840000
0$
0/
#860000
1/
1$
#880000
0$
0/
#900000
1/
1$
#920000
0$
0/
#940000
1/
1$
#960000
0$
0/
#980000
1/
1$
#1000000
0$
0/
#1020000
1/
1$
#1040000
0$
0/
#1060000
1/
1$
#1080000
0$
0/
#1100000
1/
1$
#1120000
0$
0/
#1140000
1/
1$
#1160000
0$
0/
#1180000
1/
1$
#1200000
0$
0/
#1220000
1/
1$
#1240000
0$
0/
#1260000
1/
1$
#1280000
0$
0/
#1300000
1/
1$
#1320000
0$
0/
#1340000
1/
1$
#1360000
0$
0/
#1380000
1/
1$
#1400000
0$
0/
#1420000
1/
1$
#1440000
0$
0/
#1460000
1/
1$
#1480000
0$
0/
#1500000
1/
1$
#1520000
0$
0/
#1540000
1/
1$
#1560000
0$
0/
#1580000
1/
1$
#1600000
0$
0/
#1620000
1/
1$
#1640000
0$
0/
#1660000
1/
1$
#1680000
0$
0/
#1700000
1/
1$
#1720000
0$
0/
#1740000
1/
1$
#1760000
0$
0/
#1780000
1/
1$
#1800000
0$
0/
#1820000
1/
1$
#1840000
0$
0/
#1860000
1/
1$
#1880000
0$
0/
#1900000
1/
1$
#1920000
0$
0/
#1940000
1/
1$
#1960000
0$
0/
#1980000
1/
1$
#2000000
0$
0/
#2020000
1/
1$
b101 (
#2040000
0$
0/
#2060000
1/
1$
#2080000
0$
0/
#2100000
1/
1$
#2120000
0$
0/
#2140000
1/
1$
#2160000
0$
0/
#2180000
1/
1$
#2200000
0$
0/
#2220000
1/
1$
#2240000
0$
0/
#2260000
1/
1$
#2280000
0$
0/
#2300000
1/
1$
#2320000
0$
0/
#2340000
1/
1$
#2360000
0$
0/
#2380000
1/
1$
#2400000
0$
0/
#2420000
1/
1$
#2440000
0$
0/
#2460000
1/
1$
#2480000
0$
0/
#2500000
1/
1$
#2520000
0$
0/
#2540000
1/
1$
#2560000
0$
0/
#2580000
1/
1$
#2600000
0$
0/
#2620000
1/
1$
#2640000
0$
0/
#2660000
1/
1$
#2680000
0$
0/
#2700000
1/
1$
#2720000
0$
0/
#2740000
1/
1$
#2760000
0$
0/
#2780000
1/
1$
#2800000
0$
0/
#2820000
1/
1$
#2840000
0$
0/
#2860000
1/
1$
#2880000
0$
0/
#2900000
1/
1$
#2920000
0$
0/
#2940000
1/
1$
#2960000
0$
0/
#2980000
1/
1$
#3000000
0$
0/
#3020000
1/
1$
#3040000
0$
0/
#3060000
1/
1$
#3080000
0$
0/
#3100000
1/
1$
#3120000
0$
0/
#3140000
1/
1$
#3160000
0$
0/
#3180000
1/
1$
#3200000
0$
0/
#3220000
1/
1$
#3240000
0$
0/
#3260000
1/
1$
#3280000
0$
0/
#3300000
1/
1$
#3320000
0$
0/
#3340000
1/
1$
#3360000
0$
0/
#3380000
1/
1$
#3400000
0$
0/
#3420000
1/
1$
#3440000
0$
0/
#3460000
1/
1$
#3480000
0$
0/
#3500000
1/
1$
#3520000
0$
0/
#3540000
1/
1$
#3560000
0$
0/
#3580000
1/
1$
#3600000
0$
0/
#3620000
1/
1$
#3640000
0$
0/
#3660000
1/
1$
#3680000
0$
0/
#3700000
1/
1$
#3720000
0$
0/
#3740000
1/
1$
#3760000
0$
0/
#3780000
1/
1$
#3800000
0$
0/
#3820000
1/
1$
#3840000
0$
0/
#3860000
1/
1$
#3880000
0$
0/
#3900000
1/
1$
#3920000
0$
0/
#3940000
1/
1$
#3960000
0$
0/
#3980000
1/
1$
#4000000
0$
0/
#4020000
1/
1$
#4040000
0$
0/
#4060000
1/
1$
#4080000
0$
0/
#4100000
1/
1$
#4120000
0$
0/
#4140000
1/
1$
#4160000
0$
0/
#4180000
1/
1$
#4200000
0$
0/
#4220000
1/
1$
#4240000
0$
0/
#4260000
1/
1$
#4280000
0$
0/
#4300000
1/
1$
#4320000
0$
0/
#4340000
1/
1$
#4360000
0$
0/
#4380000
1/
1$
#4400000
0$
0/
#4420000
1/
1$
#4440000
0$
0/
#4460000
1/
1$
#4480000
0$
0/
#4500000
1/
1$
#4520000
0$
0/
#4540000
1/
1$
#4560000
0$
0/
#4580000
1/
1$
#4600000
0$
0/
#4620000
1/
1$
#4640000
0$
0/
#4660000
1/
1$
#4680000
0$
0/
#4700000
1/
1$
#4720000
0$
0/
#4740000
1/
1$
#4760000
0$
0/
#4780000
1/
1$
#4800000
0$
0/
#4820000
1/
1$
#4840000
0$
0/
#4860000
1/
1$
#4880000
0$
0/
#4900000
1/
1$
#4920000
0$
0/
#4940000
1/
1$
#4960000
0$
0/
#4980000
1/
1$
#5000000
0$
0/
#5020000
1/
1$
#5040000
0$
0/
#5060000
1/
1$
#5080000
0$
0/
#5100000
1/
1$
#5120000
0$
0/
#5140000
1/
1$
#5160000
0$
0/
#5180000
1/
1$
#5200000
0$
0/
#5220000
1/
1$
#5240000
0$
0/
#5260000
1/
1$
#5280000
0$
0/
#5300000
1/
1$
#5320000
0$
0/
#5340000
1/
1$
#5360000
0$
0/
#5380000
1/
1$
#5400000
0$
0/
#5420000
1/
1$
#5440000
0$
0/
#5460000
1/
1$
#5480000
0$
0/
#5500000
1/
1$
#5520000
0$
0/
#5540000
1/
1$
#5560000
0$
0/
#5580000
1/
1$
#5600000
0$
0/
#5620000
1/
1$
#5640000
0$
0/
#5660000
1/
1$
#5680000
0$
0/
#5700000
1/
1$
#5720000
0$
0/
#5740000
1/
1$
#5760000
0$
0/
#5780000
1/
1$
#5800000
0$
0/
#5820000
1/
1$
#5840000
0$
0/
#5860000
1/
1$
#5880000
0$
0/
#5900000
1/
1$
#5920000
0$
0/
#5940000
1/
1$
#5960000
0$
0/
#5980000
1/
1$
#6000000
0$
0/
#6020000
1/
1$
#6040000
0$
0/
#6060000
1/
1$
#6080000
0$
0/
#6100000
1/
1$
#6120000
0$
0/
#6140000
1/
1$
#6160000
0$
0/
#6180000
1/
1$
#6200000
0$
0/
#6220000
1/
1$
#6240000
0$
0/
#6260000
1/
1$
#6280000
0$
0/
#6300000
1/
1$
#6320000
0$
0/
#6340000
1/
1$
#6360000
0$
0/
#6380000
1/
1$
#6400000
0$
0/
#6420000
1/
1$
#6440000
0$
0/
#6460000
1/
1$
#6480000
0$
0/
#6500000
1/
1$
#6520000
0$
0/
#6540000
1/
1$
#6560000
0$
0/
#6580000
1/
1$
#6600000
0$
0/
#6620000
1/
1$
#6640000
0$
0/
#6660000
1/
1$
#6680000
0$
0/
#6700000
1/
1$
#6720000
0$
0/
#6740000
1/
1$
#6760000
0$
0/
#6780000
1/
1$
#6800000
0$
0/
#6820000
1/
1$
#6840000
0$
0/
#6860000
1/
1$
#6880000
0$
0/
#6900000
1/
1$
#6920000
0$
0/
#6940000
1/
1$
#6960000
0$
0/
#6980000
1/
1$
#7000000
0$
0/
#7020000
1/
1$
#7040000
0$
0/
#7060000
1/
1$
#7080000
0$
0/
#7100000
1/
1$
#7120000
0$
0/
#7140000
1/
1$
#7160000
0$
0/
#7180000
1/
1$
#7200000
0$
0/
#7220000
1/
1$
#7240000
0$
0/
#7260000
1/
1$
#7280000
0$
0/
#7300000
1/
1$
#7320000
0$
0/
#7340000
1/
1$
#7360000
0$
0/
#7380000
1/
1$
#7400000
0$
0/
#7420000
1/
1$
#7440000
0$
0/
#7460000
1/
1$
#7480000
0$
0/
#7500000
1/
1$
#7520000
0$
0/
#7540000
1/
1$
#7560000
0$
0/
#7580000
1/
1$
#7600000
0$
0/
#7620000
1/
1$
#7640000
0$
0/
#7660000
1/
1$
#7680000
0$
0/
#7700000
1/
1$
#7720000
0$
0/
#7740000
1/
1$
#7760000
0$
0/
#7780000
1/
1$
#7800000
0$
0/
#7820000
1/
1$
#7840000
0$
0/
#7860000
1/
1$
#7880000
0$
0/
#7900000
1/
1$
#7920000
0$
0/
#7940000
1/
1$
#7960000
0$
0/
#7980000
1/
1$
#8000000
0$
0/
#8020000
1/
1$
#8040000
0$
0/
#8060000
1/
1$
#8080000
0$
0/
#8100000
1/
1$
#8120000
0$
0/
#8140000
1/
1$
#8160000
0$
0/
#8180000
1/
1$
#8200000
0$
0/
#8220000
1/
1$
#8240000
0$
0/
#8260000
1/
1$
#8280000
0$
0/
#8300000
1/
1$
#8320000
0$
0/
#8340000
1/
1$
#8360000
0$
0/
#8380000
1/
1$
#8400000
0$
0/
#8420000
1/
1$
#8440000
0$
0/
#8460000
1/
1$
#8480000
0$
0/
#8500000
1/
1$
#8520000
0$
0/
#8540000
1/
1$
#8560000
0$
0/
#8580000
1/
1$
#8600000
0$
0/
#8620000
1/
1$
#8640000
0$
0/
#8660000
1/
1$
#8680000
0$
0/
#8700000
1/
1$
#8720000
0$
0/
#8740000
1/
1$
#8760000
0$
0/
#8780000
1/
1$
#8800000
0$
0/
#8820000
1/
1$
#8840000
0$
0/
#8860000
1/
1$
#8880000
0$
0/
#8900000
1/
1$
#8920000
0$
0/
#8940000
1/
1$
#8960000
0$
0/
#8980000
1/
1$
#9000000
0$
0/
#9020000
1/
1$
#9040000
0$
0/
#9060000
1/
1$
#9080000
0$
0/
#9100000
1/
1$
#9120000
0$
0/
#9140000
1/
1$
#9160000
0$
0/
#9180000
1/
1$
#9200000
0$
0/
#9220000
1/
1$
#9240000
0$
0/
#9260000
1/
1$
#9280000
0$
0/
#9300000
1/
1$
#9320000
0$
0/
#9340000
1/
1$
#9360000
0$
0/
#9380000
1/
1$
#9400000
0$
0/
#9420000
1/
1$
#9440000
0$
0/
#9460000
1/
1$
#9480000
0$
0/
#9500000
1/
1$
#9520000
0$
0/
#9540000
1/
1$
#9560000
0$
0/
#9580000
1/
1$
#9600000
0$
0/
#9620000
1/
1$
#9640000
0$
0/
#9660000
1/
1$
#9680000
0$
0/
#9700000
1/
1$
#9720000
0$
0/
#9740000
1/
1$
#9760000
0$
0/
#9780000
1/
1$
#9800000
0$
0/
#9820000
1/
1$
#9840000
0$
0/
#9860000
1/
1$
#9880000
0$
0/
#9900000
1/
1$
#9920000
0$
0/
#9940000
1/
1$
#9960000
0$
0/
#9980000
1/
1$
#10000000
0$
0/
#10020000
1/
1$
#10040000
0$
0/
#10060000
1/
1$
#10080000
0$
0/
#10100000
1/
1$
b1 *
#10120000
0/
0$
#10140000
1$
b10 *
1/
#10160000
0/
0$
#10180000
1$
1/
b100 *
#10200000
0$
0/
#10220000
1/
b1000 *
1$
#10240000
0$
0/
#10260000
1/
1$
b10000 *
#10280000
0/
0$
#10300000
1$
b100000 *
1/
#10320000
0/
0$
#10340000
1$
1/
b1000000 *
#10360000
0$
0/
#10380000
1/
b10000000 *
1$
#10400000
0$
0/
#10420000
1/
1$
b100000000 *
#10440000
0/
0$
#10460000
1$
b1000000000 *
1/
#10480000
0/
0$
#10500000
1$
1/
b10000000000 *
#10520000
0$
0/
#10540000
1/
b100000000000 *
1$
#10560000
0$
0/
#10580000
1/
1$
b1000000000000 *
#10600000
0/
0$
#10620000
1$
b10000000000000 *
1/
#10640000
0/
0$
#10660000
1$
1/
b100000000000000 *
#10680000
0$
0/
#10700000
1/
b1000000000000000 *
1$
#10720000
0$
0/
#10740000
1/
1$
b10000000000000000 *
#10760000
0/
0$
#10780000
1$
b100000000000000000 *
b1 &
1/
#10800000
0/
0$
#10820000
1$
1/
b1000000000000000000 *
b10 &
#10840000
0/
0$
#10860000
1$
1/
b100 &
b10000000000000000000 *
#10880000
0/
0$
#10900000
1$
1/
b100000000000000000000 *
b1000 &
#10920000
0/
0$
#10940000
1$
1/
b10000 &
b1000000000000000000000 *
#10960000
0/
0$
#10980000
1$
1/
b10000000000000000000000 *
b100000 &
#11000000
0/
0$
#11020000
1$
1/
b1000000 &
b100000000000000000000001 *
#11040000
0/
0$
#11060000
1$
1/
b1000000000000000000000010 *
b10000000 &
#11080000
0/
0$
#11100000
1$
1/
b100000000 &
b10000000000000000000000100 *
#11120000
0/
0$
#11140000
1$
1/
b100000000000000000000001001 *
b1000000000 &
#11160000
0/
0$
#11180000
1$
1/
b10000000000 &
b1000000000000000000000010010 *
#11200000
0/
0$
#11220000
1$
1/
b10000000000000000000000100101 *
b100000000000 &
#11240000
0/
0$
#11260000
1$
1/
b1000000000000 &
b100000000000000000000001001011 *
#11280000
0/
0$
#11300000
1$
1/
b1000000000000000000000010010111 *
b10000000000000 &
#11320000
0/
0$
#11340000
1$
1/
b100000000000000 &
b10000000000000000000000100101110 *
#11360000
0/
0$
#11380000
1$
1/
b100000000000000000000001001011100 *
b1000000000000000 &
#11400000
0/
0$
#11420000
1$
1/
b10000000000000000 &
b1000000000000000000000010010111001 *
#11440000
0/
0$
#11460000
1$
1/
b10000000000000000000000100101110010 *
b100000000000000000 &
#11480000
0/
0$
#11500000
1$
1/
b1000000000000000000 &
b100000000000000000000001001011100100 *
#11520000
0/
0$
#11540000
1$
1/
b1000000000000000000000010010111001000 *
b10000000000000000000 &
#11560000
0/
0$
#11580000
1$
1/
b100000000000000000000 &
b10000000000000000000000100101110010000 *
#11600000
0/
0$
#11620000
1$
1/
b100000000000000000000001001011100100000 *
b1000000000000000000000 &
#11640000
0/
0$
#11660000
1$
1/
b10000000000000000000000 &
b1000000000000000000000010010111001000000 *
#11680000
0/
0$
#11700000
1$
1/
b10000000000000000000000100101110010000000 *
b100000000000000000000001 &
#11720000
0/
0$
#11740000
1$
1/
b1000000000000000000000010 &
b100000000000000000000001001011100100000001 *
#11760000
0/
0$
#11780000
1$
1/
b1000000000000000000000010010111001000000010 *
b10000000000000000000000100 &
#11800000
0/
0$
#11820000
1$
1/
b100000000000000000000001001 &
b10000000000000000000000100101110010000000100 *
#11840000
0/
0$
#11860000
1$
1/
b100000000000000000000001001011100100000001001 *
b1000000000000000000000010010 &
#11880000
0/
0$
#11900000
1$
1/
b10000000000000000000000100101 &
b1000000000000000000000010010111001000000010011 *
#11920000
0/
0$
#11940000
1$
1/
b10000000000000000000000100101110010000000100110 *
b100000000000000000000001001011 &
#11960000
0/
0$
#11980000
1$
1/
b1000000000000000000000010010111 &
b100000000000000000000001001011100100000001001101 *
#12000000
0/
0$
#12020000
1$
1/
b1000000000000000000000010010111001000000010011011 *
b10000000000000000000000100101110 &
#12040000
0/
0$
#12060000
1$
1/
b1001011100 &
b10000000000000000000000100101110010000000100110110 *
1)
#12080000
0/
0$
#12100000
1$
1/
0)
b1001011100 '
b110 (
b1001011100 "
1#
b1001011100 %
#12120000
0/
0$
#12140000
1$
1/
b0 %
b111 (
b0 '
b1 ,
0#
b0 "
00
#12160000
0/
0$
#12180000
1$
1/
b101 (
b0 *
b0 &
