testbench/padconverters.vcd
$date
	Sun May 29 16:49:43 2016
$end
$version
	Icarus Verilog
$end
$timescale
	1ps
$end
$scope module TestBench $end
$var wire 1 ! Enable $end
$var wire 1 " clock $end
$var wire 1 # data_out $end
$var wire 1 $ load_send $end
$var wire 64 % parallel [63:0] $end
$var wire 64 & parallelin [63:0] $end
$var wire 1 ' port $end
$var wire 1 ( reset $end
$var wire 1 ) serial $end
$var wire 1 * serialToParallel $end
$var wire 1 + serialpad $end
$scope module pts $end
$var wire 1 " Clock $end
$var wire 1 ! Enable $end
$var wire 1 ( Reset $end
$var wire 64 , ffdinputBus [63:0] $end
$var wire 64 - ffdqBus [63:0] $end
$var wire 1 $ load_send $end
$var wire 64 . parallel [63:0] $end
$var wire 1 ) serial $end
$scope module ffd $end
$var wire 1 " Clock $end
$var wire 64 / D [63:0] $end
$var wire 1 ! Enable $end
$var wire 1 ( Reset $end
$var reg 64 0 Q [63:0] $end
$upscope $end
$scope begin PTS[0] $end
$scope begin genblk2 $end
$upscope $end
$upscope $end
$scope begin PTS[1] $end
$scope begin genblk3 $end
$upscope $end
$upscope $end
$scope begin PTS[2] $end
$scope begin genblk3 $end
$upscope $end
$upscope $end
$scope begin PTS[3] $end
$scope begin genblk3 $end
$upscope $end
$upscope $end
$scope begin PTS[4] $end
$scope begin genblk3 $end
$upscope $end
$upscope $end
$scope begin PTS[5] $end
$scope begin genblk3 $end
$upscope $end
$upscope $end
$scope begin PTS[6] $end
$scope begin genblk3 $end
$upscope $end
$upscope $end
$scope begin PTS[7] $end
$scope begin genblk3 $end
$upscope $end
$upscope $end
$scope begin PTS[8] $end
$scope begin genblk3 $end
$upscope $end
$upscope $end
$scope begin PTS[9] $end
$scope begin genblk3 $end
$upscope $end
$upscope $end
$scope begin PTS[10] $end
$scope begin genblk3 $end
$upscope $end
$upscope $end
$scope begin PTS[11] $end
$scope begin genblk3 $end
$upscope $end
$upscope $end
$scope begin PTS[12] $end
$scope begin genblk3 $end
$upscope $end
$upscope $end
$scope begin PTS[13] $end
$scope begin genblk3 $end
$upscope $end
$upscope $end
$scope begin PTS[14] $end
$scope begin genblk3 $end
$upscope $end
$upscope $end
$scope begin PTS[15] $end
$scope begin genblk3 $end
$upscope $end
$upscope $end
$scope begin PTS[16] $end
$scope begin genblk3 $end
$upscope $end
$upscope $end
$scope begin PTS[17] $end
$scope begin genblk3 $end
$upscope $end
$upscope $end
$scope begin PTS[18] $end
$scope begin genblk3 $end
$upscope $end
$upscope $end
$scope begin PTS[19] $end
$scope begin genblk3 $end
$upscope $end
$upscope $end
$scope begin PTS[20] $end
$scope begin genblk3 $end
$upscope $end
$upscope $end
$scope begin PTS[21] $end
$scope begin genblk3 $end
$upscope $end
$upscope $end
$scope begin PTS[22] $end
$scope begin genblk3 $end
$upscope $end
$upscope $end
$scope begin PTS[23] $end
$scope begin genblk3 $end
$upscope $end
$upscope $end
$scope begin PTS[24] $end
$scope begin genblk3 $end
$upscope $end
$upscope $end
$scope begin PTS[25] $end
$scope begin genblk3 $end
$upscope $end
$upscope $end
$scope begin PTS[26] $end
$scope begin genblk3 $end
$upscope $end
$upscope $end
$scope begin PTS[27] $end
$scope begin genblk3 $end
$upscope $end
$upscope $end
$scope begin PTS[28] $end
$scope begin genblk3 $end
$upscope $end
$upscope $end
$scope begin PTS[29] $end
$scope begin genblk3 $end
$upscope $end
$upscope $end
$scope begin PTS[30] $end
$scope begin genblk3 $end
$upscope $end
$upscope $end
$scope begin PTS[31] $end
$scope begin genblk3 $end
$upscope $end
$upscope $end
$scope begin PTS[32] $end
$scope begin genblk3 $end
$upscope $end
$upscope $end
$scope begin PTS[33] $end
$scope begin genblk3 $end
$upscope $end
$upscope $end
$scope begin PTS[34] $end
$scope begin genblk3 $end
$upscope $end
$upscope $end
$scope begin PTS[35] $end
$scope begin genblk3 $end
$upscope $end
$upscope $end
$scope begin PTS[36] $end
$scope begin genblk3 $end
$upscope $end
$upscope $end
$scope begin PTS[37] $end
$scope begin genblk3 $end
$upscope $end
$upscope $end
$scope begin PTS[38] $end
$scope begin genblk3 $end
$upscope $end
$upscope $end
$scope begin PTS[39] $end
$scope begin genblk3 $end
$upscope $end
$upscope $end
$scope begin PTS[40] $end
$scope begin genblk3 $end
$upscope $end
$upscope $end
$scope begin PTS[41] $end
$scope begin genblk3 $end
$upscope $end
$upscope $end
$scope begin PTS[42] $end
$scope begin genblk3 $end
$upscope $end
$upscope $end
$scope begin PTS[43] $end
$scope begin genblk3 $end
$upscope $end
$upscope $end
$scope begin PTS[44] $end
$scope begin genblk3 $end
$upscope $end
$upscope $end
$scope begin PTS[45] $end
$scope begin genblk3 $end
$upscope $end
$upscope $end
$scope begin PTS[46] $end
$scope begin genblk3 $end
$upscope $end
$upscope $end
$scope begin PTS[47] $end
$scope begin genblk3 $end
$upscope $end
$upscope $end
$scope begin PTS[48] $end
$scope begin genblk3 $end
$upscope $end
$upscope $end
$scope begin PTS[49] $end
$scope begin genblk3 $end
$upscope $end
$upscope $end
$scope begin PTS[50] $end
$scope begin genblk3 $end
$upscope $end
$upscope $end
$scope begin PTS[51] $end
$scope begin genblk3 $end
$upscope $end
$upscope $end
$scope begin PTS[52] $end
$scope begin genblk3 $end
$upscope $end
$upscope $end
$scope begin PTS[53] $end
$scope begin genblk3 $end
$upscope $end
$upscope $end
$scope begin PTS[54] $end
$scope begin genblk3 $end
$upscope $end
$upscope $end
$scope begin PTS[55] $end
$scope begin genblk3 $end
$upscope $end
$upscope $end
$scope begin PTS[56] $end
$scope begin genblk3 $end
$upscope $end
$upscope $end
$scope begin PTS[57] $end
$scope begin genblk3 $end
$upscope $end
$upscope $end
$scope begin PTS[58] $end
$scope begin genblk3 $end
$upscope $end
$upscope $end
$scope begin PTS[59] $end
$scope begin genblk3 $end
$upscope $end
$upscope $end
$scope begin PTS[60] $end
$scope begin genblk3 $end
$upscope $end
$upscope $end
$scope begin PTS[61] $end
$scope begin genblk3 $end
$upscope $end
$upscope $end
$scope begin PTS[62] $end
$scope begin genblk3 $end
$upscope $end
$upscope $end
$scope begin PTS[63] $end
$scope begin genblk3 $end
$upscope $end
$upscope $end
$upscope $end
$scope module gpts $end
$var wire 1 " clock $end
$var wire 1 $ load_send $end
$var wire 1 ( reset $end
$scope module clk1 $end
$var reg 1 1 clock $end
$upscope $end
$scope module r1 $end
$var reg 1 2 reset $end
$upscope $end
$scope module lsg $end
$var reg 1 3 load_send $end
$upscope $end
$upscope $end
$scope module padoutput $end
$var wire 1 " clock $end
$var wire 1 + data_in $end
$var wire 1 # data_out $end
$var wire 1 $ enable $end
$var wire 1 ' io_port $end
$var wire 1 4 output_input $end
$var reg 1 5 control $end
$var reg 1 6 dataFROMCARD $end
$var reg 1 7 dataToCARD $end
$upscope $end
$scope module padinput $end
$var wire 1 " clock $end
$var wire 1 + data_in $end
$var wire 1 * data_out $end
$var wire 1 8 enable $end
$var wire 1 ' io_port $end
$var wire 1 9 output_input $end
$var reg 1 : control $end
$var reg 1 ; dataFROMCARD $end
$var reg 1 < dataToCARD $end
$upscope $end
$scope module stp $end
$var wire 1 " Clock $end
$var wire 1 ! Enable $end
$var wire 1 ( Reset $end
$var wire 64 = parallel [63:0] $end
$var wire 1 ' serial $end
$var wire 64 > serialBus [63:0] $end
$scope module ffd $end
$var wire 1 " Clock $end
$var wire 64 ? D [63:0] $end
$var wire 1 ! Enable $end
$var wire 1 ( Reset $end
$var reg 64 @ Q [63:0] $end
$upscope $end
$scope begin STP[0] $end
$scope begin genblk2 $end
$upscope $end
$upscope $end
$scope begin STP[1] $end
$scope begin genblk3 $end
$upscope $end
$upscope $end
$scope begin STP[2] $end
$scope begin genblk3 $end
$upscope $end
$upscope $end
$scope begin STP[3] $end
$scope begin genblk3 $end
$upscope $end
$upscope $end
$scope begin STP[4] $end
$scope begin genblk3 $end
$upscope $end
$upscope $end
$scope begin STP[5] $end
$scope begin genblk3 $end
$upscope $end
$upscope $end
$scope begin STP[6] $end
$scope begin genblk3 $end
$upscope $end
$upscope $end
$scope begin STP[7] $end
$scope begin genblk3 $end
$upscope $end
$upscope $end
$scope begin STP[8] $end
$scope begin genblk3 $end
$upscope $end
$upscope $end
$scope begin STP[9] $end
$scope begin genblk3 $end
$upscope $end
$upscope $end
$scope begin STP[10] $end
$scope begin genblk3 $end
$upscope $end
$upscope $end
$scope begin STP[11] $end
$scope begin genblk3 $end
$upscope $end
$upscope $end
$scope begin STP[12] $end
$scope begin genblk3 $end
$upscope $end
$upscope $end
$scope begin STP[13] $end
$scope begin genblk3 $end
$upscope $end
$upscope $end
$scope begin STP[14] $end
$scope begin genblk3 $end
$upscope $end
$upscope $end
$scope begin STP[15] $end
$scope begin genblk3 $end
$upscope $end
$upscope $end
$scope begin STP[16] $end
$scope begin genblk3 $end
$upscope $end
$upscope $end
$scope begin STP[17] $end
$scope begin genblk3 $end
$upscope $end
$upscope $end
$scope begin STP[18] $end
$scope begin genblk3 $end
$upscope $end
$upscope $end
$scope begin STP[19] $end
$scope begin genblk3 $end
$upscope $end
$upscope $end
$scope begin STP[20] $end
$scope begin genblk3 $end
$upscope $end
$upscope $end
$scope begin STP[21] $end
$scope begin genblk3 $end
$upscope $end
$upscope $end
$scope begin STP[22] $end
$scope begin genblk3 $end
$upscope $end
$upscope $end
$scope begin STP[23] $end
$scope begin genblk3 $end
$upscope $end
$upscope $end
$scope begin STP[24] $end
$scope begin genblk3 $end
$upscope $end
$upscope $end
$scope begin STP[25] $end
$scope begin genblk3 $end
$upscope $end
$upscope $end
$scope begin STP[26] $end
$scope begin genblk3 $end
$upscope $end
$upscope $end
$scope begin STP[27] $end
$scope begin genblk3 $end
$upscope $end
$upscope $end
$scope begin STP[28] $end
$scope begin genblk3 $end
$upscope $end
$upscope $end
$scope begin STP[29] $end
$scope begin genblk3 $end
$upscope $end
$upscope $end
$scope begin STP[30] $end
$scope begin genblk3 $end
$upscope $end
$upscope $end
$scope begin STP[31] $end
$scope begin genblk3 $end
$upscope $end
$upscope $end
$scope begin STP[32] $end
$scope begin genblk3 $end
$upscope $end
$upscope $end
$scope begin STP[33] $end
$scope begin genblk3 $end
$upscope $end
$upscope $end
$scope begin STP[34] $end
$scope begin genblk3 $end
$upscope $end
$upscope $end
$scope begin STP[35] $end
$scope begin genblk3 $end
$upscope $end
$upscope $end
$scope begin STP[36] $end
$scope begin genblk3 $end
$upscope $end
$upscope $end
$scope begin STP[37] $end
$scope begin genblk3 $end
$upscope $end
$upscope $end
$scope begin STP[38] $end
$scope begin genblk3 $end
$upscope $end
$upscope $end
$scope begin STP[39] $end
$scope begin genblk3 $end
$upscope $end
$upscope $end
$scope begin STP[40] $end
$scope begin genblk3 $end
$upscope $end
$upscope $end
$scope begin STP[41] $end
$scope begin genblk3 $end
$upscope $end
$upscope $end
$scope begin STP[42] $end
$scope begin genblk3 $end
$upscope $end
$upscope $end
$scope begin STP[43] $end
$scope begin genblk3 $end
$upscope $end
$upscope $end
$scope begin STP[44] $end
$scope begin genblk3 $end
$upscope $end
$upscope $end
$scope begin STP[45] $end
$scope begin genblk3 $end
$upscope $end
$upscope $end
$scope begin STP[46] $end
$scope begin genblk3 $end
$upscope $end
$upscope $end
$scope begin STP[47] $end
$scope begin genblk3 $end
$upscope $end
$upscope $end
$scope begin STP[48] $end
$scope begin genblk3 $end
$upscope $end
$upscope $end
$scope begin STP[49] $end
$scope begin genblk3 $end
$upscope $end
$upscope $end
$scope begin STP[50] $end
$scope begin genblk3 $end
$upscope $end
$upscope $end
$scope begin STP[51] $end
$scope begin genblk3 $end
$upscope $end
$upscope $end
$scope begin STP[52] $end
$scope begin genblk3 $end
$upscope $end
$upscope $end
$scope begin STP[53] $end
$scope begin genblk3 $end
$upscope $end
$upscope $end
$scope begin STP[54] $end
$scope begin genblk3 $end
$upscope $end
$upscope $end
$scope begin STP[55] $end
$scope begin genblk3 $end
$upscope $end
$upscope $end
$scope begin STP[56] $end
$scope begin genblk3 $end
$upscope $end
$upscope $end
$scope begin STP[57] $end
$scope begin genblk3 $end
$upscope $end
$upscope $end
$scope begin STP[58] $end
$scope begin genblk3 $end
$upscope $end
$upscope $end
$scope begin STP[59] $end
$scope begin genblk3 $end
$upscope $end
$upscope $end
$scope begin STP[60] $end
$scope begin genblk3 $end
$upscope $end
$upscope $end
$scope begin STP[61] $end
$scope begin genblk3 $end
$upscope $end
$upscope $end
$scope begin STP[62] $end
$scope begin genblk3 $end
$upscope $end
$upscope $end
$scope begin STP[63] $end
$scope begin genblk3 $end
$upscope $end
$upscope $end
$upscope $end
$upscope $end
$scope module UPCOUNTER_POSEDGE $end
$var wire 1 A Clock $end
$var wire 1 B Enable $end
$var wire 16 C Initial [15:0] $end
$var wire 1 D Reset $end
$var reg 16 E Q [15:0] $end
$upscope $end
$enddefinitions $end
#0
$dumpvars
bx E
zD
bz C
zB
zA
bx @
bx ?
bx >
bx =
x<
x;
x:
09
18
x7
x6
x5
14
x3
02
01
bx 0
bx /
b1111000011110000111100001111000011110000111100001111000011110000 .
bx -
bx ,
x+
x*
x)
0(
x'
bx &
b1111000011110000111100001111000011110000111100001111000011110000 %
x$
x#
0"
1!
$end
#20000
05
z7
z'
bxz >
bxz ?
z6
z#
11
1"
#40000
01
0"
#60000
bxzz >
bxzz ?
bxz @
bxz &
bxz =
z;
z*
11
1"
#80000
01
0"
#100000
bx0000xxxx0000xxxx0000xxxx0000xxxx0000xxxx0000xxxx0000xxxx000x ,
bx0000xxxx0000xxxx0000xxxx0000xxxx0000xxxx0000xxxx0000xxxx000x /
0)
b0z >
b0z ?
b0 0
b0 -
b0 @
b0 &
b0 =
11
1"
12
1(
#120000
01
0"
#140000
11
1"
#160000
01
0"
#180000
11
1"
#200000
01
0"
#220000
11
1"
#240000
01
0"
#260000
11
1"
#280000
01
0"
#300000
11
1"
#320000
01
0"
#340000
11
1"
#350000
02
0(
#360000
01
0"
#380000
bx000xxxxx000xxxxx000xxxxx000xxxxx000xxxxx000xxxxx000xxxxx00xx ,
bx000xxxxx000xxxxx000xxxxx000xxxxx000xxxxx000xxxxx000xxxxx00xx /
b0zz >
b0zz ?
x)
b0z @
b0z &
b0z =
bx0000xxxx0000xxxx0000xxxx0000xxxx0000xxxx0000xxxx0000xxxx000x 0
bx0000xxxx0000xxxx0000xxxx0000xxxx0000xxxx0000xxxx0000xxxx000x -
11
1"
#400000
01
0"
#420000
bx00xxxxxx00xxxxxx00xxxxxx00xxxxxx00xxxxxx00xxxxxx00xxxxxx0xxx ,
bx00xxxxxx00xxxxxx00xxxxxx00xxxxxx00xxxxxx00xxxxxx00xxxxxx0xxx /
b0zzz >
b0zzz ?
bx000xxxxx000xxxxx000xxxxx000xxxxx000xxxxx000xxxxx000xxxxx00xx 0
bx000xxxxx000xxxxx000xxxxx000xxxxx000xxxxx000xxxxx000xxxxx00xx -
b0zz @
b0zz &
b0zz =
11
1"
#440000
01
0"
#460000
bx0xxxxxxx0xxxxxxx0xxxxxxx0xxxxxxx0xxxxxxx0xxxxxxx0xxxxxxxxxxx ,
bx0xxxxxxx0xxxxxxx0xxxxxxx0xxxxxxx0xxxxxxx0xxxxxxx0xxxxxxxxxxx /
b0zzzz >
b0zzzz ?
b0zzz @
b0zzz &
b0zzz =
bx00xxxxxx00xxxxxx00xxxxxx00xxxxxx00xxxxxx00xxxxxx00xxxxxx0xxx 0
bx00xxxxxx00xxxxxx00xxxxxx00xxxxxx00xxxxxx00xxxxxx00xxxxxx0xxx -
11
1"
#480000
01
0"
#500000
b0zzzzz >
b0zzzzz ?
bx0xxxxxxx0xxxxxxx0xxxxxxx0xxxxxxx0xxxxxxx0xxxxxxx0xxxxxxxxxxx 0
bx0xxxxxxx0xxxxxxx0xxxxxxx0xxxxxxx0xxxxxxx0xxxxxxx0xxxxxxxxxxx -
b0zzzz @
b0zzzz &
b0zzzz =
b1111000011110000111100001111000011110000111100001111000011110000 ,
b1111000011110000111100001111000011110000111100001111000011110000 /
z+
11
1"
03
0$
#520000
01
0"
#540000
b0zzzzzz >
b0zzzzzz ?
1)
b0zzzzz @
b0zzzzz &
b0zzzzz =
b1111000011110000111100001111000011110000111100001111000011110000 0
b1111000011110000111100001111000011110000111100001111000011110000 -
11
1"
#560000
01
0"
#580000
b0zzzzzzz >
b0zzzzzzz ?
b0zzzzzz @
b0zzzzzz &
b0zzzzzz =
11
1"
#600000
01
0"
#620000
b0zzzzzzzz >
b0zzzzzzzz ?
b0zzzzzzz @
b0zzzzzzz &
b0zzzzzzz =
11
1"
#640000
01
0"
#660000
b0zzzzzzzzz >
b0zzzzzzzzz ?
b0zzzzzzzz @
b0zzzzzzzz &
b0zzzzzzzz =
11
1"
#680000
01
0"
#700000
b0zzzzzzzzzz >
b0zzzzzzzzzz ?
b0zzzzzzzzz @
b0zzzzzzzzz &
b0zzzzzzzzz =
11
1"
#720000
01
0"
#740000
b0zzzzzzzzzzz >
b0zzzzzzzzzzz ?
b0zzzzzzzzzz @
b0zzzzzzzzzz &
b0zzzzzzzzzz =
11
1"
#760000
01
0"
#780000
b0zzzzzzzzzzzz >
b0zzzzzzzzzzzz ?
b0zzzzzzzzzzz @
b0zzzzzzzzzzz &
b0zzzzzzzzzzz =
11
1"
#800000
01
0"
#820000
b0zzzzzzzzzzzzz >
b0zzzzzzzzzzzzz ?
b0zzzzzzzzzzzz @
b0zzzzzzzzzzzz &
b0zzzzzzzzzzzz =
11
1"
#840000
01
0"
#860000
b0zzzzzzzzzzzzzz >
b0zzzzzzzzzzzzzz ?
b0zzzzzzzzzzzzz @
b0zzzzzzzzzzzzz &
b0zzzzzzzzzzzzz =
11
1"
#880000
01
0"
#900000
b0zzzzzzzzzzzzzzz >
b0zzzzzzzzzzzzzzz ?
b0zzzzzzzzzzzzzz @
b0zzzzzzzzzzzzzz &
b0zzzzzzzzzzzzzz =
11
1"
#920000
01
0"
#940000
b0zzzzzzzzzzzzzzzz >
b0zzzzzzzzzzzzzzzz ?
b0zzzzzzzzzzzzzzz @
b0zzzzzzzzzzzzzzz &
b0zzzzzzzzzzzzzzz =
11
1"
#960000
01
0"
#980000
b0zzzzzzzzzzzzzzzzz >
b0zzzzzzzzzzzzzzzzz ?
b0zzzzzzzzzzzzzzzz @
b0zzzzzzzzzzzzzzzz &
b0zzzzzzzzzzzzzzzz =
11
1"
#1000000
01
0"
#1020000
b0zzzzzzzzzzzzzzzzzz >
b0zzzzzzzzzzzzzzzzzz ?
b0zzzzzzzzzzzzzzzzz @
b0zzzzzzzzzzzzzzzzz &
b0zzzzzzzzzzzzzzzzz =
11
1"
#1040000
01
0"
#1060000
b0zzzzzzzzzzzzzzzzzzz >
b0zzzzzzzzzzzzzzzzzzz ?
b0zzzzzzzzzzzzzzzzzz @
b0zzzzzzzzzzzzzzzzzz &
b0zzzzzzzzzzzzzzzzzz =
11
1"
#1080000
01
0"
#1100000
b0zzzzzzzzzzzzzzzzzzzz >
b0zzzzzzzzzzzzzzzzzzzz ?
b0zzzzzzzzzzzzzzzzzzz @
b0zzzzzzzzzzzzzzzzzzz &
b0zzzzzzzzzzzzzzzzzzz =
11
1"
#1120000
01
0"
#1140000
b0zzzzzzzzzzzzzzzzzzzzz >
b0zzzzzzzzzzzzzzzzzzzzz ?
b0zzzzzzzzzzzzzzzzzzzz @
b0zzzzzzzzzzzzzzzzzzzz &
b0zzzzzzzzzzzzzzzzzzzz =
11
1"
#1160000
01
0"
#1180000
b0zzzzzzzzzzzzzzzzzzzzzz >
b0zzzzzzzzzzzzzzzzzzzzzz ?
b0zzzzzzzzzzzzzzzzzzzzz @
b0zzzzzzzzzzzzzzzzzzzzz &
b0zzzzzzzzzzzzzzzzzzzzz =
15
b1110000111100001111000011110000111100001111000011110000111100001 ,
b1110000111100001111000011110000111100001111000011110000111100001 /
1+
11
1"
13
1$
#1200000
01
0"
#1220000
b1100001111000011110000111100001111000011110000111100001111000011 ,
b1100001111000011110000111100001111000011110000111100001111000011 /
b1110000111100001111000011110000111100001111000011110000111100001 0
b1110000111100001111000011110000111100001111000011110000111100001 -
17
1'
b0zzzzzzzzzzzzzzzzzzzzzz1 >
b0zzzzzzzzzzzzzzzzzzzzzz1 ?
b0zzzzzzzzzzzzzzzzzzzzzz @
b0zzzzzzzzzzzzzzzzzzzzzz &
b0zzzzzzzzzzzzzzzzzzzzzz =
11
1"
#1240000
01
0"
#1260000
b1000011110000111100001111000011110000111100001111000011110000111 ,
b1000011110000111100001111000011110000111100001111000011110000111 /
b0zzzzzzzzzzzzzzzzzzzzzz11 >
b0zzzzzzzzzzzzzzzzzzzzzz11 ?
b0zzzzzzzzzzzzzzzzzzzzzz1 @
b0zzzzzzzzzzzzzzzzzzzzzz1 &
b0zzzzzzzzzzzzzzzzzzzzzz1 =
1;
1*
16
1#
b1100001111000011110000111100001111000011110000111100001111000011 0
b1100001111000011110000111100001111000011110000111100001111000011 -
11
1"
#1280000
01
0"
#1300000
b111100001111000011110000111100001111000011110000111100001111 ,
b111100001111000011110000111100001111000011110000111100001111 /
b0zzzzzzzzzzzzzzzzzzzzzz111 >
b0zzzzzzzzzzzzzzzzzzzzzz111 ?
b1000011110000111100001111000011110000111100001111000011110000111 0
b1000011110000111100001111000011110000111100001111000011110000111 -
b0zzzzzzzzzzzzzzzzzzzzzz11 @
b0zzzzzzzzzzzzzzzzzzzzzz11 &
b0zzzzzzzzzzzzzzzzzzzzzz11 =
11
1"
#1320000
01
0"
#1340000
b1111000011110000111100001111000011110000111100001111000011111 ,
b1111000011110000111100001111000011110000111100001111000011111 /
0+
b0zzzzzzzzzzzzzzzzzzzzzz1111 >
b0zzzzzzzzzzzzzzzzzzzzzz1111 ?
0)
b0zzzzzzzzzzzzzzzzzzzzzz111 @
b0zzzzzzzzzzzzzzzzzzzzzz111 &
b0zzzzzzzzzzzzzzzzzzzzzz111 =
b111100001111000011110000111100001111000011110000111100001111 0
b111100001111000011110000111100001111000011110000111100001111 -
11
1"
#1360000
01
0"
#1380000
b11110000111100001111000011110000111100001111000011110000111111 ,
b11110000111100001111000011110000111100001111000011110000111111 /
b1111000011110000111100001111000011110000111100001111000011111 0
b1111000011110000111100001111000011110000111100001111000011111 -
07
0'
b0zzzzzzzzzzzzzzzzzzzzzz11110 >
b0zzzzzzzzzzzzzzzzzzzzzz11110 ?
b0zzzzzzzzzzzzzzzzzzzzzz1111 @
b0zzzzzzzzzzzzzzzzzzzzzz1111 &
b0zzzzzzzzzzzzzzzzzzzzzz1111 =
11
1"
#1400000
01
0"
#1420000
b111100001111000011110000111100001111000011110000111100001111111 ,
b111100001111000011110000111100001111000011110000111100001111111 /
b0zzzzzzzzzzzzzzzzzzzzzz111100 >
b0zzzzzzzzzzzzzzzzzzzzzz111100 ?
b0zzzzzzzzzzzzzzzzzzzzzz11110 @
b0zzzzzzzzzzzzzzzzzzzzzz11110 &
b0zzzzzzzzzzzzzzzzzzzzzz11110 =
0;
0*
06
0#
b11110000111100001111000011110000111100001111000011110000111111 0
b11110000111100001111000011110000111100001111000011110000111111 -
11
1"
#1440000
01
0"
#1460000
b1111000011110000111100001111000011110000111100001111000011111111 ,
b1111000011110000111100001111000011110000111100001111000011111111 /
b0zzzzzzzzzzzzzzzzzzzzzz1111000 >
b0zzzzzzzzzzzzzzzzzzzzzz1111000 ?
b111100001111000011110000111100001111000011110000111100001111111 0
b111100001111000011110000111100001111000011110000111100001111111 -
b0zzzzzzzzzzzzzzzzzzzzzz111100 @
b0zzzzzzzzzzzzzzzzzzzzzz111100 &
b0zzzzzzzzzzzzzzzzzzzzzz111100 =
11
1"
#1480000
01
0"
#1500000
b1110000111100001111000011110000111100001111000011110000111111111 ,
b1110000111100001111000011110000111100001111000011110000111111111 /
1+
b0zzzzzzzzzzzzzzzzzzzzzz11110000 >
b0zzzzzzzzzzzzzzzzzzzzzz11110000 ?
1)
b0zzzzzzzzzzzzzzzzzzzzzz1111000 @
b0zzzzzzzzzzzzzzzzzzzzzz1111000 &
b0zzzzzzzzzzzzzzzzzzzzzz1111000 =
b1111000011110000111100001111000011110000111100001111000011111111 0
b1111000011110000111100001111000011110000111100001111000011111111 -
11
1"
#1520000
01
0"
#1540000
b1100001111000011110000111100001111000011110000111100001111111111 ,
b1100001111000011110000111100001111000011110000111100001111111111 /
b1110000111100001111000011110000111100001111000011110000111111111 0
b1110000111100001111000011110000111100001111000011110000111111111 -
17
1'
b0zzzzzzzzzzzzzzzzzzzzzz111100001 >
b0zzzzzzzzzzzzzzzzzzzzzz111100001 ?
b0zzzzzzzzzzzzzzzzzzzzzz11110000 @
b0zzzzzzzzzzzzzzzzzzzzzz11110000 &
b0zzzzzzzzzzzzzzzzzzzzzz11110000 =
11
1"
#1560000
01
0"
#1580000
b1000011110000111100001111000011110000111100001111000011111111111 ,
b1000011110000111100001111000011110000111100001111000011111111111 /
b0zzzzzzzzzzzzzzzzzzzzzz1111000011 >
b0zzzzzzzzzzzzzzzzzzzzzz1111000011 ?
b0zzzzzzzzzzzzzzzzzzzzzz111100001 @
b0zzzzzzzzzzzzzzzzzzzzzz111100001 &
b0zzzzzzzzzzzzzzzzzzzzzz111100001 =
1;
1*
16
1#
b1100001111000011110000111100001111000011110000111100001111111111 0
b1100001111000011110000111100001111000011110000111100001111111111 -
11
1"
#1600000
01
0"
#1620000
b111100001111000011110000111100001111000011110000111111111111 ,
b111100001111000011110000111100001111000011110000111111111111 /
b0zzzzzzzzzzzzzzzzzzzzzz11110000111 >
b0zzzzzzzzzzzzzzzzzzzzzz11110000111 ?
b1000011110000111100001111000011110000111100001111000011111111111 0
b1000011110000111100001111000011110000111100001111000011111111111 -
b0zzzzzzzzzzzzzzzzzzzzzz1111000011 @
b0zzzzzzzzzzzzzzzzzzzzzz1111000011 &
b0zzzzzzzzzzzzzzzzzzzzzz1111000011 =
11
1"
#1640000
01
0"
#1660000
b1111000011110000111100001111000011110000111100001111111111111 ,
b1111000011110000111100001111000011110000111100001111111111111 /
0+
b0zzzzzzzzzzzzzzzzzzzzzz111100001111 >
b0zzzzzzzzzzzzzzzzzzzzzz111100001111 ?
0)
b0zzzzzzzzzzzzzzzzzzzzzz11110000111 @
b0zzzzzzzzzzzzzzzzzzzzzz11110000111 &
b0zzzzzzzzzzzzzzzzzzzzzz11110000111 =
b111100001111000011110000111100001111000011110000111111111111 0
b111100001111000011110000111100001111000011110000111111111111 -
11
1"
#1680000
01
0"
#1700000
b11110000111100001111000011110000111100001111000011111111111111 ,
b11110000111100001111000011110000111100001111000011111111111111 /
b1111000011110000111100001111000011110000111100001111111111111 0
b1111000011110000111100001111000011110000111100001111111111111 -
07
0'
b0zzzzzzzzzzzzzzzzzzzzzz1111000011110 >
b0zzzzzzzzzzzzzzzzzzzzzz1111000011110 ?
b0zzzzzzzzzzzzzzzzzzzzzz111100001111 @
b0zzzzzzzzzzzzzzzzzzzzzz111100001111 &
b0zzzzzzzzzzzzzzzzzzzzzz111100001111 =
11
1"
#1720000
01
0"
#1740000
b111100001111000011110000111100001111000011110000111111111111111 ,
b111100001111000011110000111100001111000011110000111111111111111 /
b0zzzzzzzzzzzzzzzzzzzzzz11110000111100 >
b0zzzzzzzzzzzzzzzzzzzzzz11110000111100 ?
b0zzzzzzzzzzzzzzzzzzzzzz1111000011110 @
b0zzzzzzzzzzzzzzzzzzzzzz1111000011110 &
b0zzzzzzzzzzzzzzzzzzzzzz1111000011110 =
0;
0*
06
0#
b11110000111100001111000011110000111100001111000011111111111111 0
b11110000111100001111000011110000111100001111000011111111111111 -
11
1"
#1760000
01
0"
#1780000
b1111000011110000111100001111000011110000111100001111111111111111 ,
b1111000011110000111100001111000011110000111100001111111111111111 /
b0zzzzzzzzzzzzzzzzzzzzzz111100001111000 >
b0zzzzzzzzzzzzzzzzzzzzzz111100001111000 ?
b111100001111000011110000111100001111000011110000111111111111111 0
b111100001111000011110000111100001111000011110000111111111111111 -
b0zzzzzzzzzzzzzzzzzzzzzz11110000111100 @
b0zzzzzzzzzzzzzzzzzzzzzz11110000111100 &
b0zzzzzzzzzzzzzzzzzzzzzz11110000111100 =
11
1"
#1800000
01
0"
#1820000
b1110000111100001111000011110000111100001111000011111111111111111 ,
b1110000111100001111000011110000111100001111000011111111111111111 /
1+
b0zzzzzzzzzzzzzzzzzzzzzz1111000011110000 >
b0zzzzzzzzzzzzzzzzzzzzzz1111000011110000 ?
1)
b0zzzzzzzzzzzzzzzzzzzzzz111100001111000 @
b0zzzzzzzzzzzzzzzzzzzzzz111100001111000 &
b0zzzzzzzzzzzzzzzzzzzzzz111100001111000 =
b1111000011110000111100001111000011110000111100001111111111111111 0
b1111000011110000111100001111000011110000111100001111111111111111 -
11
1"
#1840000
01
0"
#1860000
b1100001111000011110000111100001111000011110000111111111111111111 ,
b1100001111000011110000111100001111000011110000111111111111111111 /
b1110000111100001111000011110000111100001111000011111111111111111 0
b1110000111100001111000011110000111100001111000011111111111111111 -
17
1'
b0zzzzzzzzzzzzzzzzzzzzzz11110000111100001 >
b0zzzzzzzzzzzzzzzzzzzzzz11110000111100001 ?
b0zzzzzzzzzzzzzzzzzzzzzz1111000011110000 @
b0zzzzzzzzzzzzzzzzzzzzzz1111000011110000 &
b0zzzzzzzzzzzzzzzzzzzzzz1111000011110000 =
11
1"
#1880000
01
0"
