testbench/ptswrapper.vcd
$date
	Wed Jun  1 22:02:40 2016
$end
$version
	Icarus Verilog
$end
$timescale
	1ps
$end
$scope module TestBench $end
$var wire 1 ! Enable $end
$var wire 1 " clock $end
$var wire 1 # complete $end
$var wire 1 $ data_out $end
$var wire 64 % framesize [63:0] $end
$var wire 1 & load_send $end
$var wire 64 ' parallel [63:0] $end
$var wire 1 ( port $end
$var wire 1 ) reset $end
$var wire 1 * serial $end
$var wire 1 + serialpad $end
$scope module pts $end
$var wire 1 " Clock $end
$var wire 1 ! Enable $end
$var wire 1 ) Reset $end
$var wire 1 # complete $end
$var wire 64 , countValue [63:0] $end
$var wire 64 - framesize [63:0] $end
$var wire 1 . go $end
$var wire 64 / initialValue [63:0] $end
$var wire 1 & load_send $end
$var wire 64 0 parallel [63:0] $end
$var wire 1 * serial $end
$var wire 1 1 serialTemp $end
$scope module pts $end
$var wire 1 " Clock $end
$var wire 1 2 Enable $end
$var wire 1 ) Reset $end
$var wire 64 3 ffdinputBus [63:0] $end
$var wire 64 4 ffdqBus [63:0] $end
$var wire 1 & load_send $end
$var wire 64 5 parallel [63:0] $end
$var wire 1 1 serial $end
$scope module ffd $end
$var wire 1 " Clock $end
$var wire 64 6 D [63:0] $end
$var wire 1 2 Enable $end
$var wire 1 ) Reset $end
$var reg 64 7 Q [63:0] $end
$upscope $end
$scope begin PTS[0] $end
$scope begin genblk2 $end
$upscope $end
$upscope $end
$scope begin PTS[1] $end
$scope begin genblk3 $end
$upscope $end
$upscope $end
$scope begin PTS[2] $end
$scope begin genblk3 $end
$upscope $end
$upscope $end
$scope begin PTS[3] $end
$scope begin genblk3 $end
$upscope $end
$upscope $end
$scope begin PTS[4] $end
$scope begin genblk3 $end
$upscope $end
$upscope $end
$scope begin PTS[5] $end
$scope begin genblk3 $end
$upscope $end
$upscope $end
$scope begin PTS[6] $end
$scope begin genblk3 $end
$upscope $end
$upscope $end
$scope begin PTS[7] $end
$scope begin genblk3 $end
$upscope $end
$upscope $end
$scope begin PTS[8] $end
$scope begin genblk3 $end
$upscope $end
$upscope $end
$scope begin PTS[9] $end
$scope begin genblk3 $end
$upscope $end
$upscope $end
$scope begin PTS[10] $end
$scope begin genblk3 $end
$upscope $end
$upscope $end
$scope begin PTS[11] $end
$scope begin genblk3 $end
$upscope $end
$upscope $end
$scope begin PTS[12] $end
$scope begin genblk3 $end
$upscope $end
$upscope $end
$scope begin PTS[13] $end
$scope begin genblk3 $end
$upscope $end
$upscope $end
$scope begin PTS[14] $end
$scope begin genblk3 $end
$upscope $end
$upscope $end
$scope begin PTS[15] $end
$scope begin genblk3 $end
$upscope $end
$upscope $end
$scope begin PTS[16] $end
$scope begin genblk3 $end
$upscope $end
$upscope $end
$scope begin PTS[17] $end
$scope begin genblk3 $end
$upscope $end
$upscope $end
$scope begin PTS[18] $end
$scope begin genblk3 $end
$upscope $end
$upscope $end
$scope begin PTS[19] $end
$scope begin genblk3 $end
$upscope $end
$upscope $end
$scope begin PTS[20] $end
$scope begin genblk3 $end
$upscope $end
$upscope $end
$scope begin PTS[21] $end
$scope begin genblk3 $end
$upscope $end
$upscope $end
$scope begin PTS[22] $end
$scope begin genblk3 $end
$upscope $end
$upscope $end
$scope begin PTS[23] $end
$scope begin genblk3 $end
$upscope $end
$upscope $end
$scope begin PTS[24] $end
$scope begin genblk3 $end
$upscope $end
$upscope $end
$scope begin PTS[25] $end
$scope begin genblk3 $end
$upscope $end
$upscope $end
$scope begin PTS[26] $end
$scope begin genblk3 $end
$upscope $end
$upscope $end
$scope begin PTS[27] $end
$scope begin genblk3 $end
$upscope $end
$upscope $end
$scope begin PTS[28] $end
$scope begin genblk3 $end
$upscope $end
$upscope $end
$scope begin PTS[29] $end
$scope begin genblk3 $end
$upscope $end
$upscope $end
$scope begin PTS[30] $end
$scope begin genblk3 $end
$upscope $end
$upscope $end
$scope begin PTS[31] $end
$scope begin genblk3 $end
$upscope $end
$upscope $end
$scope begin PTS[32] $end
$scope begin genblk3 $end
$upscope $end
$upscope $end
$scope begin PTS[33] $end
$scope begin genblk3 $end
$upscope $end
$upscope $end
$scope begin PTS[34] $end
$scope begin genblk3 $end
$upscope $end
$upscope $end
$scope begin PTS[35] $end
$scope begin genblk3 $end
$upscope $end
$upscope $end
$scope begin PTS[36] $end
$scope begin genblk3 $end
$upscope $end
$upscope $end
$scope begin PTS[37] $end
$scope begin genblk3 $end
$upscope $end
$upscope $end
$scope begin PTS[38] $end
$scope begin genblk3 $end
$upscope $end
$upscope $end
$scope begin PTS[39] $end
$scope begin genblk3 $end
$upscope $end
$upscope $end
$scope begin PTS[40] $end
$scope begin genblk3 $end
$upscope $end
$upscope $end
$scope begin PTS[41] $end
$scope begin genblk3 $end
$upscope $end
$upscope $end
$scope begin PTS[42] $end
$scope begin genblk3 $end
$upscope $end
$upscope $end
$scope begin PTS[43] $end
$scope begin genblk3 $end
$upscope $end
$upscope $end
$scope begin PTS[44] $end
$scope begin genblk3 $end
$upscope $end
$upscope $end
$scope begin PTS[45] $end
$scope begin genblk3 $end
$upscope $end
$upscope $end
$scope begin PTS[46] $end
$scope begin genblk3 $end
$upscope $end
$upscope $end
$scope begin PTS[47] $end
$scope begin genblk3 $end
$upscope $end
$upscope $end
$scope begin PTS[48] $end
$scope begin genblk3 $end
$upscope $end
$upscope $end
$scope begin PTS[49] $end
$scope begin genblk3 $end
$upscope $end
$upscope $end
$scope begin PTS[50] $end
$scope begin genblk3 $end
$upscope $end
$upscope $end
$scope begin PTS[51] $end
$scope begin genblk3 $end
$upscope $end
$upscope $end
$scope begin PTS[52] $end
$scope begin genblk3 $end
$upscope $end
$upscope $end
$scope begin PTS[53] $end
$scope begin genblk3 $end
$upscope $end
$upscope $end
$scope begin PTS[54] $end
$scope begin genblk3 $end
$upscope $end
$upscope $end
$scope begin PTS[55] $end
$scope begin genblk3 $end
$upscope $end
$upscope $end
$scope begin PTS[56] $end
$scope begin genblk3 $end
$upscope $end
$upscope $end
$scope begin PTS[57] $end
$scope begin genblk3 $end
$upscope $end
$upscope $end
$scope begin PTS[58] $end
$scope begin genblk3 $end
$upscope $end
$upscope $end
$scope begin PTS[59] $end
$scope begin genblk3 $end
$upscope $end
$upscope $end
$scope begin PTS[60] $end
$scope begin genblk3 $end
$upscope $end
$upscope $end
$scope begin PTS[61] $end
$scope begin genblk3 $end
$upscope $end
$upscope $end
$scope begin PTS[62] $end
$scope begin genblk3 $end
$upscope $end
$upscope $end
$scope begin PTS[63] $end
$scope begin genblk3 $end
$upscope $end
$upscope $end
$upscope $end
$scope module counter1 $end
$var wire 1 " Clock $end
$var wire 1 8 Enable $end
$var wire 64 9 Initial [63:0] $end
$var wire 1 ) Reset $end
$var reg 64 : Q [63:0] $end
$upscope $end
$upscope $end
$scope module gpts $end
$var wire 1 " clock $end
$var wire 1 & load_send $end
$var wire 1 ) reset $end
$scope module clk1 $end
$var reg 1 ; clock $end
$upscope $end
$scope module r1 $end
$var reg 1 < reset $end
$upscope $end
$scope module lsg $end
$var reg 1 = load_send $end
$upscope $end
$upscope $end
$scope module pad1 $end
$var wire 1 " clock $end
$var wire 1 + data_in $end
$var wire 1 $ data_out $end
$var wire 1 & enable $end
$var wire 1 ( io_port $end
$var wire 1 > output_input $end
$var reg 1 ? control $end
$var reg 1 @ dataFROMCARD $end
$var reg 1 A dataToCARD $end
$upscope $end
$upscope $end
$enddefinitions $end
#0
$dumpvars
xA
x@
x?
1>
x=
0<
0;
bx :
b0 9
x8
bx 7
bx 6
b1111000011110000111100001111000011110000111100001111000011110000 5
bx 4
bx 3
x2
x1
b1111000011110000111100001111000011110000111100001111000011110000 0
b0 /
x.
b1000000 -
bx ,
x+
x*
0)
x(
b1111000011110000111100001111000011110000111100001111000011110000 '
x&
b1000000 %
x$
x#
0"
1!
$end
#20000
0?
zA
z(
z@
z$
1;
1"
#40000
0;
0"
#60000
1;
1"
#80000
0;
0"
#100000
bx0000xxxx0000xxxx0000xxxx0000xxxx0000xxxx0000xxxx0000xxxx000x 3
bx0000xxxx0000xxxx0000xxxx0000xxxx0000xxxx0000xxxx0000xxxx000x 6
01
b0 7
b0 4
12
0#
1.
b0 :
b0 ,
1;
1"
1<
1)
#120000
0;
0"
#140000
1;
1"
#160000
0;
0"
#180000
1;
1"
#200000
0;
0"
#220000
1;
1"
#240000
0;
0"
#260000
1;
1"
#280000
0;
0"
#300000
1;
1"
#320000
0;
0"
#340000
1;
1"
#350000
0<
0)
#360000
0;
0"
#380000
bx000xxxxx000xxxxx000xxxxx000xxxxx000xxxxx000xxxxx000xxxxx00xx 3
bx000xxxxx000xxxxx000xxxxx000xxxxx000xxxxx000xxxxx000xxxxx00xx 6
x1
bx0000xxxx0000xxxx0000xxxx0000xxxx0000xxxx0000xxxx0000xxxx000x 7
bx0000xxxx0000xxxx0000xxxx0000xxxx0000xxxx0000xxxx0000xxxx000x 4
1;
1"
#400000
0;
0"
#420000
bx00xxxxxx00xxxxxx00xxxxxx00xxxxxx00xxxxxx00xxxxxx00xxxxxx0xxx 3
bx00xxxxxx00xxxxxx00xxxxxx00xxxxxx00xxxxxx00xxxxxx00xxxxxx0xxx 6
bx000xxxxx000xxxxx000xxxxx000xxxxx000xxxxx000xxxxx000xxxxx00xx 7
bx000xxxxx000xxxxx000xxxxx000xxxxx000xxxxx000xxxxx000xxxxx00xx 4
1;
1"
#440000
0;
0"
#460000
bx0xxxxxxx0xxxxxxx0xxxxxxx0xxxxxxx0xxxxxxx0xxxxxxx0xxxxxxxxxxx 3
bx0xxxxxxx0xxxxxxx0xxxxxxx0xxxxxxx0xxxxxxx0xxxxxxx0xxxxxxxxxxx 6
bx00xxxxxx00xxxxxx00xxxxxx00xxxxxx00xxxxxx00xxxxxx00xxxxxx0xxx 7
bx00xxxxxx00xxxxxx00xxxxxx00xxxxxx00xxxxxx00xxxxxx00xxxxxx0xxx 4
1;
1"
#480000
0;
0"
#500000
bx0xxxxxxx0xxxxxxx0xxxxxxx0xxxxxxx0xxxxxxx0xxxxxxx0xxxxxxxxxxx 7
bx0xxxxxxx0xxxxxxx0xxxxxxx0xxxxxxx0xxxxxxx0xxxxxxx0xxxxxxxxxxx 4
z*
b1111000011110000111100001111000011110000111100001111000011110000 3
b1111000011110000111100001111000011110000111100001111000011110000 6
08
z+
1;
1"
0=
0&
#520000
0;
0"
#540000
11
b1111000011110000111100001111000011110000111100001111000011110000 7
b1111000011110000111100001111000011110000111100001111000011110000 4
1;
1"
#560000
0;
0"
#580000
1;
1"
#600000
0;
0"
#620000
1;
1"
#640000
0;
0"
#660000
1;
1"
#680000
0;
0"
#700000
1;
1"
#720000
0;
0"
#740000
1;
1"
#760000
0;
0"
#780000
1;
1"
#800000
0;
0"
#820000
1;
1"
#840000
0;
0"
#860000
1;
1"
#880000
0;
0"
#900000
1;
1"
#920000
0;
0"
#940000
1;
1"
#960000
0;
0"
#980000
1;
1"
#1000000
0;
0"
#1020000
1;
1"
#1040000
0;
0"
#1060000
1;
1"
#1080000
0;
0"
#1100000
1;
1"
#1120000
0;
0"
#1140000
1;
1"
#1160000
0;
0"
#1180000
1?
1+
1*
b1110000111100001111000011110000111100001111000011110000111100001 3
b1110000111100001111000011110000111100001111000011110000111100001 6
b1 :
b1 ,
18
1;
1"
1=
1&
#1200000
0;
0"
#1220000
b1100001111000011110000111100001111000011110000111100001111000011 3
b1100001111000011110000111100001111000011110000111100001111000011 6
b1110000111100001111000011110000111100001111000011110000111100001 7
b1110000111100001111000011110000111100001111000011110000111100001 4
1A
1(
b10 :
b10 ,
1;
1"
#1240000
0;
0"
#1260000
b1000011110000111100001111000011110000111100001111000011110000111 3
b1000011110000111100001111000011110000111100001111000011110000111 6
1@
1$
b1100001111000011110000111100001111000011110000111100001111000011 7
b1100001111000011110000111100001111000011110000111100001111000011 4
b11 :
b11 ,
1;
1"
#1280000
0;
0"
#1300000
b111100001111000011110000111100001111000011110000111100001111 3
b111100001111000011110000111100001111000011110000111100001111 6
b1000011110000111100001111000011110000111100001111000011110000111 7
b1000011110000111100001111000011110000111100001111000011110000111 4
b100 :
b100 ,
1;
1"
#1320000
0;
0"
#1340000
0+
b1111000011110000111100001111000011110000111100001111000011111 3
b1111000011110000111100001111000011110000111100001111000011111 6
0*
01
b111100001111000011110000111100001111000011110000111100001111 7
b111100001111000011110000111100001111000011110000111100001111 4
b101 :
b101 ,
1;
1"
#1360000
0;
0"
#1380000
b11110000111100001111000011110000111100001111000011110000111111 3
b11110000111100001111000011110000111100001111000011110000111111 6
b1111000011110000111100001111000011110000111100001111000011111 7
b1111000011110000111100001111000011110000111100001111000011111 4
0A
0(
b110 :
b110 ,
1;
1"
#1400000
0;
0"
#1420000
b111100001111000011110000111100001111000011110000111100001111111 3
b111100001111000011110000111100001111000011110000111100001111111 6
0@
0$
b11110000111100001111000011110000111100001111000011110000111111 7
b11110000111100001111000011110000111100001111000011110000111111 4
b111 :
b111 ,
1;
1"
#1440000
0;
0"
#1460000
b1111000011110000111100001111000011110000111100001111000011111111 3
b1111000011110000111100001111000011110000111100001111000011111111 6
b111100001111000011110000111100001111000011110000111100001111111 7
b111100001111000011110000111100001111000011110000111100001111111 4
b1000 :
b1000 ,
1;
1"
#1480000
0;
0"
#1500000
1+
b1110000111100001111000011110000111100001111000011110000111111111 3
b1110000111100001111000011110000111100001111000011110000111111111 6
1*
11
b1111000011110000111100001111000011110000111100001111000011111111 7
b1111000011110000111100001111000011110000111100001111000011111111 4
b1001 :
b1001 ,
1;
1"
#1520000
0;
0"
#1540000
b1100001111000011110000111100001111000011110000111100001111111111 3
b1100001111000011110000111100001111000011110000111100001111111111 6
b1110000111100001111000011110000111100001111000011110000111111111 7
b1110000111100001111000011110000111100001111000011110000111111111 4
1A
1(
b1010 :
b1010 ,
1;
1"
#1560000
0;
0"
#1580000
b1000011110000111100001111000011110000111100001111000011111111111 3
b1000011110000111100001111000011110000111100001111000011111111111 6
1@
1$
b1100001111000011110000111100001111000011110000111100001111111111 7
b1100001111000011110000111100001111000011110000111100001111111111 4
b1011 :
b1011 ,
1;
1"
#1600000
0;
0"
#1620000
b111100001111000011110000111100001111000011110000111111111111 3
b111100001111000011110000111100001111000011110000111111111111 6
b1000011110000111100001111000011110000111100001111000011111111111 7
b1000011110000111100001111000011110000111100001111000011111111111 4
b1100 :
b1100 ,
1;
1"
#1640000
0;
0"
#1660000
0+
b1111000011110000111100001111000011110000111100001111111111111 3
b1111000011110000111100001111000011110000111100001111111111111 6
0*
01
b111100001111000011110000111100001111000011110000111111111111 7
b111100001111000011110000111100001111000011110000111111111111 4
b1101 :
b1101 ,
1;
1"
#1680000
0;
0"
#1700000
b11110000111100001111000011110000111100001111000011111111111111 3
b11110000111100001111000011110000111100001111000011111111111111 6
b1111000011110000111100001111000011110000111100001111111111111 7
b1111000011110000111100001111000011110000111100001111111111111 4
0A
0(
b1110 :
b1110 ,
1;
1"
#1720000
0;
0"
#1740000
b111100001111000011110000111100001111000011110000111111111111111 3
b111100001111000011110000111100001111000011110000111111111111111 6
0@
0$
b11110000111100001111000011110000111100001111000011111111111111 7
b11110000111100001111000011110000111100001111000011111111111111 4
b1111 :
b1111 ,
1;
1"
#1760000
0;
0"
#1780000
b1111000011110000111100001111000011110000111100001111111111111111 3
b1111000011110000111100001111000011110000111100001111111111111111 6
b111100001111000011110000111100001111000011110000111111111111111 7
b111100001111000011110000111100001111000011110000111111111111111 4
b10000 :
b10000 ,
1;
1"
#1800000
0;
0"
#1820000
1+
b1110000111100001111000011110000111100001111000011111111111111111 3
b1110000111100001111000011110000111100001111000011111111111111111 6
1*
11
b1111000011110000111100001111000011110000111100001111111111111111 7
b1111000011110000111100001111000011110000111100001111111111111111 4
b10001 :
b10001 ,
1;
1"
#1840000
0;
0"
#1860000
b1100001111000011110000111100001111000011110000111111111111111111 3
b1100001111000011110000111100001111000011110000111111111111111111 6
b1110000111100001111000011110000111100001111000011111111111111111 7
b1110000111100001111000011110000111100001111000011111111111111111 4
1A
1(
b10010 :
b10010 ,
1;
1"
#1880000
0;
0"
#1900000
b1000011110000111100001111000011110000111100001111111111111111111 3
b1000011110000111100001111000011110000111100001111111111111111111 6
1@
1$
b1100001111000011110000111100001111000011110000111111111111111111 7
b1100001111000011110000111100001111000011110000111111111111111111 4
b10011 :
b10011 ,
1;
1"
#1920000
0;
0"
#1940000
b111100001111000011110000111100001111000011111111111111111111 3
b111100001111000011110000111100001111000011111111111111111111 6
b1000011110000111100001111000011110000111100001111111111111111111 7
b1000011110000111100001111000011110000111100001111111111111111111 4
b10100 :
b10100 ,
1;
1"
#1960000
0;
0"
#1980000
0+
b1111000011110000111100001111000011110000111111111111111111111 3
b1111000011110000111100001111000011110000111111111111111111111 6
0*
01
b111100001111000011110000111100001111000011111111111111111111 7
b111100001111000011110000111100001111000011111111111111111111 4
b10101 :
b10101 ,
1;
1"
#2000000
0;
0"
#2020000
b11110000111100001111000011110000111100001111111111111111111111 3
b11110000111100001111000011110000111100001111111111111111111111 6
b1111000011110000111100001111000011110000111111111111111111111 7
b1111000011110000111100001111000011110000111111111111111111111 4
0A
0(
b10110 :
b10110 ,
1;
1"
#2040000
0;
0"
#2060000
b111100001111000011110000111100001111000011111111111111111111111 3
b111100001111000011110000111100001111000011111111111111111111111 6
0@
0$
b11110000111100001111000011110000111100001111111111111111111111 7
b11110000111100001111000011110000111100001111111111111111111111 4
b10111 :
b10111 ,
1;
1"
#2080000
0;
0"
#2100000
b1111000011110000111100001111000011110000111111111111111111111111 3
b1111000011110000111100001111000011110000111111111111111111111111 6
b111100001111000011110000111100001111000011111111111111111111111 7
b111100001111000011110000111100001111000011111111111111111111111 4
b11000 :
b11000 ,
1;
1"
#2120000
0;
0"
#2140000
1+
b1110000111100001111000011110000111100001111111111111111111111111 3
b1110000111100001111000011110000111100001111111111111111111111111 6
1*
11
b1111000011110000111100001111000011110000111111111111111111111111 7
b1111000011110000111100001111000011110000111111111111111111111111 4
b11001 :
b11001 ,
1;
1"
#2160000
0;
0"
#2180000
b1100001111000011110000111100001111000011111111111111111111111111 3
b1100001111000011110000111100001111000011111111111111111111111111 6
b1110000111100001111000011110000111100001111111111111111111111111 7
b1110000111100001111000011110000111100001111111111111111111111111 4
1A
1(
b11010 :
b11010 ,
1;
1"
#2200000
0;
0"
#2220000
b1000011110000111100001111000011110000111111111111111111111111111 3
b1000011110000111100001111000011110000111111111111111111111111111 6
1@
1$
b1100001111000011110000111100001111000011111111111111111111111111 7
b1100001111000011110000111100001111000011111111111111111111111111 4
b11011 :
b11011 ,
1;
1"
#2240000
0;
0"
#2260000
b111100001111000011110000111100001111111111111111111111111111 3
b111100001111000011110000111100001111111111111111111111111111 6
b1000011110000111100001111000011110000111111111111111111111111111 7
b1000011110000111100001111000011110000111111111111111111111111111 4
b11100 :
b11100 ,
1;
1"
#2280000
0;
0"
#2300000
0+
b1111000011110000111100001111000011111111111111111111111111111 3
b1111000011110000111100001111000011111111111111111111111111111 6
0*
01
b111100001111000011110000111100001111111111111111111111111111 7
b111100001111000011110000111100001111111111111111111111111111 4
b11101 :
b11101 ,
1;
1"
#2320000
0;
0"
#2340000
b11110000111100001111000011110000111111111111111111111111111111 3
b11110000111100001111000011110000111111111111111111111111111111 6
b1111000011110000111100001111000011111111111111111111111111111 7
b1111000011110000111100001111000011111111111111111111111111111 4
0A
0(
b11110 :
b11110 ,
1;
1"
#2360000
0;
0"
#2380000
b111100001111000011110000111100001111111111111111111111111111111 3
b111100001111000011110000111100001111111111111111111111111111111 6
0@
0$
b11110000111100001111000011110000111111111111111111111111111111 7
b11110000111100001111000011110000111111111111111111111111111111 4
b11111 :
b11111 ,
1;
1"
#2400000
0;
0"
#2420000
b1111000011110000111100001111000011111111111111111111111111111111 3
b1111000011110000111100001111000011111111111111111111111111111111 6
b111100001111000011110000111100001111111111111111111111111111111 7
b111100001111000011110000111100001111111111111111111111111111111 4
b100000 :
b100000 ,
1;
1"
#2440000
0;
0"
#2460000
1+
b1110000111100001111000011110000111111111111111111111111111111111 3
b1110000111100001111000011110000111111111111111111111111111111111 6
1*
11
b1111000011110000111100001111000011111111111111111111111111111111 7
b1111000011110000111100001111000011111111111111111111111111111111 4
b100001 :
b100001 ,
1;
1"
#2480000
0;
0"
#2500000
b1100001111000011110000111100001111111111111111111111111111111111 3
b1100001111000011110000111100001111111111111111111111111111111111 6
b1110000111100001111000011110000111111111111111111111111111111111 7
b1110000111100001111000011110000111111111111111111111111111111111 4
1A
1(
b100010 :
b100010 ,
1;
1"
#2520000
0;
0"
#2540000
b1000011110000111100001111000011111111111111111111111111111111111 3
b1000011110000111100001111000011111111111111111111111111111111111 6
1@
1$
b1100001111000011110000111100001111111111111111111111111111111111 7
b1100001111000011110000111100001111111111111111111111111111111111 4
b100011 :
b100011 ,
1;
1"
#2560000
0;
0"
#2580000
b111100001111000011110000111111111111111111111111111111111111 3
b111100001111000011110000111111111111111111111111111111111111 6
b1000011110000111100001111000011111111111111111111111111111111111 7
b1000011110000111100001111000011111111111111111111111111111111111 4
b100100 :
b100100 ,
1;
1"
#2600000
0;
0"
#2620000
0+
b1111000011110000111100001111111111111111111111111111111111111 3
b1111000011110000111100001111111111111111111111111111111111111 6
0*
01
b111100001111000011110000111111111111111111111111111111111111 7
b111100001111000011110000111111111111111111111111111111111111 4
b100101 :
b100101 ,
1;
1"
#2640000
0;
0"
#2660000
b11110000111100001111000011111111111111111111111111111111111111 3
b11110000111100001111000011111111111111111111111111111111111111 6
b1111000011110000111100001111111111111111111111111111111111111 7
b1111000011110000111100001111111111111111111111111111111111111 4
0A
0(
b100110 :
b100110 ,
1;
1"
#2680000
0;
0"
#2700000
b111100001111000011110000111111111111111111111111111111111111111 3
b111100001111000011110000111111111111111111111111111111111111111 6
0@
0$
b11110000111100001111000011111111111111111111111111111111111111 7
b11110000111100001111000011111111111111111111111111111111111111 4
b100111 :
b100111 ,
1;
1"
#2720000
0;
0"
#2740000
b1111000011110000111100001111111111111111111111111111111111111111 3
b1111000011110000111100001111111111111111111111111111111111111111 6
b111100001111000011110000111111111111111111111111111111111111111 7
b111100001111000011110000111111111111111111111111111111111111111 4
b101000 :
b101000 ,
1;
1"
#2760000
0;
0"
#2780000
1+
b1110000111100001111000011111111111111111111111111111111111111111 3
b1110000111100001111000011111111111111111111111111111111111111111 6
1*
11
b1111000011110000111100001111111111111111111111111111111111111111 7
b1111000011110000111100001111111111111111111111111111111111111111 4
b101001 :
b101001 ,
1;
1"
#2800000
0;
0"
#2820000
b1100001111000011110000111111111111111111111111111111111111111111 3
b1100001111000011110000111111111111111111111111111111111111111111 6
b1110000111100001111000011111111111111111111111111111111111111111 7
b1110000111100001111000011111111111111111111111111111111111111111 4
1A
1(
b101010 :
b101010 ,
1;
1"
#2840000
0;
0"
#2860000
b1000011110000111100001111111111111111111111111111111111111111111 3
b1000011110000111100001111111111111111111111111111111111111111111 6
1@
1$
b1100001111000011110000111111111111111111111111111111111111111111 7
b1100001111000011110000111111111111111111111111111111111111111111 4
b101011 :
b101011 ,
1;
1"
#2880000
0;
0"
#2900000
b111100001111000011111111111111111111111111111111111111111111 3
b111100001111000011111111111111111111111111111111111111111111 6
b1000011110000111100001111111111111111111111111111111111111111111 7
b1000011110000111100001111111111111111111111111111111111111111111 4
b101100 :
b101100 ,
1;
1"
#2920000
0;
0"
#2940000
0+
b1111000011110000111111111111111111111111111111111111111111111 3
b1111000011110000111111111111111111111111111111111111111111111 6
0*
01
b111100001111000011111111111111111111111111111111111111111111 7
b111100001111000011111111111111111111111111111111111111111111 4
b101101 :
b101101 ,
1;
1"
#2960000
0;
0"
#2980000
b11110000111100001111111111111111111111111111111111111111111111 3
b11110000111100001111111111111111111111111111111111111111111111 6
b1111000011110000111111111111111111111111111111111111111111111 7
b1111000011110000111111111111111111111111111111111111111111111 4
0A
0(
b101110 :
b101110 ,
1;
1"
#3000000
0;
0"
#3020000
b111100001111000011111111111111111111111111111111111111111111111 3
b111100001111000011111111111111111111111111111111111111111111111 6
0@
0$
b11110000111100001111111111111111111111111111111111111111111111 7
b11110000111100001111111111111111111111111111111111111111111111 4
b101111 :
b101111 ,
1;
1"
#3040000
0;
0"
#3060000
b1111000011110000111111111111111111111111111111111111111111111111 3
b1111000011110000111111111111111111111111111111111111111111111111 6
b111100001111000011111111111111111111111111111111111111111111111 7
b111100001111000011111111111111111111111111111111111111111111111 4
b110000 :
b110000 ,
1;
1"
#3080000
0;
0"
#3100000
1+
b1110000111100001111111111111111111111111111111111111111111111111 3
b1110000111100001111111111111111111111111111111111111111111111111 6
1*
11
b1111000011110000111111111111111111111111111111111111111111111111 7
b1111000011110000111111111111111111111111111111111111111111111111 4
b110001 :
b110001 ,
1;
1"
#3120000
0;
0"
#3140000
b1100001111000011111111111111111111111111111111111111111111111111 3
b1100001111000011111111111111111111111111111111111111111111111111 6
b1110000111100001111111111111111111111111111111111111111111111111 7
b1110000111100001111111111111111111111111111111111111111111111111 4
1A
1(
b110010 :
b110010 ,
1;
1"
#3160000
0;
0"
#3180000
b1000011110000111111111111111111111111111111111111111111111111111 3
b1000011110000111111111111111111111111111111111111111111111111111 6
1@
1$
b1100001111000011111111111111111111111111111111111111111111111111 7
b1100001111000011111111111111111111111111111111111111111111111111 4
b110011 :
b110011 ,
1;
1"
#3200000
0;
0"
#3220000
b111100001111111111111111111111111111111111111111111111111111 3
b111100001111111111111111111111111111111111111111111111111111 6
b1000011110000111111111111111111111111111111111111111111111111111 7
b1000011110000111111111111111111111111111111111111111111111111111 4
b110100 :
b110100 ,
1;
1"
#3240000
0;
0"
#3260000
0+
b1111000011111111111111111111111111111111111111111111111111111 3
b1111000011111111111111111111111111111111111111111111111111111 6
0*
01
b111100001111111111111111111111111111111111111111111111111111 7
b111100001111111111111111111111111111111111111111111111111111 4
b110101 :
b110101 ,
1;
1"
#3280000
0;
0"
#3300000
b11110000111111111111111111111111111111111111111111111111111111 3
b11110000111111111111111111111111111111111111111111111111111111 6
b1111000011111111111111111111111111111111111111111111111111111 7
b1111000011111111111111111111111111111111111111111111111111111 4
0A
0(
b110110 :
b110110 ,
1;
1"
#3320000
0;
0"
#3340000
b111100001111111111111111111111111111111111111111111111111111111 3
b111100001111111111111111111111111111111111111111111111111111111 6
0@
0$
b11110000111111111111111111111111111111111111111111111111111111 7
b11110000111111111111111111111111111111111111111111111111111111 4
b110111 :
b110111 ,
1;
1"
#3360000
0;
0"
#3380000
b1111000011111111111111111111111111111111111111111111111111111111 3
b1111000011111111111111111111111111111111111111111111111111111111 6
b111100001111111111111111111111111111111111111111111111111111111 7
b111100001111111111111111111111111111111111111111111111111111111 4
b111000 :
b111000 ,
1;
1"
#3400000
0;
0"
#3420000
1+
b1110000111111111111111111111111111111111111111111111111111111111 3
b1110000111111111111111111111111111111111111111111111111111111111 6
1*
11
b1111000011111111111111111111111111111111111111111111111111111111 7
b1111000011111111111111111111111111111111111111111111111111111111 4
b111001 :
b111001 ,
1;
1"
#3440000
0;
0"
#3460000
b1100001111111111111111111111111111111111111111111111111111111111 3
b1100001111111111111111111111111111111111111111111111111111111111 6
b1110000111111111111111111111111111111111111111111111111111111111 7
b1110000111111111111111111111111111111111111111111111111111111111 4
1A
1(
b111010 :
b111010 ,
1;
1"
#3480000
0;
0"
#3500000
b1000011111111111111111111111111111111111111111111111111111111111 3
b1000011111111111111111111111111111111111111111111111111111111111 6
1@
1$
b1100001111111111111111111111111111111111111111111111111111111111 7
b1100001111111111111111111111111111111111111111111111111111111111 4
b111011 :
b111011 ,
1;
1"
#3520000
0;
0"
#3540000
b111111111111111111111111111111111111111111111111111111111111 3
b111111111111111111111111111111111111111111111111111111111111 6
b1000011111111111111111111111111111111111111111111111111111111111 7
b1000011111111111111111111111111111111111111111111111111111111111 4
b111100 :
b111100 ,
1;
1"
#3560000
0;
0"
#3580000
0+
b1111111111111111111111111111111111111111111111111111111111111 3
b1111111111111111111111111111111111111111111111111111111111111 6
0*
01
b111111111111111111111111111111111111111111111111111111111111 7
b111111111111111111111111111111111111111111111111111111111111 4
b111101 :
b111101 ,
1;
1"
#3600000
0;
0"
#3620000
b11111111111111111111111111111111111111111111111111111111111111 3
b11111111111111111111111111111111111111111111111111111111111111 6
b1111111111111111111111111111111111111111111111111111111111111 7
b1111111111111111111111111111111111111111111111111111111111111 4
0A
0(
b111110 :
b111110 ,
1;
1"
#3640000
0;
0"
#3660000
b111111111111111111111111111111111111111111111111111111111111111 3
b111111111111111111111111111111111111111111111111111111111111111 6
0@
0$
b11111111111111111111111111111111111111111111111111111111111111 7
b11111111111111111111111111111111111111111111111111111111111111 4
b111111 :
b111111 ,
1;
1"
#3680000
0;
0"
#3700000
b1111111111111111111111111111111111111111111111111111111111111111 3
b1111111111111111111111111111111111111111111111111111111111111111 6
b111111111111111111111111111111111111111111111111111111111111111 7
b111111111111111111111111111111111111111111111111111111111111111 4
b1000000 :
b1000000 ,
1;
1"
#3720000
0;
0"
#3740000
11
b1111111111111111111111111111111111111111111111111111111111111111 7
b1111111111111111111111111111111111111111111111111111111111111111 4
z+
z*
08
02
1#
0.
b1000001 :
b1000001 ,
1;
1"
#3760000
0;
0"
#3780000
zA
z(
1;
1"
#3800000
0;
0"
#3820000
z@
z$
1;
1"
