testbench/signalsWishboneSlave5.vcd
$date
	Mon Jun 13 21:11:55 2016
$end
$version
	Icarus Verilog
$end
$timescale
	1ps
$end
$scope module TestBench $end
$var wire 1 ! ack_o $end
$var wire 5 " adr_i [4:0] $end
$var wire 1 # clock $end
$var wire 1 $ cmd_done_i $end
$var wire 1 % data_done_i $end
$var wire 1 & error_o $end
$var wire 1 ' fifo_read_en $end
$var wire 1 ( fifo_write_en $end
$var wire 128 ) host_data_i [127:0] $end
$var wire 128 * host_data_o [127:0] $end
$var wire 1 + new_command $end
$var wire 1 , new_data $end
$var wire 1 - reg_read_en $end
$var wire 1 . reg_write_en $end
$var wire 1 / reset $end
$var wire 1 0 strobe $end
$var wire 128 1 wb_data_i [127:0] $end
$var wire 128 2 wb_data_o [127:0] $end
$var wire 1 3 we_i $end
$scope module wb_salve1 $end
$var wire 5 4 adr_i [4:0] $end
$var wire 1 # clock $end
$var wire 1 $ cmd_done_i $end
$var wire 1 % data_done_i $end
$var wire 128 5 host_data_i [127:0] $end
$var wire 1 / reset $end
$var wire 1 0 strobe $end
$var wire 128 6 wb_data_i [127:0] $end
$var wire 1 3 we_i $end
$var reg 1 7 ack_o $end
$var reg 1 8 error_o $end
$var reg 1 9 fifo_read_en $end
$var reg 1 : fifo_write_en $end
$var reg 128 ; host_data_o [127:0] $end
$var reg 1 < new_command $end
$var reg 1 = new_data $end
$var reg 4 > next_state [3:0] $end
$var reg 1 ? reg_read_en $end
$var reg 1 @ reg_write_en $end
$var reg 4 A state [3:0] $end
$var reg 128 B wb_data_o [127:0] $end
$upscope $end
$scope module WBSgen $end
$var wire 5 C adr_i [4:0] $end
$var wire 1 # clock $end
$var wire 1 $ cmd_done_i $end
$var wire 1 % data_done_i $end
$var wire 128 D host_data_i [127:0] $end
$var wire 1 / reset $end
$var wire 1 0 strobe $end
$var wire 128 E wb_data_i [127:0] $end
$var wire 1 3 we_i $end
$scope module clk1 $end
$var reg 1 F clock $end
$upscope $end
$scope module r1 $end
$var reg 1 G reset $end
$upscope $end
$scope module hDatag $end
$var reg 128 H host_data [127:0] $end
$upscope $end
$scope module cmddgen $end
$var reg 1 I done $end
$upscope $end
$scope module datadgen $end
$var reg 1 J done $end
$upscope $end
$scope module weg $end
$var reg 1 K we_in $end
$upscope $end
$scope module adrg $end
$var reg 5 L adr_in [4:0] $end
$upscope $end
$scope module strg $end
$var reg 1 M strobe_in $end
$upscope $end
$scope module wbDatag $end
$var reg 128 N wb_data [127:0] $end
$upscope $end
$upscope $end
$upscope $end
$enddefinitions $end
#0
$dumpvars
b0 N
0M
b0 L
0K
0J
0I
b0 H
0G
0F
b0 E
b0 D
b0 C
b0 B
b0 A
0@
0?
b1 >
0=
0<
b0 ;
0:
09
08
07
b0 6
b0 5
b0 4
03
b0 2
b0 1
00
0/
0.
0-
0,
0+
b0 *
b0 )
0(
0'
0&
0%
0$
0#
b0 "
0!
$end
#40000
b1 A
1F
1#
b101 N
b101 1
b101 6
b101 E
b1 L
b1 "
b1 4
b1 C
b1 H
b1 )
b1 5
b1 D
#60000
0F
0#
1G
1/
#80000
b0 A
1F
1#
b1010 N
b1010 1
b1010 6
b1010 E
b10 L
b10 "
b10 4
b10 C
b10 H
b10 )
b10 5
b10 D
#100000
0F
0#
1M
10
#120000
b10 >
b1 A
1F
1#
b1111 N
b1111 1
b1111 6
b1111 E
b11 L
b11 "
b11 4
b11 C
b11 H
b11 )
b11 5
b11 D
0G
0/
#140000
0F
0#
#160000
b100 B
b100 2
1?
1-
17
1!
b10 A
1F
1#
b10100 N
b10100 1
b10100 6
b10100 E
b100 L
b100 "
b100 4
b100 C
b100 H
b100 )
b100 5
b100 D
#180000
0F
0#
#200000
1@
1.
0?
0-
b11001 ;
b11001 *
b11 A
b0 B
b0 2
b11 >
1F
1#
b11001 N
b11001 1
b11001 6
b11001 E
b101 L
b101 "
b101 4
b101 C
b101 H
b101 )
b101 5
b101 D
1K
13
#220000
0F
0#
#240000
b11110 ;
b11110 *
1F
1#
b11110 N
b11110 1
b11110 6
b11110 E
b110 L
b110 "
b110 4
b110 C
b110 H
b110 )
b110 5
b110 D
#260000
0F
0#
#280000
b100011 ;
b100011 *
1F
1#
b100011 N
b100011 1
b100011 6
b100011 E
b111 L
b111 "
b111 4
b111 C
b111 H
b111 )
b111 5
b111 D
#300000
0F
0#
#320000
b101000 ;
b101000 *
1F
1#
b101000 N
b101000 1
b101000 6
b101000 E
b1000 L
b1000 "
b1000 4
b1000 C
b1000 H
b1000 )
b1000 5
b1000 D
#340000
0F
0#
#350000
1I
1$
#360000
b101101 ;
b101101 *
1F
1#
b101101 N
b101101 1
b101101 6
b101101 E
b1001 L
b1001 "
b1001 4
b1001 C
b1001 H
b1001 )
b1001 5
b1001 D
#380000
0F
0#
#390000
0I
0$
#400000
b110010 ;
b110010 *
1F
1#
b110010 N
b110010 1
b110010 6
b110010 E
b1010 L
b1010 "
b1010 4
b1010 C
b1010 H
b1010 )
b1010 5
b1010 D
1J
1%
#420000
0F
0#
#440000
b110111 ;
b110111 *
1F
1#
b110111 N
b110111 1
b110111 6
b110111 E
b1011 L
b1011 "
b1011 4
b1011 C
b1011 H
b1011 )
b1011 5
b1011 D
#450000
0J
0%
#460000
0F
0#
#480000
b111100 ;
b111100 *
1F
1#
b111100 N
b111100 1
b111100 6
b111100 E
b1100 L
b1100 "
b1100 4
b1100 C
b1100 H
b1100 )
b1100 5
b1100 D
#500000
0F
0#
#520000
b1000001 ;
b1000001 *
1F
1#
b1000001 N
b1000001 1
b1000001 6
b1000001 E
b1101 L
b1101 "
b1101 4
b1101 C
b1101 H
b1101 )
b1101 5
b1101 D
#540000
0F
0#
#560000
b1000110 ;
b1000110 *
1F
1#
b1000110 N
b1000110 1
b1000110 6
b1000110 E
b1110 L
b1110 "
b1110 4
b1110 C
b1110 H
b1110 )
b1110 5
b1110 D
#580000
0F
0#
#600000
b1001011 ;
b1001011 *
1F
1#
b1001011 N
b1001011 1
b1001011 6
b1001011 E
b1111 L
b1111 "
b1111 4
b1111 C
b1111 H
b1111 )
b1111 5
b1111 D
#620000
0F
0#
#640000
b100 A
b101 >
0@
0.
b0 ;
b0 *
0<
0+
1F
1#
b1010000 N
b1010000 1
b1010000 6
b1010000 E
b10000 L
b10000 "
b10000 4
b10000 C
b10000 H
b10000 )
b10000 5
b10000 D
#660000
0F
0#
#680000
07
0!
b101 A
1F
1#
b1010101 N
b1010101 1
b1010101 6
b1010101 E
b10001 L
b10001 "
b10001 4
b10001 C
b10001 H
b10001 )
b10001 5
b10001 D
#700000
0F
0#
#720000
1F
1#
b1011010 N
b1011010 1
b1011010 6
b1011010 E
b10010 L
b10010 "
b10010 4
b10010 C
b10010 H
b10010 )
b10010 5
b10010 D
#740000
b11 >
17
1!
0F
0#
1I
1$
#760000
b100 A
b101 >
1F
1#
b1011111 N
b1011111 1
b1011111 6
b1011111 E
b10011 L
b10011 "
b10011 4
b10011 C
b10011 H
b10011 )
b10011 5
b10011 D
#780000
0F
0#
0I
0$
#800000
07
0!
b101 A
1F
1#
b1100100 N
b1100100 1
b1100100 6
b1100100 E
b0 L
b0 "
b0 4
b0 C
b10100 H
b10100 )
b10100 5
b10100 D
#820000
0F
0#
#840000
1F
1#
b1101001 N
b1101001 1
b1101001 6
b1101001 E
b1 L
b1 "
b1 4
b1 C
b10101 H
b10101 )
b10101 5
b10101 D
#850000
b11 >
17
1!
1J
1%
#860000
0F
0#
#880000
1@
1.
b1101110 ;
b1101110 *
b11 A
1F
1#
b1101110 N
b1101110 1
b1101110 6
b1101110 E
b10 L
b10 "
b10 4
b10 C
b10110 H
b10110 )
b10110 5
b10110 D
#900000
0F
0#
0J
0%
#920000
b1110011 ;
b1110011 *
1F
1#
b1110011 N
b1110011 1
b1110011 6
b1110011 E
b11 L
b11 "
b11 4
b11 C
b10111 H
b10111 )
b10111 5
b10111 D
#940000
0F
0#
#960000
b1111000 ;
b1111000 *
1F
1#
b1111000 N
b1111000 1
b1111000 6
b1111000 E
b100 L
b100 "
b100 4
b100 C
b11000 H
b11000 )
b11000 5
b11000 D
#980000
0F
0#
#1000000
b1111101 ;
b1111101 *
1F
1#
b1111101 N
b1111101 1
b1111101 6
b1111101 E
b101 L
b101 "
b101 4
b101 C
b11001 H
b11001 )
b11001 5
b11001 D
#1020000
0F
0#
#1040000
b10000010 ;
b10000010 *
1F
1#
b10000010 N
b10000010 1
b10000010 6
b10000010 E
b110 L
b110 "
b110 4
b110 C
b11010 H
b11010 )
b11010 5
b11010 D
#1060000
0F
0#
#1080000
b10000111 ;
b10000111 *
1F
1#
b10000111 N
b10000111 1
b10000111 6
b10000111 E
b111 L
b111 "
b111 4
b111 C
b11011 H
b11011 )
b11011 5
b11011 D
#1100000
0F
0#
#1120000
b10001100 ;
b10001100 *
1F
1#
b10001100 N
b10001100 1
b10001100 6
b10001100 E
b1000 L
b1000 "
b1000 4
b1000 C
b11100 H
b11100 )
b11100 5
b11100 D
#1130000
1I
1$
#1140000
0F
0#
#1160000
b10010001 ;
b10010001 *
1F
1#
b10010001 N
b10010001 1
b10010001 6
b10010001 E
b1001 L
b1001 "
b1001 4
b1001 C
b11101 H
b11101 )
b11101 5
b11101 D
#1170000
0I
0$
#1180000
0F
0#
#1200000
b10010110 ;
b10010110 *
1F
1#
b10010110 N
b10010110 1
b10010110 6
b10010110 E
b1010 L
b1010 "
b1010 4
b1010 C
b11110 H
b11110 )
b11110 5
b11110 D
#1220000
0F
0#
#1240000
b10011011 ;
b10011011 *
1F
1#
b10011011 N
b10011011 1
b10011011 6
b10011011 E
b1011 L
b1011 "
b1011 4
b1011 C
b11111 H
b11111 )
b11111 5
b11111 D
#1260000
0F
0#
#1280000
b10100000 ;
b10100000 *
1F
1#
b10100000 N
b10100000 1
b10100000 6
b10100000 E
b1100 L
b1100 "
b1100 4
b1100 C
b100000 H
b100000 )
b100000 5
b100000 D
#1300000
0F
0#
1J
1%
#1320000
b10100101 ;
b10100101 *
1F
1#
b10100101 N
b10100101 1
b10100101 6
b10100101 E
b1101 L
b1101 "
b1101 4
b1101 C
b100001 H
b100001 )
b100001 5
b100001 D
#1340000
0F
0#
#1350000
0J
0%
#1360000
b10101010 ;
b10101010 *
1F
1#
b10101010 N
b10101010 1
b10101010 6
b10101010 E
b1110 L
b1110 "
b1110 4
b1110 C
b100010 H
b100010 )
b100010 5
b100010 D
#1380000
0F
0#
#1400000
b10101111 ;
b10101111 *
1F
1#
b10101111 N
b10101111 1
b10101111 6
b10101111 E
b1111 L
b1111 "
b1111 4
b1111 C
b100011 H
b100011 )
b100011 5
b100011 D
#1420000
0F
0#
#1440000
b100 A
b101 >
0@
0.
b0 ;
b0 *
0<
0+
1F
1#
b10110100 N
b10110100 1
b10110100 6
b10110100 E
b10000 L
b10000 "
b10000 4
b10000 C
b100100 H
b100100 )
b100100 5
b100100 D
#1460000
0F
0#
#1480000
07
0!
b101 A
1F
1#
b10111001 N
b10111001 1
b10111001 6
b10111001 E
b10001 L
b10001 "
b10001 4
b10001 C
b100101 H
b100101 )
b100101 5
b100101 D
