testbench/signalsWishboneSlave.vcd
$date
	Sat May 28 12:18:15 2016
$end
$version
	Icarus Verilog
$end
$timescale
	1ps
$end
$scope module TestBench $end
$var wire 1 ! ack_o $end
$var wire 1 " adr_i $end
$var wire 1 # clock $end
$var wire 64 $ host_data_i [63:0] $end
$var wire 64 % host_data_o [63:0] $end
$var wire 1 & new_command $end
$var wire 1 ' new_data $end
$var wire 1 ( reset $end
$var wire 1 ) strobe $end
$var wire 64 * wb_data_i [63:0] $end
$var wire 64 + wb_data_o [63:0] $end
$var wire 1 , we_i $end
$scope module wb_salve1 $end
$var wire 1 " adr_i $end
$var wire 1 # clock $end
$var wire 64 - host_data_i [63:0] $end
$var wire 1 ( reset $end
$var wire 1 ) strobe $end
$var wire 64 . wb_data_i [63:0] $end
$var wire 1 , we_i $end
$var reg 1 / ack_o $end
$var reg 64 0 host_data_o [63:0] $end
$var reg 1 1 new_command $end
$var reg 1 2 new_data $end
$var reg 2 3 next_state [1:0] $end
$var reg 1 4 setup_done $end
$var reg 2 5 state [1:0] $end
$var reg 64 6 wb_data_o [63:0] $end
$upscope $end
$scope module WBSgen $end
$var wire 1 " adr_i $end
$var wire 1 # clock $end
$var wire 64 7 host_data_i [63:0] $end
$var wire 1 ( reset $end
$var wire 1 ) strobe $end
$var wire 64 8 wb_data_i [63:0] $end
$var wire 1 , we_i $end
$scope module clk1 $end
$var reg 1 9 clock $end
$upscope $end
$scope module r1 $end
$var reg 1 : reset $end
$upscope $end
$scope module hDatag $end
$var reg 64 ; host_data [63:0] $end
$upscope $end
$scope module weg $end
$var reg 1 < we_in $end
$upscope $end
$scope module adrg $end
$var reg 1 = adr_in $end
$upscope $end
$scope module strg $end
$var reg 1 > strobe_in $end
$upscope $end
$scope module wbDatag $end
$var reg 64 ? wb_data [63:0] $end
$upscope $end
$upscope $end
$upscope $end
$enddefinitions $end
#0
$dumpvars
b0 ?
0>
0=
0<
b0 ;
0:
09
b0 8
b0 7
b0 6
bx 5
04
b0 3
02
01
b0 0
0/
b0 .
b0 -
0,
b0 +
b0 *
0)
0(
0'
0&
b0 %
b0 $
0#
0"
0!
$end
#20000
b1 3
b0 5
19
1#
#40000
09
0#
#60000
b1 5
19
1#
#80000
09
0#
#100000
b0 5
19
1#
1:
1(
#120000
09
0#
#140000
19
1#
#160000
09
0#
#180000
19
1#
#200000
09
0#
0:
0(
1<
1,
#220000
b1 5
19
1#
#240000
09
0#
#260000
19
1#
#280000
09
0#
#300000
11
1&
14
b10 5
b1 3
19
1#
1>
1)
#320000
09
0#
#340000
01
0&
04
b10 3
b1 5
19
1#
#360000
09
0#
#380000
b1 3
11
1&
14
b10 5
19
1#
#400000
09
0#
#420000
01
0&
04
b10 3
b1 5
19
1#
#440000
09
0#
#460000
b1 3
11
1&
14
b10 5
19
1#
#480000
09
0#
#500000
04
b10 3
b1 5
01
0&
02
0'
b0 0
b0 %
19
1#
b1 ?
b1 *
b1 .
b1 8
1=
1"
b1 ;
b1 $
b1 -
b1 7
#520000
09
0#
#540000
b1 3
12
1'
b1 0
b1 %
14
b10 5
19
1#
#560000
09
0#
#580000
b0 0
b0 %
02
0'
04
b10 3
b1 5
19
1#
#600000
09
0#
#620000
b1 3
12
1'
b1 0
b1 %
14
b10 5
19
1#
#640000
09
0#
#660000
b0 0
b0 %
02
0'
04
b10 3
b1 5
19
1#
#680000
09
0#
#700000
b1 3
12
1'
b1 0
b1 %
14
b10 5
19
1#
#720000
09
0#
#740000
b0 0
b0 %
02
0'
04
b10 3
b1 5
19
1#
#760000
09
0#
#780000
b1 3
12
1'
b1 0
b1 %
14
b10 5
19
1#
#800000
09
0#
#820000
b0 0
b0 %
02
0'
04
b10 3
b1 5
19
1#
#840000
09
0#
#860000
b1 3
12
1'
b1 0
b1 %
14
b10 5
19
1#
#880000
09
0#
#900000
b0 0
b0 %
02
0'
04
b10 3
b1 5
19
1#
#920000
09
0#
#940000
b1 3
12
1'
b1 0
b1 %
14
b10 5
19
1#
#960000
09
0#
#980000
b0 0
b0 %
02
0'
04
b10 3
b1 5
19
1#
#1000000
09
0#
b10 ?
b10 *
b10 .
b10 8
0=
0"
b10 ;
b10 $
b10 -
b10 7
0<
0,
#1020000
b1 3
b10 6
b10 +
14
1/
1!
b10 5
19
1#
#1040000
09
0#
#1060000
b0 6
b0 +
04
0/
0!
b10 3
b1 5
19
1#
#1080000
09
0#
#1100000
b1 3
b10 6
b10 +
14
1/
1!
b10 5
19
1#
#1120000
09
0#
#1140000
b0 6
b0 +
04
0/
0!
b10 3
b1 5
19
1#
#1160000
09
0#
#1180000
b1 3
b10 6
b10 +
14
1/
1!
b10 5
19
1#
#1200000
11
1&
b10 0
b10 %
b0 6
b0 +
0/
0!
09
0#
1<
1,
#1220000
b0 0
b0 %
01
0&
04
b10 3
b1 5
19
1#
#1240000
09
0#
#1260000
b1 3
11
1&
b10 0
b10 %
14
b10 5
19
1#
#1280000
09
0#
#1300000
b0 0
b0 %
01
0&
04
b10 3
b1 5
19
1#
#1320000
09
0#
#1340000
b1 3
11
1&
b10 0
b10 %
14
b10 5
19
1#
#1360000
09
0#
#1380000
b0 0
b0 %
01
0&
04
b10 3
b1 5
19
1#
#1400000
09
0#
#1420000
b1 3
11
1&
b10 0
b10 %
14
b10 5
19
1#
#1440000
09
0#
#1460000
b0 0
b0 %
01
0&
04
b10 3
b1 5
19
1#
#1480000
09
0#
#1500000
b1 3
12
1'
b11 0
b11 %
14
b10 5
19
1#
b11 ?
b11 *
b11 .
b11 8
1=
1"
b11 ;
b11 $
b11 -
b11 7
#1520000
09
0#
#1540000
b0 0
b0 %
02
0'
04
b10 3
b1 5
19
1#
#1560000
09
0#
#1580000
b1 3
12
1'
b11 0
b11 %
14
b10 5
19
1#
#1600000
09
0#
#1620000
b0 0
b0 %
02
0'
04
b10 3
b1 5
19
1#
#1640000
09
0#
#1660000
b1 3
12
1'
b11 0
b11 %
14
b10 5
19
1#
#1680000
09
0#
#1700000
b0 0
b0 %
02
0'
04
b10 3
b1 5
19
1#
#1720000
09
0#
#1740000
b1 3
12
1'
b11 0
b11 %
14
b10 5
19
1#
#1760000
09
0#
#1780000
b0 0
b0 %
02
0'
04
b10 3
b1 5
19
1#
#1800000
09
0#
#1820000
b1 3
12
1'
b11 0
b11 %
14
b10 5
19
1#
#1840000
09
0#
#1860000
b0 0
b0 %
02
0'
04
b10 3
b1 5
19
1#
#1880000
09
0#
#1900000
b1 3
12
1'
b11 0
b11 %
14
b10 5
19
1#
#1920000
09
0#
#1940000
b0 0
b0 %
02
0'
04
b10 3
b1 5
19
1#
#1960000
09
0#
#1980000
b1 3
12
1'
b11 0
b11 %
14
b10 5
19
1#
#2000000
b100 6
b100 +
b0 0
b0 %
02
0'
1/
1!
09
0#
b100 ?
b100 *
b100 .
b100 8
0=
0"
b100 ;
b100 $
b100 -
b100 7
0<
0,
#2020000
b0 6
b0 +
04
0/
0!
b10 3
b1 5
19
1#
#2040000
09
0#
#2060000
b1 3
b100 6
b100 +
14
1/
1!
b10 5
19
1#
#2080000
09
0#
#2100000
b0 6
b0 +
04
0/
0!
b10 3
b1 5
19
1#
#2120000
09
0#
#2140000
b1 3
b100 6
b100 +
14
1/
1!
b10 5
19
1#
#2160000
09
0#
#2180000
b0 6
b0 +
04
0/
0!
b10 3
b1 5
19
1#
#2200000
09
0#
1<
1,
#2220000
b1 3
11
1&
b100 0
b100 %
14
b10 5
19
1#
#2240000
09
0#
#2260000
b0 0
b0 %
01
0&
04
b10 3
b1 5
19
1#
#2280000
09
0#
#2300000
b1 3
11
1&
b100 0
b100 %
14
b10 5
19
1#
#2320000
09
0#
#2340000
b0 0
b0 %
01
0&
04
b10 3
b1 5
19
1#
#2360000
09
0#
#2380000
b1 3
11
1&
b100 0
b100 %
14
b10 5
19
1#
#2400000
09
0#
#2420000
b0 0
b0 %
01
0&
04
b10 3
b1 5
19
1#
#2440000
09
0#
#2460000
b1 3
11
1&
b100 0
b100 %
14
b10 5
19
1#
#2480000
09
0#
#2500000
04
b10 3
b1 5
01
0&
02
0'
b0 0
b0 %
19
1#
b101 ?
b101 *
b101 .
b101 8
1=
1"
b101 ;
b101 $
b101 -
b101 7
