testbench/signalsWishboneSlave5.vcd
$date
	Sun Jun 19 09:04:34 2016
$end
$version
	Icarus Verilog
$end
$timescale
	1ps
$end
$scope module TestBench $end
$var wire 1 ! ack_o $end
$var wire 5 " adr_i [4:0] $end
$var wire 1 # clock $end
$var wire 1 $ cmd_done_i $end
$var wire 1 % data_done_i $end
$var wire 1 & error_o $end
$var wire 1 ' fifo_read_en $end
$var wire 1 ( fifo_write_en $end
$var wire 128 ) host_data_i [127:0] $end
$var wire 128 * host_data_o [127:0] $end
$var wire 1 + new_command $end
$var wire 1 , new_data $end
$var wire 1 - reg_read_en $end
$var wire 1 . reg_write_en $end
$var wire 1 / reset $end
$var wire 1 0 strobe $end
$var wire 128 1 wb_data_i [127:0] $end
$var wire 128 2 wb_data_o [127:0] $end
$var wire 1 3 we_i $end
$scope module wb_salve1 $end
$var wire 5 4 adr_i [4:0] $end
$var wire 1 # clock $end
$var wire 1 $ cmd_done_i $end
$var wire 1 % data_done_i $end
$var wire 128 5 host_data_i [127:0] $end
$var wire 1 / reset $end
$var wire 1 0 strobe $end
$var wire 128 6 wb_data_i [127:0] $end
$var wire 1 3 we_i $end
$var reg 1 7 ack_o $end
$var reg 5 8 adr_o [4:0] $end
$var reg 1 9 error_o $end
$var reg 1 : fifo_read_en $end
$var reg 1 ; fifo_write_en $end
$var reg 128 < host_data_o [127:0] $end
$var reg 1 = new_command $end
$var reg 1 > new_data $end
$var reg 4 ? next_state [3:0] $end
$var reg 1 @ reg_read_en $end
$var reg 1 A reg_write_en $end
$var reg 4 B state [3:0] $end
$var reg 128 C wb_data_o [127:0] $end
$upscope $end
$scope module WBSgen $end
$var wire 5 D adr_i [4:0] $end
$var wire 1 # clock $end
$var wire 1 $ cmd_done_i $end
$var wire 1 % data_done_i $end
$var wire 128 E host_data_i [127:0] $end
$var wire 1 / reset $end
$var wire 1 0 strobe $end
$var wire 128 F wb_data_i [127:0] $end
$var wire 1 3 we_i $end
$scope module clk1 $end
$var reg 1 G clock $end
$upscope $end
$scope module r1 $end
$var reg 1 H reset $end
$upscope $end
$scope module hDatag $end
$var reg 128 I host_data [127:0] $end
$upscope $end
$scope module cmddgen $end
$var reg 1 J done $end
$upscope $end
$scope module datadgen $end
$var reg 1 K done $end
$upscope $end
$scope module weg $end
$var reg 1 L we_in $end
$upscope $end
$scope module adrg $end
$var reg 5 M adr_in [4:0] $end
$upscope $end
$scope module strg $end
$var reg 1 N strobe_in $end
$upscope $end
$scope module wbDatag $end
$var reg 128 O wb_data [127:0] $end
$upscope $end
$upscope $end
$upscope $end
$enddefinitions $end
#0
$dumpvars
b0 O
0N
b0 M
0L
0K
0J
b0 I
0H
0G
b0 F
b0 E
b0 D
b0 C
b0 B
0A
0@
b1 ?
0>
0=
b0 <
0;
0:
09
b0 8
07
b0 6
b0 5
b0 4
03
b0 2
b0 1
00
0/
0.
0-
0,
0+
b0 *
b0 )
0(
0'
0&
0%
0$
0#
b0 "
0!
$end
#40000
b1 B
1G
1#
b101 O
b101 1
b101 6
b101 F
b1 M
b1 "
b1 4
b1 D
b1 I
b1 )
b1 5
b1 E
#60000
0G
0#
1H
1/
#80000
b0 B
1G
1#
b1010 O
b1010 1
b1010 6
b1010 F
b10 M
b10 "
b10 4
b10 D
b10 I
b10 )
b10 5
b10 E
#100000
0G
0#
1N
10
#120000
b10 ?
b1 B
1G
1#
b1111 O
b1111 1
b1111 6
b1111 F
b11 M
b11 "
b11 4
b11 D
b11 I
b11 )
b11 5
b11 E
0H
0/
#140000
0G
0#
#160000
b100 8
b100 C
b100 2
1@
1-
17
1!
b10 B
1G
1#
b10100 O
b10100 1
b10100 6
b10100 F
b100 M
b100 "
b100 4
b100 D
b100 I
b100 )
b100 5
b100 E
#180000
0G
0#
#200000
b101 8
b101 C
b101 2
1G
1#
b11001 O
b11001 1
b11001 6
b11001 F
b101 M
b101 "
b101 4
b101 D
b101 I
b101 )
b101 5
b101 E
#220000
0G
0#
#240000
b110 8
b110 C
b110 2
1G
1#
b11110 O
b11110 1
b11110 6
b11110 F
b110 M
b110 "
b110 4
b110 D
b110 I
b110 )
b110 5
b110 E
#260000
0G
0#
#280000
b111 8
b111 C
b111 2
1G
1#
b100011 O
b100011 1
b100011 6
b100011 F
b111 M
b111 "
b111 4
b111 D
b111 I
b111 )
b111 5
b111 E
#300000
0G
0#
#320000
b1000 8
b1000 C
b1000 2
1G
1#
b101000 O
b101000 1
b101000 6
b101000 F
b1000 M
b1000 "
b1000 4
b1000 D
b1000 I
b1000 )
b1000 5
b1000 E
#340000
0G
0#
#350000
1J
1$
#360000
b1001 8
b1001 C
b1001 2
1G
1#
b101101 O
b101101 1
b101101 6
b101101 F
b1001 M
b1001 "
b1001 4
b1001 D
b1001 I
b1001 )
b1001 5
b1001 E
#380000
0G
0#
#390000
0J
0$
#400000
b1010 8
b1010 C
b1010 2
1G
1#
b110010 O
b110010 1
b110010 6
b110010 F
b1010 M
b1010 "
b1010 4
b1010 D
b1010 I
b1010 )
b1010 5
b1010 E
1K
1%
#420000
0G
0#
#440000
b1011 8
b1011 C
b1011 2
1G
1#
b110111 O
b110111 1
b110111 6
b110111 F
b1011 M
b1011 "
b1011 4
b1011 D
b1011 I
b1011 )
b1011 5
b1011 E
#450000
0K
0%
#460000
0G
0#
#480000
b1100 8
b1100 C
b1100 2
1G
1#
b111100 O
b111100 1
b111100 6
b111100 F
b1100 M
b1100 "
b1100 4
b1100 D
b1100 I
b1100 )
b1100 5
b1100 E
#500000
b11 ?
0G
0#
1L
13
#520000
1A
1.
0@
0-
b1000001 <
b1000001 *
b11 B
b1101 8
b0 C
b0 2
1G
1#
b1000001 O
b1000001 1
b1000001 6
b1000001 F
b1101 M
b1101 "
b1101 4
b1101 D
b1101 I
b1101 )
b1101 5
b1101 E
#540000
0G
0#
#560000
b1110 8
b1000110 <
b1000110 *
1G
1#
b1000110 O
b1000110 1
b1000110 6
b1000110 F
b1110 M
b1110 "
b1110 4
b1110 D
b1110 I
b1110 )
b1110 5
b1110 E
#580000
0G
0#
#600000
b1111 8
b1001011 <
b1001011 *
1G
1#
b1001011 O
b1001011 1
b1001011 6
b1001011 F
b1111 M
b1111 "
b1111 4
b1111 D
b1111 I
b1111 )
b1111 5
b1111 E
#620000
0G
0#
#640000
b100 B
b101 ?
b0 8
0A
0.
b0 <
b0 *
0=
0+
1G
1#
b1010000 O
b1010000 1
b1010000 6
b1010000 F
b10000 M
b10000 "
b10000 4
b10000 D
b10000 I
b10000 )
b10000 5
b10000 E
#660000
0G
0#
#680000
07
0!
b101 B
1G
1#
b1010101 O
b1010101 1
b1010101 6
b1010101 F
b10001 M
b10001 "
b10001 4
b10001 D
b10001 I
b10001 )
b10001 5
b10001 E
#700000
0G
0#
0L
03
#720000
1G
1#
b1011010 O
b1011010 1
b1011010 6
b1011010 F
b10010 M
b10010 "
b10010 4
b10010 D
b10010 I
b10010 )
b10010 5
b10010 E
#740000
b10 ?
17
1!
0G
0#
1J
1$
#760000
b10011 8
b10011 C
b10011 2
19
1&
b10 B
1G
1#
b1011111 O
b1011111 1
b1011111 6
b1011111 F
b10011 M
b10011 "
b10011 4
b10011 D
b10011 I
b10011 )
b10011 5
b10011 E
#780000
19
1&
0G
0#
0J
0$
#800000
b0 8
b10100 C
b10100 2
1@
1-
09
0&
1G
1#
b1100100 O
b1100100 1
b1100100 6
b1100100 F
b0 M
b0 "
b0 4
b0 D
b10100 I
b10100 )
b10100 5
b10100 E
#820000
0G
0#
#840000
b1 8
b10101 C
b10101 2
1G
1#
b1101001 O
b1101001 1
b1101001 6
b1101001 F
b1 M
b1 "
b1 4
b1 D
b10101 I
b10101 )
b10101 5
b10101 E
#850000
1K
1%
#860000
0G
0#
#880000
b10 8
b10110 C
b10110 2
1G
1#
b1101110 O
b1101110 1
b1101110 6
b1101110 F
b10 M
b10 "
b10 4
b10 D
b10110 I
b10110 )
b10110 5
b10110 E
#900000
0G
0#
0K
0%
#920000
b11 8
b10111 C
b10111 2
1G
1#
b1110011 O
b1110011 1
b1110011 6
b1110011 F
b11 M
b11 "
b11 4
b11 D
b10111 I
b10111 )
b10111 5
b10111 E
#940000
0G
0#
#960000
b100 8
b11000 C
b11000 2
1G
1#
b1111000 O
b1111000 1
b1111000 6
b1111000 F
b100 M
b100 "
b100 4
b100 D
b11000 I
b11000 )
b11000 5
b11000 E
#980000
0G
0#
#1000000
1A
1.
0@
0-
b1111101 <
b1111101 *
b11 B
b101 8
b0 C
b0 2
b11 ?
1G
1#
b1111101 O
b1111101 1
b1111101 6
b1111101 F
b101 M
b101 "
b101 4
b101 D
b11001 I
b11001 )
b11001 5
b11001 E
1L
13
#1020000
0G
0#
#1040000
b110 8
b10000010 <
b10000010 *
1G
1#
b10000010 O
b10000010 1
b10000010 6
b10000010 F
b110 M
b110 "
b110 4
b110 D
b11010 I
b11010 )
b11010 5
b11010 E
#1060000
0G
0#
#1080000
b111 8
b10000111 <
b10000111 *
1G
1#
b10000111 O
b10000111 1
b10000111 6
b10000111 F
b111 M
b111 "
b111 4
b111 D
b11011 I
b11011 )
b11011 5
b11011 E
#1100000
0G
0#
#1120000
b1000 8
b10001100 <
b10001100 *
1G
1#
b10001100 O
b10001100 1
b10001100 6
b10001100 F
b1000 M
b1000 "
b1000 4
b1000 D
b11100 I
b11100 )
b11100 5
b11100 E
#1130000
1J
1$
#1140000
0G
0#
#1160000
b1001 8
b10010001 <
b10010001 *
1G
1#
b10010001 O
b10010001 1
b10010001 6
b10010001 F
b1001 M
b1001 "
b1001 4
b1001 D
b11101 I
b11101 )
b11101 5
b11101 E
#1170000
0J
0$
#1180000
0G
0#
#1200000
b11110 C
b11110 2
0A
0.
1@
1-
b10 B
b1010 8
b0 <
b0 *
b10 ?
1G
1#
b10010110 O
b10010110 1
b10010110 6
b10010110 F
b1010 M
b1010 "
b1010 4
b1010 D
b11110 I
b11110 )
b11110 5
b11110 E
0L
03
#1220000
0G
0#
#1240000
b1011 8
b11111 C
b11111 2
1G
1#
b10011011 O
b10011011 1
b10011011 6
b10011011 F
b1011 M
b1011 "
b1011 4
b1011 D
b11111 I
b11111 )
b11111 5
b11111 E
#1260000
0G
0#
#1280000
b1100 8
b100000 C
b100000 2
1G
1#
b10100000 O
b10100000 1
b10100000 6
b10100000 F
b1100 M
b1100 "
b1100 4
b1100 D
b100000 I
b100000 )
b100000 5
b100000 E
#1300000
0G
0#
1K
1%
#1320000
b1101 8
b100001 C
b100001 2
1G
1#
b10100101 O
b10100101 1
b10100101 6
b10100101 F
b1101 M
b1101 "
b1101 4
b1101 D
b100001 I
b100001 )
b100001 5
b100001 E
#1340000
0G
0#
#1350000
0K
0%
#1360000
b1110 8
b100010 C
b100010 2
1G
1#
b10101010 O
b10101010 1
b10101010 6
b10101010 F
b1110 M
b1110 "
b1110 4
b1110 D
b100010 I
b100010 )
b100010 5
b100010 E
#1380000
0G
0#
#1400000
b1111 8
b100011 C
b100011 2
1G
1#
b10101111 O
b10101111 1
b10101111 6
b10101111 F
b1111 M
b1111 "
b1111 4
b1111 D
b100011 I
b100011 )
b100011 5
b100011 E
#1420000
0G
0#
#1440000
b10000 8
b100100 C
b100100 2
19
1&
0@
0-
1G
1#
b10110100 O
b10110100 1
b10110100 6
b10110100 F
b10000 M
b10000 "
b10000 4
b10000 D
b100100 I
b100100 )
b100100 5
b100100 E
#1460000
0G
0#
#1480000
b10001 8
b100101 C
b100101 2
19
1&
1G
1#
b10111001 O
b10111001 1
b10111001 6
b10111001 F
b10001 M
b10001 "
b10001 4
b10001 D
b100101 I
b100101 )
b100101 5
b100101 E
#1500000
b11 ?
0G
0#
1L
13
