testbench/wbslave_rw_fifo.vcd
$date
	Fri Jul  1 13:53:16 2016
$end
$version
	Icarus Verilog
$end
$timescale
	1ps
$end
$scope module TestBench $end
$var wire 1 ! ack_o $end
$var wire 5 " adr_i [4:0] $end
$var wire 5 # adr_o [4:0] $end
$var wire 1 $ clock $end
$var wire 1 % cmd_done_i $end
$var wire 1 & data_done_i $end
$var wire 1 ' error_o $end
$var wire 1 ( fifo_read_en $end
$var wire 1 ) fifo_read_wait $end
$var wire 1 * fifo_write_en $end
$var wire 1 + fifo_write_wait $end
$var wire 128 , host_data_i [127:0] $end
$var wire 128 - host_data_o [127:0] $end
$var wire 1 . new_command $end
$var wire 1 / new_data $end
$var wire 1 0 reg_read_en $end
$var wire 1 1 reg_write_en $end
$var wire 1 2 reset $end
$var wire 1 3 strobe $end
$var wire 128 4 wb_data_i [127:0] $end
$var wire 128 5 wb_data_o [127:0] $end
$var wire 1 6 we_i $end
$scope module wb_salve1 $end
$var wire 5 7 adr_i [4:0] $end
$var wire 1 $ clock $end
$var wire 1 % cmd_done_i $end
$var wire 1 & data_done_i $end
$var wire 1 ) fifo_read_wait $end
$var wire 1 + fifo_write_wait $end
$var wire 128 8 host_data_i [127:0] $end
$var wire 1 2 reset $end
$var wire 1 3 strobe $end
$var wire 128 9 wb_data_i [127:0] $end
$var wire 1 6 we_i $end
$var reg 1 : ack_o $end
$var reg 5 ; adr_o [4:0] $end
$var reg 1 < error_o $end
$var reg 1 = fifo_read_en $end
$var reg 1 > fifo_write_en $end
$var reg 128 ? host_data_o [127:0] $end
$var reg 1 @ new_command $end
$var reg 1 A new_data $end
$var reg 4 B next_state [3:0] $end
$var reg 1 C reg_read_en $end
$var reg 1 D reg_write_en $end
$var reg 4 E state [3:0] $end
$var reg 128 F wb_data_o [127:0] $end
$upscope $end
$scope module WBSgen $end
$var wire 5 G adr_i [4:0] $end
$var wire 1 $ clock $end
$var wire 1 % cmd_done_i $end
$var wire 1 & data_done_i $end
$var wire 1 ) fifo_read_wait $end
$var wire 1 + fifo_write_wait $end
$var wire 128 H host_data_i [127:0] $end
$var wire 1 2 reset $end
$var wire 1 3 strobe $end
$var wire 128 I wb_data_i [127:0] $end
$var wire 1 6 we_i $end
$scope module clk1 $end
$var reg 1 J clock $end
$upscope $end
$scope module r1 $end
$var reg 1 K reset $end
$upscope $end
$scope module hDatag $end
$var reg 128 L host_data [127:0] $end
$upscope $end
$scope module cmddgen $end
$var reg 1 M done $end
$upscope $end
$scope module datadgen $end
$var reg 1 N done $end
$upscope $end
$scope module weg $end
$var reg 1 O we_in $end
$upscope $end
$scope module adrg $end
$var reg 5 P adr_in [4:0] $end
$upscope $end
$scope module strg $end
$var reg 1 Q strobe_in $end
$upscope $end
$scope module wbDatag $end
$var reg 128 R wb_data [127:0] $end
$upscope $end
$scope module fwwg $end
$var reg 1 S fifo_write_wait $end
$upscope $end
$scope module frwg $end
$var reg 1 T fifo_read_wait $end
$upscope $end
$upscope $end
$upscope $end
$enddefinitions $end
#0
$dumpvars
0T
0S
b0 R
0Q
b0 P
0O
0N
0M
b0 L
0K
0J
b0 I
b0 H
b0 G
b0 F
b0 E
0D
0C
b1 B
0A
0@
b0 ?
0>
0=
0<
b0 ;
0:
b0 9
b0 8
b0 7
06
b0 5
b0 4
03
02
01
00
0/
0.
b0 -
b0 ,
0+
0*
0)
0(
0'
0&
0%
0$
b0 #
b0 "
0!
$end
#40000
b1 E
1J
1$
b100110000100010110100111100100111110010010000011011101001101010110010110001111101011011101001001110001010110 R
b100110000100010110100111100100111110010010000011011101001101010110010110001111101011011101001001110001010110 4
b100110000100010110100111100100111110010010000011011101001101010110010110001111101011011101001001110001010110 9
b100110000100010110100111100100111110010010000011011101001101010110010110001111101011011101001001110001010110 I
b10110110111100010010110101001110000010101010101110100110100111011010101001101011100010001111110 L
b10110110111100010010110101001110000010101010101110100110100111011010101001101011100010001111110 ,
b10110110111100010010110101001110000010101010101110100110100111011010101001101011100010001111110 8
b10110110111100010010110101001110000010101010101110100110100111011010101001101011100010001111110 H
#60000
0J
0$
1K
12
#80000
b0 E
b1 B
1J
1$
b1001100001000101101001111001001111100100100000110111010011010101100101100011111010110111010010011100010101100 R
b1001100001000101101001111001001111100100100000110111010011010101100101100011111010110111010010011100010101100 4
b1001100001000101101001111001001111100100100000110111010011010101100101100011111010110111010010011100010101100 9
b1001100001000101101001111001001111100100100000110111010011010101100101100011111010110111010010011100010101100 I
1Q
13
b101101101111000100101101010011100000101010101011101001101001110110101010011010111000100011111100 L
b101101101111000100101101010011100000101010101011101001101001110110101010011010111000100011111100 ,
b101101101111000100101101010011100000101010101011101001101001110110101010011010111000100011111100 8
b101101101111000100101101010011100000101010101011101001101001110110101010011010111000100011111100 H
#90000
0K
02
#100000
0J
0$
#120000
b10 B
b1 E
1J
1$
b1110010001101000011110110101110111010110110001010010111101000000011000010101111000010010111011101010100000010 R
b1110010001101000011110110101110111010110110001010010111101000000011000010101111000010010111011101010100000010 4
b1110010001101000011110110101110111010110110001010010111101000000011000010101111000010010111011101010100000010 9
b1110010001101000011110110101110111010110110001010010111101000000011000010101111000010010111011101010100000010 I
b1000100100110100111000011111101010001000000000001011110011110110001111111101000010100110101111010 L
b1000100100110100111000011111101010001000000000001011110011110110001111111101000010100110101111010 ,
b1000100100110100111000011111101010001000000000001011110011110110001111111101000010100110101111010 8
b1000100100110100111000011111101010001000000000001011110011110110001111111101000010100110101111010 H
#140000
0J
0$
#160000
b10001 ;
b10001 #
1>
1*
b10011000010001011010011110010011111001001000001101110100110101011001011000111110101101110100100111000101011000 ?
b10011000010001011010011110010011111001001000001101110100110101011001011000111110101101110100100111000101011000 -
1:
1!
b11 E
b11 B
1J
1$
b10011000010001011010011110010011111001001000001101110100110101011001011000111110101101110100100111000101011000 R
b10011000010001011010011110010011111001001000001101110100110101011001011000111110101101110100100111000101011000 4
b10011000010001011010011110010011111001001000001101110100110101011001011000111110101101110100100111000101011000 9
b10011000010001011010011110010011111001001000001101110100110101011001011000111110101101110100100111000101011000 I
b1011011011110001001011010100111000001010101010111010011010011101101010100110101110001000111111000 L
b1011011011110001001011010100111000001010101010111010011010011101101010100110101110001000111111000 ,
b1011011011110001001011010100111000001010101010111010011010011101101010100110101110001000111111000 8
b1011011011110001001011010100111000001010101010111010011010011101101010100110101110001000111111000 H
b10001 P
b10001 "
b10001 7
b10001 G
1O
16
#180000
0J
0$
#200000
b0 ;
b0 #
1<
1'
0>
0*
b0 ?
b0 -
1J
1$
b10111110010101110001000101111000110111011010010001010010000010101111101111001110011001010001110000110110101110 R
b10111110010101110001000101111000110111011010010001010010000010101111101111001110011001010001110000110110101110 4
b10111110010101110001000101111000110111011010010001010010000010101111101111001110011001010001110000110110101110 9
b10111110010101110001000101111000110111011010010001010010000010101111101111001110011001010001110000110110101110 I
b1110010010101101011110001010000110001101010101101001000001000101000101010000011001101011001110110 L
b1110010010101101011110001010000110001101010101101001000001000101000101010000011001101011001110110 ,
b1110010010101101011110001010000110001101010101101001000001000101000101010000011001101011001110110 8
b1110010010101101011110001010000110001101010101101001000001000101000101010000011001101011001110110 H
1S
1+
#220000
0J
0$
#240000
1J
1$
b11100100011010000111101101011101110101101100010100101111010000000110000101011110000100101110111010101000000100 R
b11100100011010000111101101011101110101101100010100101111010000000110000101011110000100101110111010101000000100 4
b11100100011010000111101101011101110101101100010100101111010000000110000101011110000100101110111010101000000100 9
b11100100011010000111101101011101110101101100010100101111010000000110000101011110000100101110111010101000000100 I
b10001001001101001110000111111010100010000000000010111100111101100011111111010000101001101011110100 L
b10001001001101001110000111111010100010000000000010111100111101100011111111010000101001101011110100 ,
b10001001001101001110000111111010100010000000000010111100111101100011111111010000101001101011110100 8
b10001001001101001110000111111010100010000000000010111100111101100011111111010000101001101011110100 H
0S
0+
b10010 P
b10010 "
b10010 7
b10010 G
#260000
0J
0$
#280000
0<
0'
0:
0!
b1 E
b1 B
1J
1$
b100001010011110011110010101000010110011111110011000001100011101011100011011101101110000001100000100011001011010 R
b100001010011110011110010101000010110011111110011000001100011101011100011011101101110000001100000100011001011010 4
b100001010011110011110010101000010110011111110011000001100011101011100011011101101110000001100000100011001011010 9
b100001010011110011110010101000010110011111110011000001100011101011100011011101101110000001100000100011001011010 I
b10100000000100110000011110100100010010010101011000110001110010011111010100011110000101111101110010 L
b10100000000100110000011110100100010010010101011000110001110010011111010100011110000101111101110010 ,
b10100000000100110000011110100100010010010101011000110001110010011111010100011110000101111101110010 8
b10100000000100110000011110100100010010010101011000110001110010011111010100011110000101111101110010 H
0O
06
0Q
03
#300000
0J
0$
#320000
1J
1$
b100110000100010110100111100100111110010010000011011101001101010110010110001111101011011101001001110001010110000 R
b100110000100010110100111100100111110010010000011011101001101010110010110001111101011011101001001110001010110000 4
b100110000100010110100111100100111110010010000011011101001101010110010110001111101011011101001001110001010110000 9
b100110000100010110100111100100111110010010000011011101001101010110010110001111101011011101001001110001010110000 I
b10110110111100010010110101001110000010101010101110100110100111011010101001101011100010001111110000 L
b10110110111100010010110101001110000010101010101110100110100111011010101001101011100010001111110000 ,
b10110110111100010010110101001110000010101010101110100110100111011010101001101011100010001111110000 8
b10110110111100010010110101001110000010101010101110100110100111011010101001101011100010001111110000 H
#340000
0J
0$
#350000
1M
1%
#360000
b10010 ;
b10010 #
b11001101110011110101001011110111110011000000000100011011011100010101111110111000111110100001101110 F
b11001101110011110101001011110111110011000000000100011011011100010101111110111000111110100001101110 5
1=
1(
1:
1!
b10 E
b10 B
1J
1$
b101010110100111001011100100001100110000100010011111000110111000001001001000001101000111000110010111111100000110 R
b101010110100111001011100100001100110000100010011111000110111000001001001000001101000111000110010111111100000110 4
b101010110100111001011100100001100110000100010011111000110111000001001001000001101000111000110010111111100000110 9
b101010110100111001011100100001100110000100010011111000110111000001001001000001101000111000110010111111100000110 I
b11001101110011110101001011110111110011000000000100011011011100010101111110111000111110100001101110 L
b11001101110011110101001011110111110011000000000100011011011100010101111110111000111110100001101110 ,
b11001101110011110101001011110111110011000000000100011011011100010101111110111000111110100001101110 8
b11001101110011110101001011110111110011000000000100011011011100010101111110111000111110100001101110 H
1Q
13
#380000
0J
0$
#390000
0M
0%
#400000
b0 ;
b0 #
b0 F
b0 5
1<
1'
0=
0(
1J
1$
b101111100101011100010001011110001101110110100100010100100000101011111011110011100110010100011100001101101011100 R
b101111100101011100010001011110001101110110100100010100100000101011111011110011100110010100011100001101101011100 4
b101111100101011100010001011110001101110110100100010100100000101011111011110011100110010100011100001101101011100 9
b101111100101011100010001011110001101110110100100010100100000101011111011110011100110010100011100001101101011100 I
b11100100101011010111100010100001100011010101011010010000010001010001010100000110011010110011101100 L
b11100100101011010111100010100001100011010101011010010000010001010001010100000110011010110011101100 ,
b11100100101011010111100010100001100011010101011010010000010001010001010100000110011010110011101100 8
b11100100101011010111100010100001100011010101011010010000010001010001010100000110011010110011101100 H
b10001 P
b10001 "
b10001 7
b10001 G
1N
1&
#420000
0J
0$
#440000
b11 E
b11 B
1<
1'
1J
1$
b110100010101111111000110011010110101101000110100110000001010010110101110100101100011110000000101011011110110010 R
b110100010101111111000110011010110101101000110100110000001010010110101110100101100011110000000101011011110110010 4
b110100010101111111000110011010110101101000110100110000001010010110101110100101100011110000000101011011110110010 9
b110100010101111111000110011010110101101000110100110000001010010110101110100101100011110000000101011011110110010 I
b11111011100010111001111001001011010011101010110000000101000110001100101001010011110111000101101010 L
b11111011100010111001111001001011010011101010110000000101000110001100101001010011110111000101101010 ,
b11111011100010111001111001001011010011101010110000000101000110001100101001010011110111000101101010 8
b11111011100010111001111001001011010011101010110000000101000110001100101001010011110111000101101010 H
1O
16
1S
1+
#450000
0N
0&
#460000
0J
0$
#480000
1J
1$
b111001000110100001111011010111011101011011000101001011110100000001100001010111100001001011101110101010000001000 R
b111001000110100001111011010111011101011011000101001011110100000001100001010111100001001011101110101010000001000 4
b111001000110100001111011010111011101011011000101001011110100000001100001010111100001001011101110101010000001000 9
b111001000110100001111011010111011101011011000101001011110100000001100001010111100001001011101110101010000001000 I
b100010010011010011100001111110101000100000000000101111001111011000111111110100001010011010111101000 L
b100010010011010011100001111110101000100000000000101111001111011000111111110100001010011010111101000 ,
b100010010011010011100001111110101000100000000000101111001111011000111111110100001010011010111101000 8
b100010010011010011100001111110101000100000000000101111001111011000111111110100001010011010111101000 H
0S
0+
b10010 P
b10010 "
b10010 7
b10010 G
#500000
0J
0$
#520000
1J
1$
b111101110111000100110000010100000101001101010101100111011101101100010100001001011110100111010111111000001011110 R
b111101110111000100110000010100000101001101010101100111011101101100010100001001011110100111010111111000001011110 4
b111101110111000100110000010100000101001101010101100111011101101100010100001001011110100111010111111000001011110 9
b111101110111000100110000010100000101001101010101100111011101101100010100001001011110100111010111111000001011110 I
b100101001010001111110100110011110110100010101011011101110110000000011010011101110101111101001100110 L
b100101001010001111110100110011110110100010101011011101110110000000011010011101110101111101001100110 ,
b100101001010001111110100110011110110100010101011011101110110000000011010011101110101111101001100110 8
b100101001010001111110100110011110110100010101011011101110110000000011010011101110101111101001100110 H
#540000
0J
0$
#560000
0<
0'
0:
0!
b1 E
b1 B
1J
1$
b1000010100111100111100101010000101100111111100110000011000111010111000110111011011100000011000001000110010110100 R
b1000010100111100111100101010000101100111111100110000011000111010111000110111011011100000011000001000110010110100 4
b1000010100111100111100101010000101100111111100110000011000111010111000110111011011100000011000001000110010110100 9
b1000010100111100111100101010000101100111111100110000011000111010111000110111011011100000011000001000110010110100 I
b101000000001001100000111101001000100100101010110001100011100100111110101000111100001011111011100100 L
b101000000001001100000111101001000100100101010110001100011100100111110101000111100001011111011100100 ,
b101000000001001100000111101001000100100101010110001100011100100111110101000111100001011111011100100 8
b101000000001001100000111101001000100100101010110001100011100100111110101000111100001011111011100100 H
0O
06
0Q
03
#580000
0J
0$
#600000
1J
1$
b1000111011000001010011010001101010100110001110110011110110001000001111001101101011001011110101010010100100001010 R
b1000111011000001010011010001101010100110001110110011110110001000001111001101101011001011110101010010100100001010 4
b1000111011000001010011010001101010100110001110110011110110001000001111001101101011001011110101010010100100001010 9
b1000111011000001010011010001101010100110001110110011110110001000001111001101101011001011110101010010100100001010 I
b101010111000001000011010011110010010101000000000111011000011001111001111110001001101000001101100010 L
b101010111000001000011010011110010010101000000000111011000011001111001111110001001101000001101100010 ,
b101010111000001000011010011110010010101000000000111011000011001111001111110001001101000001101100010 8
b101010111000001000011010011110010010101000000000111011000011001111001111110001001101000001101100010 H
#620000
0J
0$
#640000
1<
1'
1:
1!
b10 E
b10 B
1J
1$
b1001100001000101101001111001001111100100100000110111010011010101100101100011111010110111010010011100010101100000 R
b1001100001000101101001111001001111100100100000110111010011010101100101100011111010110111010010011100010101100000 4
b1001100001000101101001111001001111100100100000110111010011010101100101100011111010110111010010011100010101100000 9
b1001100001000101101001111001001111100100100000110111010011010101100101100011111010110111010010011100010101100000 I
b101101101111000100101101010011100000101010101011101001101001110110101010011010111000100011111100000 L
b101101101111000100101101010011100000101010101011101001101001110110101010011010111000100011111100000 ,
b101101101111000100101101010011100000101010101011101001101001110110101010011010111000100011111100000 8
b101101101111000100101101010011100000101010101011101001101001110110101010011010111000100011111100000 H
1Q
13
b10001 P
b10001 "
b10001 7
b10001 G
#660000
0J
0$
#680000
1<
1'
1J
1$
b1010000111001010000000100000110100100010110010111010110000100010111011111010001010100010101111100110000110110110 R
b1010000111001010000000100000110100100010110010111010110000100010111011111010001010100010101111100110000110110110 4
b1010000111001010000000100000110100100010110010111010110000100010111011111010001010100010101111100110000110110110 9
b1010000111001010000000100000110100100010110010111010110000100010111011111010001010100010101111100110000110110110 I
b110000100110000001000000001000101110101101010110011000010000011110000101000100100100000110001011110 L
b110000100110000001000000001000101110101101010110011000010000011110000101000100100100000110001011110 ,
b110000100110000001000000001000101110101101010110011000010000011110000101000100100100000110001011110 8
b110000100110000001000000001000101110101101010110011000010000011110000101000100100100000110001011110 H
1S
1+
#700000
0J
0$
#720000
b11 E
b0 ;
b0 #
b0 F
b0 5
0=
0(
1<
1'
b11 B
1J
1$
b1010101101001110010111001000011001100001000100111110001101110000010010010000011010001110001100101111111000001100 R
b1010101101001110010111001000011001100001000100111110001101110000010010010000011010001110001100101111111000001100 4
b1010101101001110010111001000011001100001000100111110001101110000010010010000011010001110001100101111111000001100 9
b1010101101001110010111001000011001100001000100111110001101110000010010010000011010001110001100101111111000001100 I
b110011011100111101010010111101111100110000000001000110110111000101011111101110001111101000011011100 L
b110011011100111101010010111101111100110000000001000110110111000101011111101110001111101000011011100 ,
b110011011100111101010010111101111100110000000001000110110111000101011111101110001111101000011011100 8
b110011011100111101010010111101111100110000000001000110110111000101011111101110001111101000011011100 H
0S
0+
b10010 P
b10010 "
b10010 7
b10010 G
1O
16
#740000
0J
0$
1M
1%
#760000
1J
1$
b1011010011010010101101101111111110011111010111000001101010111101101000100110101001111001101001111001101001100010 R
b1011010011010010101101101111111110011111010111000001101010111101101000100110101001111001101001111001101001100010 4
b1011010011010010101101101111111110011111010111000001101010111101101000100110101001111001101001111001101001100010 9
b1011010011010010101101101111111110011111010111000001101010111101101000100110101001111001101001111001101001100010 I
b110110010011111001100101110011001010110010101011110101011101101100111010010111111011001010101011010 L
b110110010011111001100101110011001010110010101011110101011101101100111010010111111011001010101011010 ,
b110110010011111001100101110011001010110010101011110101011101101100111010010111111011001010101011010 8
b110110010011111001100101110011001010110010101011110101011101101100111010010111111011001010101011010 H
#780000
0J
0$
0M
0%
#800000
1J
1$
b1011111001010111000100010111100011011101101001000101001000001010111110111100111001100101000111000011011010111000 R
b1011111001010111000100010111100011011101101001000101001000001010111110111100111001100101000111000011011010111000 4
b1011111001010111000100010111100011011101101001000101001000001010111110111100111001100101000111000011011010111000 9
b1011111001010111000100010111100011011101101001000101001000001010111110111100111001100101000111000011011010111000 I
b111001001010110101111000101000011000110101010110100100000100010100010101000001100110101100111011000 L
b111001001010110101111000101000011000110101010110100100000100010100010101000001100110101100111011000 ,
b111001001010110101111000101000011000110101010110100100000100010100010101000001100110101100111011000 8
b111001001010110101111000101000011000110101010110100100000100010100010101000001100110101100111011000 H
#820000
0J
0$
#840000
0<
0'
0:
0!
b1 E
b1 B
1J
1$
b1100011111011011011010111111001000011011111011001000100101011000010101010011001001010000100100001101001100001110 R
b1100011111011011011010111111001000011011111011001000100101011000010101010011001001010000100100001101001100001110 4
b1100011111011011011010111111001000011011111011001000100101011000010101010011001001010000100100001101001100001110 9
b1100011111011011011010111111001000011011111011001000100101011000010101010011001001010000100100001101001100001110 I
b111100000001110010001011011101100110111000000001010010101010111011101111101011010010001111001010110 L
b111100000001110010001011011101100110111000000001010010101010111011101111101011010010001111001010110 ,
b111100000001110010001011011101100110111000000001010010101010111011101111101011010010001111001010110 8
b111100000001110010001011011101100110111000000001010010101010111011101111101011010010001111001010110 H
0O
06
0Q
03
#850000
1N
1&
#860000
0J
0$
#880000
1J
1$
b1101000101011111110001100110101101011010001101001100000010100101101011101001011000111100000001010110111101100100 R
b1101000101011111110001100110101101011010001101001100000010100101101011101001011000111100000001010110111101100100 4
b1101000101011111110001100110101101011010001101001100000010100101101011101001011000111100000001010110111101100100 9
b1101000101011111110001100110101101011010001101001100000010100101101011101001011000111100000001010110111101100100 I
b111110111000101110011110010010110100111010101100000001010001100011001010010100111101110001011010100 L
b111110111000101110011110010010110100111010101100000001010001100011001010010100111101110001011010100 ,
b111110111000101110011110010010110100111010101100000001010001100011001010010100111101110001011010100 8
b111110111000101110011110010010110100111010101100000001010001100011001010010100111101110001011010100 H
b10001 P
b10001 "
b10001 7
b10001 G
#900000
0J
0$
0N
0&
#920000
1<
1'
1:
1!
b10 E
b10 B
1J
1$
b1101101011100100001000001110010010011000011111001111011111110011000001111111101000100111011110100000101110111010 R
b1101101011100100001000001110010010011000011111001111011111110011000001111111101000100111011110100000101110111010 4
b1101101011100100001000001110010010011000011111001111011111110011000001111111101000100111011110100000101110111010 9
b1101101011100100001000001110010010011000011111001111011111110011000001111111101000100111011110100000101110111010 I
b1000001101111101010110001001000000010111101010110101111111000001010100100111110101001010011101010010 L
b1000001101111101010110001001000000010111101010110101111111000001010100100111110101001010011101010010 ,
b1000001101111101010110001001000000010111101010110101111111000001010100100111110101001010011101010010 8
b1000001101111101010110001001000000010111101010110101111111000001010100100111110101001010011101010010 H
1Q
13
1S
1+
#940000
0J
0$
#960000
b10010 ;
b10010 #
b1000100100110100111000011111101010001000000000001011110011110110001111111101000010100110101111010000 F
b1000100100110100111000011111101010001000000000001011110011110110001111111101000010100110101111010000 5
1=
1(
0<
0'
1J
1$
b1110010001101000011110110101110111010110110001010010111101000000011000010101111000010010111011101010100000010000 R
b1110010001101000011110110101110111010110110001010010111101000000011000010101111000010010111011101010100000010000 4
b1110010001101000011110110101110111010110110001010010111101000000011000010101111000010010111011101010100000010000 9
b1110010001101000011110110101110111010110110001010010111101000000011000010101111000010010111011101010100000010000 I
b1000100100110100111000011111101010001000000000001011110011110110001111111101000010100110101111010000 L
b1000100100110100111000011111101010001000000000001011110011110110001111111101000010100110101111010000 ,
b1000100100110100111000011111101010001000000000001011110011110110001111111101000010100110101111010000 8
b1000100100110100111000011111101010001000000000001011110011110110001111111101000010100110101111010000 H
0S
0+
b10010 P
b10010 "
b10010 7
b10010 G
#980000
0J
0$
#1000000
b11 E
b11 B
b0 ;
b0 #
b0 F
b0 5
1<
1'
0=
0(
1J
1$
b1110110111101100110101011101011100010101000011010110011010001101101110101100000111111110011000110100010001100110 R
b1110110111101100110101011101011100010101000011010110011010001101101110101100000111111110011000110100010001100110 4
b1110110111101100110101011101011100010101000011010110011010001101101110101100000111111110011000110100010001100110 9
b1110110111101100110101011101011100010101000011010110011010001101101110101100000111111110011000110100010001100110 I
b1000111011101100011010110110010011111000010101100001101000101011001011010010010000000011000001001110 L
b1000111011101100011010110110010011111000010101100001101000101011001011010010010000000011000001001110 ,
b1000111011101100011010110110010011111000010101100001101000101011001011010010010000000011000001001110 8
b1000111011101100011010110110010011111000010101100001101000101011001011010010010000000011000001001110 H
1O
16
1T
1)
#1020000
0J
0$
#1040000
1J
1$
b1111011101110001001100000101000001010011010101011001110111011011000101000010010111101001110101111110000010111100 R
b1111011101110001001100000101000001010011010101011001110111011011000101000010010111101001110101111110000010111100 4
b1111011101110001001100000101000001010011010101011001110111011011000101000010010111101001110101111110000010111100 9
b1111011101110001001100000101000001010011010101011001110111011011000101000010010111101001110101111110000010111100 I
b1001010010100011111101001100111101101000101010110111011101100000000110100111011101011111010011001100 L
b1001010010100011111101001100111101101000101010110111011101100000000110100111011101011111010011001100 ,
b1001010010100011111101001100111101101000101010110111011101100000000110100111011101011111010011001100 8
b1001010010100011111101001100111101101000101010110111011101100000000110100111011101011111010011001100 H
#1060000
0J
0$
#1080000
1J
1$
b10000000011110101100010101100100110010001100111011101010100101000011011011000100111010101010011000111110100010010 R
b10000000011110101100010101100100110010001100111011101010100101000011011011000100111010101010011000111110100010010 4
b10000000011110101100010101100100110010001100111011101010100101000011011011000100111010101010011000111110100010010 9
b10000000011110101100010101100100110010001100111011101010100101000011011011000100111010101010011000111110100010010 I
b1001101001011011011111100011100111011001000000001101010010010101000001111100101010111011100101001010 L
b1001101001011011011111100011100111011001000000001101010010010101000001111100101010111011100101001010 ,
b1001101001011011011111100011100111011001000000001101010010010101000001111100101010111011100101001010 8
b1001101001011011011111100011100111011001000000001101010010010101000001111100101010111011100101001010 H
#1100000
0J
0$
#1120000
0:
0!
b1 E
b0 ;
b0 #
0<
0'
0>
0*
b0 ?
b0 -
b1 B
1J
1$
b10000101001111001111001010100001011001111111001100000110001110101110001101110110111000000110000010001100101101000 R
b10000101001111001111001010100001011001111111001100000110001110101110001101110110111000000110000010001100101101000 4
b10000101001111001111001010100001011001111111001100000110001110101110001101110110111000000110000010001100101101000 9
b10000101001111001111001010100001011001111111001100000110001110101110001101110110111000000110000010001100101101000 I
b1010000000010011000001111010010001001001010101100011000111001001111101010001111000010111110111001000 L
b1010000000010011000001111010010001001001010101100011000111001001111101010001111000010111110111001000 ,
b1010000000010011000001111010010001001001010101100011000111001001111101010001111000010111110111001000 8
b1010000000010011000001111010010001001001010101100011000111001001111101010001111000010111110111001000 H
b10001 P
b10001 "
b10001 7
b10001 G
0O
06
0T
0)
0Q
03
#1130000
1M
1%
#1140000
0J
0$
#1160000
1J
1$
b10001001111111110001111111011110000001110001011100100001111000011001000000101000110101100001101011011010110111110 R
b10001001111111110001111111011110000001110001011100100001111000011001000000101000110101100001101011011010110111110 4
b10001001111111110001111111011110000001110001011100100001111000011001000000101000110101100001101011011010110111110 9
b10001001111111110001111111011110000001110001011100100001111000011001000000101000110101100001101011011010110111110 I
b1010010111001010100100010000111010111001101010111000111011111110111000100111000101110100001001000110 L
b1010010111001010100100010000111010111001101010111000111011111110111000100111000101110100001001000110 ,
b1010010111001010100100010000111010111001101010111000111011111110111000100111000101110100001001000110 8
b1010010111001010100100010000111010111001101010111000111011111110111000100111000101110100001001000110 H
1S
1+
#1170000
0M
0%
#1180000
0J
0$
#1200000
b10010 ;
b10010 #
b1010101110000010000110100111100100101010000000001110110000110011110011111100010011010000011011000100 F
b1010101110000010000110100111100100101010000000001110110000110011110011111100010011010000011011000100 5
1=
1(
1:
1!
b10 E
b10 B
1J
1$
b10001110110000010100110100011010101001100011101100111101100010000011110011011010110010111101010100101001000010100 R
b10001110110000010100110100011010101001100011101100111101100010000011110011011010110010111101010100101001000010100 4
b10001110110000010100110100011010101001100011101100111101100010000011110011011010110010111101010100101001000010100 9
b10001110110000010100110100011010101001100011101100111101100010000011110011011010110010111101010100101001000010100 I
b1010101110000010000110100111100100101010000000001110110000110011110011111100010011010000011011000100 L
b1010101110000010000110100111100100101010000000001110110000110011110011111100010011010000011011000100 ,
b1010101110000010000110100111100100101010000000001110110000110011110011111100010011010000011011000100 8
b1010101110000010000110100111100100101010000000001110110000110011110011111100010011010000011011000100 H
1Q
13
0S
0+
b10010 P
b10010 "
b10010 7
b10010 G
#1220000
0J
0$
#1240000
b1011000100111001101000111110001110011010010101100100100101101000101111010001100000101100101101000010 F
b1011000100111001101000111110001110011010010101100100100101101000101111010001100000101100101101000010 5
1J
1$
b10010011100000110111101001010111010001010101111101011001001011101110100110001100110000011000111101110111001101010 R
b10010011100000110111101001010111010001010101111101011001001011101110100110001100110000011000111101110111001101010 4
b10010011100000110111101001010111010001010101111101011001001011101110100110001100110000011000111101110111001101010 9
b10010011100000110111101001010111010001010101111101011001001011101110100110001100110000011000111101110111001101010 I
b1011000100111001101000111110001110011010010101100100100101101000101111010001100000101100101101000010 L
b1011000100111001101000111110001110011010010101100100100101101000101111010001100000101100101101000010 ,
b1011000100111001101000111110001110011010010101100100100101101000101111010001100000101100101101000010 8
b1011000100111001101000111110001110011010010101100100100101101000101111010001100000101100101101000010 H
#1260000
0J
0$
#1280000
b0 ;
b0 #
1<
1'
0=
0(
b11 E
b0 F
b0 5
b11 B
1J
1$
b10011000010001011010011110010011111001001000001101110100110101011001011000111110101101110100100111000101011000000 R
b10011000010001011010011110010011111001001000001101110100110101011001011000111110101101110100100111000101011000000 4
b10011000010001011010011110010011111001001000001101110100110101011001011000111110101101110100100111000101011000000 9
b10011000010001011010011110010011111001001000001101110100110101011001011000111110101101110100100111000101011000000 I
b1011011011110001001011010100111000001010101010111010011010011101101010100110101110001000111111000000 L
b1011011011110001001011010100111000001010101010111010011010011101101010100110101110001000111111000000 ,
b1011011011110001001011010100111000001010101010111010011010011101101010100110101110001000111111000000 8
b1011011011110001001011010100111000001010101010111010011010011101101010100110101110001000111111000000 H
1O
16
#1300000
0J
0$
1N
1&
#1320000
1J
1$
b10011101000001111101010011010000100000111010011110010000011111000100001011110000101011010000010000010011100010110 R
b10011101000001111101010011010000100000111010011110010000011111000100001011110000101011010000010000010011100010110 4
b10011101000001111101010011010000100000111010011110010000011111000100001011110000101011010000010000010011100010110 9
b10011101000001111101010011010000100000111010011110010000011111000100001011110000101011010000010000010011100010110 I
b1011110010101000101101101011100001111011000000010000001111010010100101111011111011100101010000111110 L
b1011110010101000101101101011100001111011000000010000001111010010100101111011111011100101010000111110 ,
b1011110010101000101101101011100001111011000000010000001111010010100101111011111011100101010000111110 8
b1011110010101000101101101011100001111011000000010000001111010010100101111011111011100101010000111110 H
#1340000
0J
0$
#1350000
0N
0&
#1360000
b10001 ;
b10001 #
0<
0'
1>
1*
b10100001110010100000001000001101001000101100101110101100001000101110111110100010101000101011111001100001101101100 ?
b10100001110010100000001000001101001000101100101110101100001000101110111110100010101000101011111001100001101101100 -
1J
1$
b10100001110010100000001000001101001000101100101110101100001000101110111110100010101000101011111001100001101101100 R
b10100001110010100000001000001101001000101100101110101100001000101110111110100010101000101011111001100001101101100 4
b10100001110010100000001000001101001000101100101110101100001000101110111110100010101000101011111001100001101101100 9
b10100001110010100000001000001101001000101100101110101100001000101110111110100010101000101011111001100001101101100 I
b1100001001100000010000000010001011101011010101100110000100000111100001010001001001000001100010111100 L
b1100001001100000010000000010001011101011010101100110000100000111100001010001001001000001100010111100 ,
b1100001001100000010000000010001011101011010101100110000100000111100001010001001001000001100010111100 8
b1100001001100000010000000010001011101011010101100110000100000111100001010001001001000001100010111100 H
b10001 P
b10001 "
b10001 7
b10001 G
#1380000
0J
0$
