testbench/writeRegisters.vcd
$date
	Fri Jul  1 15:12:35 2016
$end
$version
	Icarus Verilog
$end
$timescale
	1ps
$end
$scope module TestBench $end
$var wire 5 ! adr_i [4:0] $end
$var wire 32 " argument [31:0] $end
$var wire 16 # block_count [15:0] $end
$var wire 12 $ block_size [11:0] $end
$var wire 1 % clock $end
$var wire 16 & command [15:0] $end
$var wire 1 ' command_complete $end
$var wire 128 ( data_i [127:0] $end
$var wire 128 ) data_o [127:0] $end
$var wire 16 * error_interrupt_status_i [15:0] $end
$var wire 16 + error_interrupt_status_o [15:0] $end
$var wire 16 , normal_interrupt_status_i [15:0] $end
$var wire 16 - present_state [15:0] $end
$var wire 1 . reg_read_en $end
$var wire 1 / reg_write_en $end
$var wire 1 0 reset $end
$var wire 128 1 response_i [127:0] $end
$var wire 3 2 software_reset [2:0] $end
$var wire 16 3 timeout_control [15:0] $end
$var wire 16 4 transfer_mode [15:0] $end
$scope module regs $end
$var wire 5 5 adr_i [4:0] $end
$var wire 1 % clock $end
$var wire 1 ' command_complete $end
$var wire 128 6 data_i [127:0] $end
$var wire 16 7 error_interrupt_status_i [15:0] $end
$var wire 16 8 normal_interrupt_status_i [15:0] $end
$var wire 1 . reg_read_en $end
$var wire 1 / reg_write_en $end
$var wire 1 0 reset $end
$var wire 128 9 response_i [127:0] $end
$var reg 32 : argument [31:0] $end
$var reg 16 ; block_count [15:0] $end
$var reg 12 < block_size [11:0] $end
$var reg 16 = command [15:0] $end
$var reg 128 > data_o [127:0] $end
$var reg 16 ? error_interrupt_signal_enable [15:0] $end
$var reg 16 @ error_interrupt_status_enable [15:0] $end
$var reg 16 A error_interrupt_status_o [15:0] $end
$var reg 16 B host_controller_version [15:0] $end
$var reg 16 C normal_interrupt_signal_enable [15:0] $end
$var reg 16 D normal_interrupt_status [15:0] $end
$var reg 16 E normal_interrupt_status_enable [15:0] $end
$var reg 16 F present_state [15:0] $end
$var reg 128 G response [127:0] $end
$var reg 3 H software_reset [2:0] $end
$var reg 16 I timeout_control [15:0] $end
$var reg 16 J transfer_mode [15:0] $end
$upscope $end
$scope module genReg $end
$var wire 5 K adr_i [4:0] $end
$var wire 1 % clock $end
$var wire 1 ' command_complete $end
$var wire 128 L data_i [127:0] $end
$var wire 16 M error_interrupt_status_i [15:0] $end
$var wire 16 N normal_interrupt_status_i [15:0] $end
$var wire 1 . reg_read_en $end
$var wire 1 / reg_write_en $end
$var wire 1 0 reset $end
$var wire 128 O response_i [127:0] $end
$scope module clk1 $end
$var reg 1 P clock $end
$upscope $end
$scope module r1 $end
$var reg 1 Q reset $end
$upscope $end
$scope module adrg $end
$var reg 5 R adr_in [4:0] $end
$upscope $end
$scope module rweg $end
$var reg 1 S reg_write_en $end
$upscope $end
$scope module rreg $end
$var reg 1 T reg_read_en $end
$upscope $end
$scope module ccg $end
$var reg 1 U command_complete $end
$upscope $end
$scope module datag $end
$var reg 128 V data_i [127:0] $end
$upscope $end
$scope module rig $end
$var reg 128 W response_i [127:0] $end
$upscope $end
$scope module eisg $end
$var reg 16 X error_interrupt_status_i [15:0] $end
$upscope $end
$scope module nisg $end
$var reg 16 Y normal_interrupt_status_i [15:0] $end
$upscope $end
$upscope $end
$upscope $end
$enddefinitions $end
#0
$dumpvars
b0 Y
b0 X
b0 W
b0 V
0U
0T
0S
bx R
0Q
0P
b0 O
b0 N
b0 M
b0 L
bx K
bx J
bx I
bx H
bx G
bx F
bx E
bx D
bx C
bx B
bx A
bx @
bx ?
bx >
bx =
bx <
bx ;
bx :
b0 9
b0 8
b0 7
b0 6
bx 5
bx 4
bx 3
bx 2
b0 1
00
0/
0.
bx -
b0 ,
bx +
b0 *
bx )
b0 (
0'
bx &
0%
bx $
bx #
bx "
bx !
$end
#40000
1P
1%
b10 V
b10 (
b10 6
b10 L
#60000
0P
0%
1Q
10
#80000
b0 B
b0 ?
b0 C
b0 @
b0 E
b0 D
b0 G
b0 >
b0 )
b0 A
b0 +
b0 H
b0 2
b0 I
b0 3
b0 F
b0 -
b0 =
b0 &
b0 J
b0 4
b0 :
b0 "
b0 ;
b0 #
b0 <
b0 $
1P
1%
b100 V
b100 (
b100 6
b100 L
#100000
0P
0%
b1001 Y
b1001 ,
b1001 8
b1001 N
b111 X
b111 *
b111 7
b111 M
#120000
b110 <
b110 $
1P
1%
b110 V
b110 (
b110 6
b110 L
0Q
00
1S
1/
b0 R
b0 !
b0 5
b0 K
#140000
0P
0%
#160000
b1000 ;
b1000 #
1P
1%
b1000 V
b1000 (
b1000 6
b1000 L
b1 R
b1 !
b1 5
b1 K
#180000
0P
0%
#200000
b1010 :
b1010 "
1P
1%
b1010 V
b1010 (
b1010 6
b1010 L
b10 R
b10 !
b10 5
b10 K
b10010 Y
b10010 ,
b10010 8
b10010 N
b1110 X
b1110 *
b1110 7
b1110 M
b1010001100010101011110010011010010111001010111000111101001100100011110001001001000010011111111010100010101101110 W
b1010001100010101011110010011010010111001010111000111101001100100011110001001001000010011111111010100010101101110 1
b1010001100010101011110010011010010111001010111000111101001100100011110001001001000010011111111010100010101101110 9
b1010001100010101011110010011010010111001010111000111101001100100011110001001001000010011111111010100010101101110 O
#220000
0P
0%
#240000
b1100 J
b1100 4
1P
1%
b1100 V
b1100 (
b1100 6
b1100 L
b11 R
b11 !
b11 5
b11 K
#260000
0P
0%
#280000
b1110 =
b1110 &
1P
1%
b1110 V
b1110 (
b1110 6
b1110 L
b100 R
b100 !
b100 5
b100 K
#300000
0P
0%
b11011 Y
b11011 ,
b11011 8
b11011 N
b10101 X
b10101 *
b10101 7
b10101 M
#320000
1P
1%
b10000 V
b10000 (
b10000 6
b10000 L
b101 R
b101 !
b101 5
b101 K
#340000
0P
0%
#360000
1P
1%
b10010 V
b10010 (
b10010 6
b10010 L
b110 R
b110 !
b110 5
b110 K
#380000
0P
0%
#400000
b10100 I
b10100 3
1P
1%
b10100 V
b10100 (
b10100 6
b10100 L
b111 R
b111 !
b111 5
b111 K
b100100 Y
b100100 ,
b100100 8
b100100 N
b11100 X
b11100 *
b11100 7
b11100 M
b10100011000101010111100100110100101110010101110001111010011001000111100010010010000100111111110101000101011011100 W
b10100011000101010111100100110100101110010101110001111010011001000111100010010010000100111111110101000101011011100 1
b10100011000101010111100100110100101110010101110001111010011001000111100010010010000100111111110101000101011011100 9
b10100011000101010111100100110100101110010101110001111010011001000111100010010010000100111111110101000101011011100 O
#420000
0P
0%
#440000
b110 H
b110 2
1P
1%
b10110 V
b10110 (
b10110 6
b10110 L
b1000 R
b1000 !
b1000 5
b1000 K
#460000
0P
0%
#480000
1P
1%
b11000 V
b11000 (
b11000 6
b11000 L
b1001 R
b1001 !
b1001 5
b1001 K
#500000
0P
0%
b101101 Y
b101101 ,
b101101 8
b101101 N
b100011 X
b100011 *
b100011 7
b100011 M
#520000
b100011 A
b100011 +
1P
1%
b11010 V
b11010 (
b11010 6
b11010 L
b1010 R
b1010 !
b1010 5
b1010 K
#540000
0P
0%
#560000
b11100 E
1P
1%
b11100 V
b11100 (
b11100 6
b11100 L
b1011 R
b1011 !
b1011 5
b1011 K
#580000
0P
0%
#600000
b11110 @
1P
1%
b11110 V
b11110 (
b11110 6
b11110 L
b1100 R
b1100 !
b1100 5
b1100 K
b110110 Y
b110110 ,
b110110 8
b110110 N
b101010 X
b101010 *
b101010 7
b101010 M
b11110100101000000011010111001111000101100000101010110111100101101011010011011011000111011111101111101000001001010 W
b11110100101000000011010111001111000101100000101010110111100101101011010011011011000111011111101111101000001001010 1
b11110100101000000011010111001111000101100000101010110111100101101011010011011011000111011111101111101000001001010 9
b11110100101000000011010111001111000101100000101010110111100101101011010011011011000111011111101111101000001001010 O
#620000
0P
0%
#640000
b100000 C
1P
1%
b100000 V
b100000 (
b100000 6
b100000 L
b1101 R
b1101 !
b1101 5
b1101 K
#660000
0P
0%
#680000
b100010 ?
1P
1%
b100010 V
b100010 (
b100010 6
b100010 L
b1110 R
b1110 !
b1110 5
b1110 K
#700000
0P
0%
b111111 Y
b111111 ,
b111111 8
b111111 N
b110001 X
b110001 *
b110001 7
b110001 M
#720000
1P
1%
b100100 V
b100100 (
b100100 6
b100100 L
b1111 R
b1111 !
b1111 5
b1111 K
#740000
0P
0%
#760000
1P
1%
b100110 V
b100110 (
b100110 6
b100110 L
b0 R
b0 !
b0 5
b0 K
0S
0/
#780000
0P
0%
#800000
b1000 >
b1000 )
1P
1%
b101000 V
b101000 (
b101000 6
b101000 L
b1 R
b1 !
b1 5
b1 K
b1001000 Y
b1001000 ,
b1001000 8
b1001000 N
b111000 X
b111000 *
b111000 7
b111000 M
b101000110001010101111001001101001011100101011100011110100110010001111000100100100001001111111101010001010110111000 W
b101000110001010101111001001101001011100101011100011110100110010001111000100100100001001111111101010001010110111000 1
b101000110001010101111001001101001011100101011100011110100110010001111000100100100001001111111101010001010110111000 9
b101000110001010101111001001101001011100101011100011110100110010001111000100100100001001111111101010001010110111000 O
1T
1.
#820000
0P
0%
#840000
b1010 >
b1010 )
1P
1%
b101010 V
b101010 (
b101010 6
b101010 L
b10 R
b10 !
b10 5
b10 K
#860000
0P
0%
#880000
b1100 >
b1100 )
1P
1%
b101100 V
b101100 (
b101100 6
b101100 L
b11 R
b11 !
b11 5
b11 K
#900000
0P
0%
b1010001 Y
b1010001 ,
b1010001 8
b1010001 N
b111111 X
b111111 *
b111111 7
b111111 M
#920000
b1110 >
b1110 )
1P
1%
b101110 V
b101110 (
b101110 6
b101110 L
b100 R
b100 !
b100 5
b100 K
#940000
0P
0%
#960000
b0 >
b0 )
1P
1%
b110000 V
b110000 (
b110000 6
b110000 L
b101 R
b101 !
b101 5
b101 K
#980000
0P
0%
#1000000
1P
1%
b110010 V
b110010 (
b110010 6
b110010 L
b110 R
b110 !
b110 5
b110 K
b1011010 Y
b1011010 ,
b1011010 8
b1011010 N
b1000110 X
b1000110 *
b1000110 7
b1000110 M
b110010111101101011010111100000011110011110110011100110001111110110010110101101101001100011111100100101101100100110 W
b110010111101101011010111100000011110011110110011100110001111110110010110101101101001100011111100100101101100100110 1
b110010111101101011010111100000011110011110110011100110001111110110010110101101101001100011111100100101101100100110 9
b110010111101101011010111100000011110011110110011100110001111110110010110101101101001100011111100100101101100100110 O
#1020000
0P
0%
#1040000
b10100 >
b10100 )
1P
1%
b110100 V
b110100 (
b110100 6
b110100 L
b111 R
b111 !
b111 5
b111 K
#1060000
0P
0%
#1080000
b110 >
b110 )
1P
1%
b110110 V
b110110 (
b110110 6
b110110 L
b1000 R
b1000 !
b1000 5
b1000 K
#1100000
0P
0%
b1100011 Y
b1100011 ,
b1100011 8
b1100011 N
b1001101 X
b1001101 *
b1001101 7
b1001101 M
#1120000
b0 >
b0 )
1P
1%
b111000 V
b111000 (
b111000 6
b111000 L
b1001 R
b1001 !
b1001 5
b1001 K
#1140000
0P
0%
#1160000
b100011 >
b100011 )
1P
1%
b111010 V
b111010 (
b111010 6
b111010 L
b1010 R
b1010 !
b1010 5
b1010 K
#1180000
0P
0%
#1200000
b11100 >
b11100 )
1P
1%
b111100 V
b111100 (
b111100 6
b111100 L
b1011 R
b1011 !
b1011 5
b1011 K
b1101100 Y
b1101100 ,
b1101100 8
b1101100 N
b1010100 X
b1010100 *
b1010100 7
b1010100 M
b111101001010000000110101110011110001011000001010101101111001011010110100110110110001110111111011111010000010010100 W
b111101001010000000110101110011110001011000001010101101111001011010110100110110110001110111111011111010000010010100 1
b111101001010000000110101110011110001011000001010101101111001011010110100110110110001110111111011111010000010010100 9
b111101001010000000110101110011110001011000001010101101111001011010110100110110110001110111111011111010000010010100 O
#1220000
0P
0%
#1240000
b11110 >
b11110 )
1P
1%
b111110 V
b111110 (
b111110 6
b111110 L
b1100 R
b1100 !
b1100 5
b1100 K
#1260000
0P
0%
#1280000
b100000 >
b100000 )
1P
1%
b1000000 V
b1000000 (
b1000000 6
b1000000 L
b1101 R
b1101 !
b1101 5
b1101 K
#1300000
0P
0%
b1110101 Y
b1110101 ,
b1110101 8
b1110101 N
b1011011 X
b1011011 *
b1011011 7
b1011011 M
#1320000
b100010 >
b100010 )
1P
1%
b1000010 V
b1000010 (
b1000010 6
b1000010 L
b1110 R
b1110 !
b1110 5
b1110 K
#1340000
0P
0%
#1360000
b0 >
b0 )
1P
1%
b1000100 V
b1000100 (
b1000100 6
b1000100 L
b1111 R
b1111 !
b1111 5
b1111 K
#1380000
0P
0%
#1400000
b110 >
b110 )
1P
1%
b1000110 V
b1000110 (
b1000110 6
b1000110 L
b0 R
b0 !
b0 5
b0 K
b1111110 Y
b1111110 ,
b1111110 8
b1111110 N
b1100010 X
b1100010 *
b1100010 7
b1100010 M
b1000111010110010110010100000111000100010001100001110101100010111111010010111111111010001011111011001110011000000010 W
b1000111010110010110010100000111000100010001100001110101100010111111010010111111111010001011111011001110011000000010 1
b1000111010110010110010100000111000100010001100001110101100010111111010010111111111010001011111011001110011000000010 9
b1000111010110010110010100000111000100010001100001110101100010111111010010111111111010001011111011001110011000000010 O
#1420000
0P
0%
#1440000
b1000 >
b1000 )
1P
1%
b1001000 V
b1001000 (
b1001000 6
b1001000 L
b1 R
b1 !
b1 5
b1 K
#1460000
0P
0%
#1480000
b1010 >
b1010 )
1P
1%
b1001010 V
b1001010 (
b1001010 6
b1001010 L
b10 R
b10 !
b10 5
b10 K
#1500000
0P
0%
b10000111 Y
b10000111 ,
b10000111 8
b10000111 N
b1101001 X
b1101001 *
b1101001 7
b1101001 M
#1520000
b1100 >
b1100 )
1P
1%
b1001100 V
b1001100 (
b1001100 6
b1001100 L
b11 R
b11 !
b11 5
b11 K
#1540000
0P
0%
#1560000
b1110 >
b1110 )
1P
1%
b1001110 V
b1001110 (
b1001110 6
b1001110 L
b100 R
b100 !
b100 5
b100 K
#1580000
0P
0%
#1600000
b0 >
b0 )
1P
1%
b1010000 V
b1010000 (
b1010000 6
b1010000 L
b101 R
b101 !
b101 5
b101 K
b10010000 Y
b10010000 ,
b10010000 8
b10010000 N
b1110000 X
b1110000 *
b1110000 7
b1110000 M
b1010001100010101011110010011010010111001010111000111101001100100011110001001001000010011111111010100010101101110000 W
b1010001100010101011110010011010010111001010111000111101001100100011110001001001000010011111111010100010101101110000 1
b1010001100010101011110010011010010111001010111000111101001100100011110001001001000010011111111010100010101101110000 9
b1010001100010101011110010011010010111001010111000111101001100100011110001001001000010011111111010100010101101110000 O
#1620000
0P
0%
#1640000
1P
1%
b1010010 V
b1010010 (
b1010010 6
b1010010 L
b110 R
b110 !
b110 5
b110 K
#1660000
0P
0%
#1680000
b10100 >
b10100 )
1P
1%
b1010100 V
b1010100 (
b1010100 6
b1010100 L
b111 R
b111 !
b111 5
b111 K
#1700000
0P
0%
b10011001 Y
b10011001 ,
b10011001 8
b10011001 N
b1110111 X
b1110111 *
b1110111 7
b1110111 M
0T
0.
#1720000
1P
1%
b1010110 V
b1010110 (
b1010110 6
b1010110 L
b1000 R
b1000 !
b1000 5
b1000 K
#1740000
0P
0%
#1760000
1P
1%
b1011000 V
b1011000 (
b1011000 6
b1011000 L
b1001 R
b1001 !
b1001 5
b1001 K
#1780000
0P
0%
#1800000
b10100010 D
b1111110 A
b1111110 +
b1011011101111000001010000101101101010000100010000000100110110001000001111010010001010110011111001110111000011011110 G
1P
1%
b1011010 V
b1011010 (
b1011010 6
b1011010 L
b1010 R
b1010 !
b1010 5
b1010 K
b10100010 Y
b10100010 ,
b10100010 8
b10100010 N
b1111110 X
b1111110 *
b1111110 7
b1111110 M
b1011011101111000001010000101101101010000100010000000100110110001000001111010010001010110011111001110111000011011110 W
b1011011101111000001010000101101101010000100010000000100110110001000001111010010001010110011111001110111000011011110 1
b1011011101111000001010000101101101010000100010000000100110110001000001111010010001010110011111001110111000011011110 9
b1011011101111000001010000101101101010000100010000000100110110001000001111010010001010110011111001110111000011011110 O
1U
1'
#1820000
0P
0%
#1840000
1P
1%
b1011100 V
b1011100 (
b1011100 6
b1011100 L
b1011 R
b1011 !
b1011 5
b1011 K
#1860000
0P
0%
#1880000
1P
1%
b1011110 V
b1011110 (
b1011110 6
b1011110 L
b1100 R
b1100 !
b1100 5
b1100 K
#1900000
0P
0%
b10101011 Y
b10101011 ,
b10101011 8
b10101011 N
b10000101 X
b10000101 *
b10000101 7
b10000101 M
#1920000
b10101011 D
b10000101 A
b10000101 +
1P
1%
b1100000 V
b1100000 (
b1100000 6
b1100000 L
b1101 R
b1101 !
b1101 5
b1101 K
#1940000
0P
0%
#1960000
1P
1%
b1100010 V
b1100010 (
b1100010 6
b1100010 L
b1110 R
b1110 !
b1110 5
b1110 K
#1980000
0P
0%
#2000000
b10110100 D
b10001100 A
b10001100 +
b1100101111011010110101111000000111100111101100111001100011111101100101101011011010011000111111001001011011001001100 G
1P
1%
b1100100 V
b1100100 (
b1100100 6
b1100100 L
b1111 R
b1111 !
b1111 5
b1111 K
b10110100 Y
b10110100 ,
b10110100 8
b10110100 N
b10001100 X
b10001100 *
b10001100 7
b10001100 M
b1100101111011010110101111000000111100111101100111001100011111101100101101011011010011000111111001001011011001001100 W
b1100101111011010110101111000000111100111101100111001100011111101100101101011011010011000111111001001011011001001100 1
b1100101111011010110101111000000111100111101100111001100011111101100101101011011010011000111111001001011011001001100 9
b1100101111011010110101111000000111100111101100111001100011111101100101101011011010011000111111001001011011001001100 O
#2020000
0P
0%
#2040000
1P
1%
b1100110 V
b1100110 (
b1100110 6
b1100110 L
b0 R
b0 !
b0 5
b0 K
0U
0'
#2060000
0P
0%
#2080000
1P
1%
b1101000 V
b1101000 (
b1101000 6
b1101000 L
b1 R
b1 !
b1 5
b1 K
#2100000
0P
0%
b10111101 Y
b10111101 ,
b10111101 8
b10111101 N
b10010011 X
b10010011 *
b10010011 7
b10010011 M
