waveform/single_data_write.vcd
$date
	Sun Jun 26 17:36:05 2016
$end
$version
	GTKWave Analyzer v3.3.66 (w)1999-2015 BSI
$end
$timescale
	1ps
$end
$scope module TestBench $end
$scope module dat $end
$var wire 4 * blocks[3:0] $end
$upscope $end
$scope module sd $end
$var wire 1 ' serial $end
$var wire 9 % parallel[8:0] $end
$var wire 1 # load_send $end
$var wire 1 ) go $end
$var wire 1 ( complete $end
$var wire 1 + Reset $end
$var wire 1 & Clock $end
$var wire 1 $ Enable $end
$upscope $end
$scope module dat $end
$scope module dat1 $end
$var wire 4 , blockCount[3:0] $end
$var wire 1 - reception_complete $end
$upscope $end
$upscope $end
$var wire 1 " dat_pin $end
$upscope $end
$enddefinitions $end
$dumpvars
#0
0+
bx ,
0#
bx *
x'
x)
0&
0$
x"
b111001011 %
x-
x(
#5000
b0 *
#50000
1+
#52000
0(
b0 ,
1&
1)
z'
z"
#72000
0&
#92000
1&
0-
#112000
0&
#132000
1&
#152000
0&
#172000
1&
#192000
0&
#212000
1&
#232000
0&
#252000
1&
#272000
0&
#292000
1&
#312000
0&
#332000
1&
#350000
0+
#352000
0&
#372000
1&
#392000
0&
#412000
1&
#432000
0&
#452000
1&
#472000
0&
#492000
1&
#512000
0&
#532000
1&
#552000
0&
#572000
1&
#592000
0&
#612000
1&
#632000
0&
#652000
1&
#655000
b10 *
#672000
0&
#692000
1&
#712000
0&
#732000
1&
#752000
0&
#772000
1&
#792000
0&
#812000
1&
0"
0'
#832000
0&
#852000
1&
1'
1"
#872000
0&
#892000
1&
0"
0'
#912000
0&
#932000
1&
1'
1"
#952000
0&
#972000
1&
0"
0'
#992000
0&
#1012000
1&
1'
1"
#1032000
0&
#1052000
1&
0"
0'
#1072000
0&
#1092000
1&
1'
1"
#1112000
0&
#1132000
1&
#1152000
0&
#1172000
1&
0"
0'
#1192000
0&
#1212000
1&
1'
1"
#1232000
0&
#1252000
1&
0"
0'
#1272000
0&
#1292000
1&
#1312000
0&
#1332000
1&
#1352000
0&
#1372000
1&
1'
1"
#1392000
0&
#1412000
1&
0"
0'
#1432000
0&
#1452000
1&
1'
1"
#1472000
0&
#1492000
1&
#1512000
0&
#1532000
1&
#1552000
0&
#1572000
1&
#1592000
0&
#1612000
1&
#1632000
0&
#1652000
1&
#1672000
0&
#1692000
1&
#1712000
0&
#1732000
1&
#1752000
0&
#1772000
1&
0"
0'
#1792000
0&
#1812000
1&
1'
1"
#1832000
0&
#1852000
1&
#1872000
0&
#1892000
1&
0"
0'
#1912000
0&
#1932000
1&
1'
1"
#1952000
0&
#1972000
1&
#1992000
0&
#2012000
1&
#2032000
0&
#2052000
1&
0"
0'
#2072000
0&
#2092000
1&
#2112000
0&
#2132000
1&
#2152000
0&
#2172000
1&
#2192000
0&
#2212000
1&
#2232000
0&
#2252000
1&
#2272000
0&
#2292000
1&
#2312000
0&
#2332000
1&
#2352000
0&
#2372000
1&
#2392000
0&
#2412000
1&
#2432000
0&
#2452000
1&
#2472000
0&
#2492000
1&
#2512000
0&
#2532000
1&
#2552000
0&
#2572000
1&
#2592000
0&
#2612000
1&
#2632000
0&
#2652000
1&
#2672000
0&
#2692000
1&
#2712000
0&
#2732000
1&
#2752000
0&
#2772000
1&
1'
1"
#2792000
0&
#2812000
1&
z"
z'
